{"name": "Jiaying Shi", "age": null, "current_company": "Microsoft", "current_location": "Sunnyvale", "total_years_experience": 11.8, "industry": null, "education": "Master's degree, Electrical and Electronics Engineering from Arizona State University; Bachelor of Science (BS), Telecommunications Engineering from Huazhong University of Science and Technology", "linkedin_profile_url": "https://www.linkedin.com/in/ACwAAA53z2gBs42RV6DvNS17eXlLabVI6HYMTrs", "jobTitle": "Software Engineer II", "headline": "Software Engineer II at Microsoft", "about": "Effective team player with strong organizational skills and sense of responsibility , detail-oriented and ability to judge multiple tasks, strong problem solving skills and a quick learner", "linkedin_url": "https://www.linkedin.com/in/ACwAAA53z2gBs42RV6DvNS17eXlLabVI6HYMTrs", "description": "Effective team player with strong organizational skills and sense of responsibility , detail-oriented and ability to judge multiple tasks, strong problem solving skills and a quick learner", "match_status": "matched", "output": {"id": "ACwAAA53z2gBs42RV6DvNS17eXlLabVI6HYMTrs", "linkedinUrl": "https://www.linkedin.com/in/ACwAAA53z2gBs42RV6DvNS17eXlLabVI6HYMTrs", "firstName": "Jiaying", "lastName": "Shi", "summary": "Effective team player with strong organizational skills and sense of responsibility , detail-oriented and ability to judge multiple tasks, strong problem solving skills and a quick learner", "openProfile": false, "premium": false, "currentPositions": [{"tenureAtPosition": {"numYears": 8, "numMonths": 4}, "companyName": "Microsoft", "title": "Software Engineer II", "current": true, "tenureAtCompany": {"numYears": 8, "numMonths": 4}, "startedOn": {"month": 12, "year": 2017}}], "pictureUrl": "https://media.licdn.com/dms/image/v2/C5603AQEA7rqhNA9eLA/profile-displayphoto-shrink_400_400/profile-displayphoto-shrink_400_400/0/1517421452229?e=1775692800&v=beta&t=yyBjHDdyFrARVeem5_d9sM6DyIVSA6Ve93OxLkE_398", "location": {"linkedinText": "Sunnyvale, California, United States"}, "_meta": {"pagination": {"totalElements": 51664, "totalPages": 100, "pageNumber": 2, "previousElements": 25, "pageSize": 25}, "query": {"currentJobTitles": ["Software Engineer"], "currentCompanies": ["https://www.linkedin.com/company/microsoft/"]}}}, "basis": [], "profile_info": {"fullName": "Jiaying Shi", "jobTitle": "Software Engineer II", "currentCompany": "Microsoft", "companyIndustry": null, "currentLocation": "Sunnyvale", "totalYearsExperience": 11.8, "education": [{"institution": "Arizona State University", "degree": "Master's degree, Electrical and Electronics Engineering", "period": {"startedOn": {"year": 2012, "month": 0}, "endedOn": {"year": 2014, "month": 0}}}, {"institution": "Huazhong University of Science and Technology", "degree": "Bachelor of Science (BS), Telecommunications Engineering", "period": {"startedOn": {"year": 2009, "month": 0}, "endedOn": {"year": 2013, "month": 0}}}], "about": "Effective team player with strong organizational skills and sense of responsibility , detail-oriented and ability to judge multiple tasks, strong problem solving skills and a quick learner", "headline": "Software Engineer II at Microsoft"}, "apify_enriched": true, "apify_result": {"linkedinUrl": "https://www.linkedin.com/in/ACwAAA53z2gBs42RV6DvNS17eXlLabVI6HYMTrs", "firstName": "Jiaying", "lastName": "Shi", "fullName": "Jiaying Shi", "headline": "Software Engineer II at Microsoft", "connections": 368, "followers": 372, "email": null, "mobileNumber": null, "jobTitle": "Software Engineer II", "jobStartedOn": "12-2017", "jobLocation": "Sunnyvale", "jobStillWorking": true, "companyName": "Microsoft", "companyIndustry": null, "companyWebsite": null, "companyLinkedin": null, "companyFoundedIn": null, "companySize": null, "currentJobDuration": "8 yrs 4 mos", "currentJobDurationInYrs": 8.33, "topSkillsByEndorsements": null, "addressCountryOnly": "United States", "addressWithCountry": "Sunnyvale, California, United States", "addressWithoutCountry": "Sunnyvale, California", "profilePic": "https://media.licdn.com/dms/image/v2/C5603AQEA7rqhNA9eLA/profile-displayphoto-shrink_400_400/profile-displayphoto-shrink_400_400/0/1517421452229?e=1775692800&v=beta&t=yyBjHDdyFrARVeem5_d9sM6DyIVSA6Ve93OxLkE_398", "profilePicHighQuality": "https://media.licdn.com/dms/image/v2/C5603AQEA7rqhNA9eLA/profile-displayphoto-shrink_400_400/profile-displayphoto-shrink_400_400/0/1517421452229?e=1775692800&v=beta&t=yyBjHDdyFrARVeem5_d9sM6DyIVSA6Ve93OxLkE_398", "backgroundPic": null, "linkedinId": "242732904", "isPremium": false, "isVerified": false, "isJobSeeker": false, "isRetired": false, "isCreator": false, "isInfluencer": false, "isCurrentlyEmployed": true, "about": "Effective team player with strong organizational skills and sense of responsibility , detail-oriented and ability to judge multiple tasks, strong problem solving skills and a quick learner", "publicIdentifier": "ACwAAA53z2gBs42RV6DvNS17eXlLabVI6HYMTrs", "linkedinPublicUrl": "https://linkedin.com/in/sjycathy", "openConnection": false, "urn": "ACoAAA53z2gBYj3TKL8Adod0LOiOt0DUW6lNvfw", "totalRecommendationsReceived": 0, "totalRecommendationsGiven": 0, "birthday": {"day": "", "month": "", "year": ""}, "associatedHashtag": [], "firstRoleYear": 2014, "totalExperienceYears": 11.8, "experiencesCount": 4, "experiences": [{"companyId": null, "companyUrn": null, "companyLink1": null, "companyName": "Microsoft", "companySize": null, "companyWebsite": null, "companyIndustry": null, "logo": null, "title": "Software Engineer II", "jobDescription": null, "jobStartedOn": "12-2017", "jobEndedOn": null, "jobLocation": "Sunnyvale", "jobStillWorking": true, "jobLocationCountry": null, "employmentType": null}, {"companyId": "542825", "companyUrn": "urn:li:fsd_company:542825", "companyLink1": "https://www.linkedin.com/company/billingtree/", "companyName": "BillingTree", "companySize": "51-200", "companyWebsite": "http://www.mybillingtree.com", "companyIndustry": "Financial Services", "logo": "https://media.licdn.com/dms/image/v2/C560BAQHDHwrJPkOn0Q/company-logo_400_400/company-logo_400_400/0/1630668271935/billingtree_logo?e=1775692800&v=beta&t=ChdOjzLFBULnaEyUbaU_49jHL6I0LQQVfeuQdjaggeA", "title": "Software Engineer II", "jobDescription": null, "jobStartedOn": "1-2017", "jobEndedOn": "12-2017", "jobLocation": "Phoenix, Arizona Area", "jobStillWorking": false, "jobLocationCountry": "US", "employmentType": null}, {"companyId": "542825", "companyUrn": "urn:li:fsd_company:542825", "companyLink1": "https://www.linkedin.com/company/billingtree/", "companyName": "BillingTree", "companySize": "51-200", "companyWebsite": "http://www.mybillingtree.com", "companyIndustry": "Financial Services", "logo": "https://media.licdn.com/dms/image/v2/C560BAQHDHwrJPkOn0Q/company-logo_400_400/company-logo_400_400/0/1630668271935/billingtree_logo?e=1775692800&v=beta&t=ChdOjzLFBULnaEyUbaU_49jHL6I0LQQVfeuQdjaggeA", "title": "Software Engineer", "jobDescription": null, "jobStartedOn": "1-2015", "jobEndedOn": "1-2017", "jobLocation": "Phoenix, Arizona Area", "jobStillWorking": false, "jobLocationCountry": "US", "employmentType": null}, {"companyId": "1063", "companyUrn": "urn:li:fsd_company:1063", "companyLink1": "https://www.linkedin.com/company/cisco/", "companyName": "Cisco", "companySize": "10001-0", "companyWebsite": "http://www.cisco.com", "companyIndustry": "Software Development", "logo": "https://media.licdn.com/dms/image/v2/D560BAQFYnR_Zrm87Dg/company-logo_400_400/B56ZnMyVr4HUAY-/0/1760077372453/cisco_logo?e=1775692800&v=beta&t=TX7e3lqGVclSBfYWu1IT09-s2ar8FEeqAKY0a_svDk4", "title": "College Intern", "jobDescription": "Responsibilities:  Perform engineering task(s) including hardware and software\n\nAccomplishments: \n-\tUpdated 802.11n module ROMMON boot ROM and IOS software image\n-\tConfigured 802.11n module\u2019s configuration and performed verification testing\n-\tModified 802.11n module mechanical assembly to fit onto Firebird proto type systems\n-\tCreated a comprehensive guide to outline the details in the above tasks\n-\tPerformed video, 2D / 3D graphics, and HTML5 performance testing on the following systems:\no\tFirebird proto type based on Intel Haswell SoC with Windows 7 O/S\no\tFirebird proto type based on Intel Haswell SoC with Fedora 20 Linux O/S\no\tFreescale i.Mx6 Evaluation Board with Linux O/S\no\tBroadcom BCM7445 Evaluation Board with Linus O/S\no\tBoBo PC based on Rockchip RK3188 SoC with Android O/S", "jobStartedOn": "6-2014", "jobEndedOn": "8-2014", "jobLocation": "San Jose, CA", "jobStillWorking": false, "jobLocationCountry": "US", "employmentType": null}], "updates": [], "skills": [{"title": "C#"}, {"title": "C"}, {"title": "Cadence"}, {"title": "Teamwork"}, {"title": "C++"}, {"title": "Microsoft SQL Server"}, {"title": "Analog Circuit Design"}, {"title": "Digital Circuit Design"}, {"title": "Matlab"}, {"title": "Embedded Systems"}, {"title": "Visual Studio"}, {"title": "Cadence Spectre"}, {"title": "Linux Kernel"}, {"title": "Verilog"}, {"title": "Public Speaking"}], "creatorWebsite": [], "profilePicAllDimensions": [], "educations": [{"companyId": "17769", "companyUrn": "urn:li:fsd_company:17769", "companyLink1": "https://www.linkedin.com/school/arizona-state-university/", "logo": "https://media.licdn.com/dms/image/v2/C560BAQHDGjY1IZJuog/company-logo_200_200/company-logo_200_200/0/1631309406468?e=1775692800&v=beta&t=5g1Van3UbxuQbkQ1gZsKxzqQKpg05IPZQWKD1qsuxtg", "title": "Arizona State University", "subtitle": "Master's degree, Electrical and Electronics Engineering", "description": "Course projects on digital circuit design and analog circuit design using Cadence", "grade": "3.74", "period": {"startedOn": {"year": 2012, "month": 0}, "endedOn": {"year": 2014, "month": 0}}}, {"companyId": "11182", "companyUrn": "urn:li:fsd_company:11182", "companyLink1": "https://www.linkedin.com/school/huazhong-university-of-science-and-technology/", "logo": "https://media.licdn.com/dms/image/v2/C4D0BAQE9XxomSh8IwQ/company-logo_200_200/company-logo_200_200/0/1631300895603?e=1775692800&v=beta&t=vt78bmNwr52a9qIYqcQu0ZlIVEduyHLgOa5k_kioG78", "title": "Huazhong University of Science and Technology", "subtitle": "Bachelor of Science (BS), Telecommunications Engineering", "description": null, "grade": null, "period": {"startedOn": {"year": 2009, "month": 0}, "endedOn": {"year": 2013, "month": 0}}}], "licenseAndCertificates": [], "honorsAndAwards": [], "languages": [{"name": "Chinese", "proficiency": "Native or bilingual proficiency"}, {"name": "English", "proficiency": "Professional working proficiency"}], "volunteerAndAwards": [], "verifications": [], "promos": [], "highlights": [], "projects": [], "publications": [], "patents": [], "courses": [], "testScores": [], "organizations": [], "volunteerCauses": [], "interests": [], "recommendationsReceived": [], "recommendations": [], "peopleAlsoViewed": [{"last_name": "Ou", "first_name": "Jiawen", "headline": "Software Engineer at Microsoft", "entity_urn": "urn:li:fsd_profile:ACoAABwkdb0B0uyvTnONtkYoqw28fexczLlHb3A", "public_identifier": "jiawen-ou-991157112", "premium": false, "profile_picture": "", "url": "https://linkedin.com/in/ACoAABwkdb0B0uyvTnONtkYoqw28fexczLlHb3A", "follower_count": 119}, {"last_name": "Shen", "first_name": "Jiawei", "headline": "Principal Software Engineer at Microsoft", "entity_urn": "urn:li:fsd_profile:ACoAAAlHg_EB1-kEJQ50iw5FgHPCFt2AoNQiqPA", "public_identifier": "jiaweishen", "premium": false, "profile_picture": "", "url": "https://linkedin.com/in/ACoAAAlHg_EB1-kEJQ50iw5FgHPCFt2AoNQiqPA", "follower_count": 0}, {"last_name": "Huang", "first_name": "Jiayuan", "headline": "ML @ Microsoft", "entity_urn": "urn:li:fsd_profile:ACoAADSEEBABBb81OzQJODEWnMfbErNmBOTsllU", "public_identifier": "jiayuanhuang", "premium": true, "profile_picture": "https://media.licdn.com/dms/image/v2/C4E03AQG9MTMrRbRBiA/profile-displayphoto-shrink_800_800/profile-displayphoto-shrink_800_800/0/1629834799645?e=1775692800&v=beta&t=wIYCt_kokP6_Q-SQg0h7A4rLCX7yiCvt_0gx51EcOjk", "url": "https://linkedin.com/in/ACoAADSEEBABBb81OzQJODEWnMfbErNmBOTsllU", "follower_count": 841}, {"last_name": "Liu", "first_name": "Jiaxun (Jason)", "headline": "Senior Software Engineer at Microsoft", "entity_urn": "urn:li:fsd_profile:ACoAAAoVcf0B1x51yKxksCeiO41EhCU0dxlulDs", "public_identifier": "jiaxun-jason-liu-8517a748", "premium": false, "profile_picture": "", "url": "https://linkedin.com/in/ACoAAAoVcf0B1x51yKxksCeiO41EhCU0dxlulDs", "follower_count": 0}, {"last_name": "Bai", "first_name": "Jie", "headline": "Program Manager at Microsoft", "entity_urn": "urn:li:fsd_profile:ACoAAAs8oEUBBp_MDMM5r3sQnpl_YPtAVEcCUyw", "public_identifier": "jie-bai-85917653", "premium": false, "profile_picture": "https://media.licdn.com/dms/image/v2/C4E03AQE-bqV8SX3bqA/profile-displayphoto-shrink_400_400/profile-displayphoto-shrink_400_400/0/1522911180333?e=1775692800&v=beta&t=B_neb2Tb1Mo4MXj0ORlFCwdr8cIhD6T1wuiFRgSmmrs", "url": "https://linkedin.com/in/ACoAAAs8oEUBBp_MDMM5r3sQnpl_YPtAVEcCUyw", "follower_count": 163}, {"last_name": "Shan", "first_name": "Jie", "headline": "Principal Software Engineer at Microsoft", "entity_urn": "urn:li:fsd_profile:ACoAAAZnvUYBevHQ7iVhnc-C6ds7ZcG-bL5e7es", "public_identifier": "jie-shan-772ba42b", "premium": false, "profile_picture": "https://media.licdn.com/dms/image/v2/C5603AQHKcc71v3lr5w/profile-displayphoto-shrink_400_400/profile-displayphoto-shrink_400_400/0/1516436707414?e=1775692800&v=beta&t=MOrurR59xJ7phYRAkiADQWuuJJ8Wv2m2mhcZdGwIq7E", "url": "https://linkedin.com/in/ACoAAAZnvUYBevHQ7iVhnc-C6ds7ZcG-bL5e7es", "follower_count": 441}, {"last_name": "Fang", "first_name": "Jiaqi", "headline": "Software Engineer", "entity_urn": "urn:li:fsd_profile:ACoAACHYbQUBXHE7TVvHYHB9M_rRTi0PPLv3ss8", "public_identifier": "fang-jiaqi", "premium": false, "profile_picture": "https://media.licdn.com/dms/image/v2/C5603AQEspaQ9a1VM0A/profile-displayphoto-shrink_800_800/profile-displayphoto-shrink_800_800/0/1588376367914?e=1775692800&v=beta&t=03P7mSomw3NUCybNwSnLUM2nsjh-rZmvIilst145xE4", "url": "https://linkedin.com/in/ACoAACHYbQUBXHE7TVvHYHB9M_rRTi0PPLv3ss8", "follower_count": 118}, {"last_name": "Wu", "first_name": "Jiejiong", "headline": "Aspiring and Passionate Software Engineer", "entity_urn": "urn:li:fsd_profile:ACoAABetDfYBrfomFowYuZgmn9WyqC3_5Q6SkAs", "public_identifier": "jiejiong-wu-13203bb1", "premium": false, "profile_picture": "", "url": "https://linkedin.com/in/ACoAABetDfYBrfomFowYuZgmn9WyqC3_5Q6SkAs", "follower_count": 199}, {"last_name": "Chang", "first_name": "Jiho", "headline": "Senior Software Engineer at Microsoft", "entity_urn": "urn:li:fsd_profile:ACoAAAeYQUgBXp_tdPovOLt19FqjLEFbocQ4ALg", "public_identifier": "jjihochang", "premium": false, "profile_picture": "", "url": "https://linkedin.com/in/ACoAAAeYQUgBXp_tdPovOLt19FqjLEFbocQ4ALg", "follower_count": 576}, {"last_name": "L.", "first_name": "Jiefeng", "headline": "Principal Software Engineer at Microsoft", "entity_urn": "urn:li:fsd_profile:ACoAAEHmRYcBYY_mtG3MsDQE2ZVAlY4-oJhIpdQ", "public_identifier": "jiefeng-l-80732426a", "premium": false, "profile_picture": "", "url": "https://linkedin.com/in/ACoAAEHmRYcBYY_mtG3MsDQE2ZVAlY4-oJhIpdQ", "follower_count": 4}, {"last_name": "Ruan", "first_name": "Jin Yan", "headline": "Software Engineer at Microsoft", "entity_urn": "urn:li:fsd_profile:ACoAAA7eiakBH1Myn45ZeTtjUJq_T0kBJDpH_rk", "public_identifier": "jinyanruan", "premium": false, "profile_picture": "", "url": "https://linkedin.com/in/ACoAAA7eiakBH1Myn45ZeTtjUJq_T0kBJDpH_rk", "follower_count": 0}, {"last_name": "Shang", "first_name": "Jinchuan", "headline": "Senior Software Engineer at Microsoft", "entity_urn": "urn:li:fsd_profile:ACoAAB6GsukBcBKlLUXX4X5i-2wK6llnOzj8GwI", "public_identifier": "jcshangusc", "premium": false, "profile_picture": "https://media.licdn.com/dms/image/v2/C5103AQGj4tkCmllXLA/profile-displayphoto-shrink_800_800/profile-displayphoto-shrink_800_800/0/1517241122153?e=1775692800&v=beta&t=62jQ8Byw6oa1yNeXxN0hCaiuX4bdqOly_4kzcRi8w7E", "url": "https://linkedin.com/in/ACoAAB6GsukBcBKlLUXX4X5i-2wK6llnOzj8GwI", "follower_count": 582}, {"last_name": "Liu", "first_name": "Jie", "headline": "Principal Software Engineer at Microsoft", "entity_urn": "urn:li:fsd_profile:ACoAABCSh8oB8BeucfMJxXvATC0expvkUoUD9uk", "public_identifier": "jieliu1991", "premium": false, "profile_picture": "https://media.licdn.com/dms/image/v2/C4E03AQF1nQQXE0d_MA/profile-displayphoto-shrink_400_400/profile-displayphoto-shrink_400_400/0/1516671142294?e=1775692800&v=beta&t=Bxh0kWRWb8aTIlDxhJ4oFl1rPar5dvE7aLLs-pnkfJE", "url": "https://linkedin.com/in/ACoAABCSh8oB8BeucfMJxXvATC0expvkUoUD9uk", "follower_count": 307}, {"last_name": "Wen", "first_name": "Jie", "headline": "Software Engineer at Microsoft", "entity_urn": "urn:li:fsd_profile:ACoAABYXKHUBi_W-fU_9RtczFCKZ67p6jjhwtfE", "public_identifier": "jie-wen-131151a4", "premium": false, "profile_picture": "", "url": "https://linkedin.com/in/ACoAABYXKHUBi_W-fU_9RtczFCKZ67p6jjhwtfE", "follower_count": 1174}, {"last_name": "Cheng", "first_name": "Jieyu", "headline": "Senior Applied Scientist at Microsoft", "entity_urn": "urn:li:fsd_profile:ACoAACVfUmQBf0iB5X6O2LwPASuigF5Y5XZY6ak", "public_identifier": "jieyucheng", "premium": false, "profile_picture": "https://media.licdn.com/dms/image/v2/D5603AQG85zIbdUH8XA/profile-displayphoto-shrink_200_200/profile-displayphoto-shrink_200_200/0/1634863795970?e=1775692800&v=beta&t=3Vkh16FUGVqNk5Bdn4cYeqNv5KuJ2q2I-vDo69Ns_eE", "url": "https://linkedin.com/in/ACoAACVfUmQBf0iB5X6O2LwPASuigF5Y5XZY6ak", "follower_count": 98}, {"last_name": "Liu", "first_name": "Jikun", "headline": "Artificial Intelligence Engineer", "entity_urn": "urn:li:fsd_profile:ACoAABtX9tkBuEpezRy5egJi4WjPSJVzauhzFTs", "public_identifier": "hi-jikunliu", "premium": false, "profile_picture": "https://media.licdn.com/dms/image/v2/C5603AQEIeo-X35Fxhg/profile-displayphoto-shrink_800_800/profile-displayphoto-shrink_800_800/0/1517446612005?e=1775692800&v=beta&t=F_StYJG4PRd6HDexLMI4l_xYMEgRwfJREpP2mDN1u8A", "url": "https://linkedin.com/in/ACoAABtX9tkBuEpezRy5egJi4WjPSJVzauhzFTs", "follower_count": 116}, {"last_name": "Shen", "first_name": "Jianyu", "headline": "Senior Software Engineer at Microsoft", "entity_urn": "urn:li:fsd_profile:ACoAABpS_WcBgR5OzyQ5EAWjxlzL2A_6_PGcNwo", "public_identifier": "jianyu-shen-51baa6103", "premium": false, "profile_picture": "", "url": "https://linkedin.com/in/ACoAABpS_WcBgR5OzyQ5EAWjxlzL2A_6_PGcNwo", "follower_count": 1423}, {"last_name": "Zhu", "first_name": "Jikai (Maggie)", "headline": "Software Engineer at Microsoft", "entity_urn": "urn:li:fsd_profile:ACoAABBKPpYBojcR05VLT5zUuZDOjSP-HsKZkXg", "public_identifier": "jikai-maggie-zhu-47264077", "premium": false, "profile_picture": "", "url": "https://linkedin.com/in/ACoAABBKPpYBojcR05VLT5zUuZDOjSP-HsKZkXg", "follower_count": 1307}, {"last_name": "Tao", "first_name": "Jimmy", "headline": "Data Engineer, AI Engineer, Software Engineer", "entity_urn": "urn:li:fsd_profile:ACoAAADFj4MBXnfAPP73euGhiZ9L-JiW0Q7uSGg", "public_identifier": "jimtao", "premium": true, "profile_picture": "https://media.licdn.com/dms/image/v2/C4E03AQEpidge4_2_4g/profile-displayphoto-shrink_800_800/profile-displayphoto-shrink_800_800/0/1517685271856?e=1775692800&v=beta&t=he7uZwaWm9Gul8FssH5JAi8Pp4SBk75Hjo62HlNiTX4", "url": "https://linkedin.com/in/ACoAAADFj4MBXnfAPP73euGhiZ9L-JiW0Q7uSGg", "follower_count": 1396}, {"last_name": "Cao", "first_name": "Yanfei", "headline": "Tech Lead, Software Engineering at Repay", "entity_urn": "urn:li:fsd_profile:ACoAAAOAYjsBHhqn-0gzdLW4y5Wg1SlbfemKgCI", "public_identifier": "yanfei-cao-22381017", "premium": false, "profile_picture": "", "url": "https://linkedin.com/in/ACoAAAOAYjsBHhqn-0gzdLW4y5Wg1SlbfemKgCI", "follower_count": 160}, {"last_name": "Pei", "first_name": "Jianmeng", "headline": "Senior Software Engineer", "entity_urn": "urn:li:fsd_profile:ACoAABYxrsoB8VkQ0jyU3Bm1GqX7aXTc1S_cfjY", "public_identifier": "jianmeng-pei-0b684ba4", "premium": false, "profile_picture": "", "url": "https://linkedin.com/in/ACoAABYxrsoB8VkQ0jyU3Bm1GqX7aXTc1S_cfjY", "follower_count": 192}, {"last_name": "Zhang", "first_name": "Jiantong", "headline": "Senior Software Engineer - Dynamics 365 Commerce", "entity_urn": "urn:li:fsd_profile:ACoAAB0_ppoBLvr0wihrgaj0hNDvSnHi59Sz6XM", "public_identifier": "jiantong-zhang-10a408118", "premium": false, "profile_picture": "https://media.licdn.com/dms/image/v2/C5603AQHFunepy18laA/profile-displayphoto-shrink_800_800/profile-displayphoto-shrink_800_800/0/1611956860499?e=1775692800&v=beta&t=29joy2EHQTh_ecJmw8apwyeyt2bcc9BjvxEc3hHm9Mk", "url": "https://linkedin.com/in/ACoAAB0_ppoBLvr0wihrgaj0hNDvSnHi59Sz6XM", "follower_count": 204}, {"last_name": "Zhao", "first_name": "Jianyu (Jerome)", "headline": "Principal Software Engineer at Microsoft", "entity_urn": "urn:li:fsd_profile:ACoAAAYdgm4Brbex6M2Kv7xOCYWqov8aH22pLNo", "public_identifier": "jianyu-jerome-zhao-4924392a", "premium": false, "profile_picture": "https://media.licdn.com/dms/image/v2/C4D03AQF8WWuW07O4NA/profile-displayphoto-shrink_400_400/profile-displayphoto-shrink_400_400/0/1517594830547?e=1775692800&v=beta&t=2m9d_e_YJmKDwtMlL5wCV5muqdf8N2MwNlb9g10HTYg", "url": "https://linkedin.com/in/ACoAAAYdgm4Brbex6M2Kv7xOCYWqov8aH22pLNo", "follower_count": 0}, {"last_name": "Zhu", "first_name": "Jiannan", "headline": "Software Engineer | Distributed Systems, Backend, Availability & Performance | Azure Compute, Prime Video", "entity_urn": "urn:li:fsd_profile:ACoAAC1rJfoBDduaum_LXm6Fae8QlauGFOKSTMQ", "public_identifier": "jiannan-zhu", "premium": true, "profile_picture": "", "url": "https://linkedin.com/in/ACoAAC1rJfoBDduaum_LXm6Fae8QlauGFOKSTMQ", "follower_count": 691}, {"last_name": "Scianna", "first_name": "Fran", "headline": "Payments Professional, Servant Leader", "entity_urn": "urn:li:fsd_profile:ACoAAAEec20BPKpOulg1oSiweDIAPyG9oRM4rOc", "public_identifier": "franscianna", "premium": true, "profile_picture": "https://media.licdn.com/dms/image/v2/D5603AQE7dwn3sEyRQw/profile-displayphoto-shrink_800_800/profile-displayphoto-shrink_800_800/0/1684895046730?e=1775692800&v=beta&t=GwuxZjsfGanxv8VSUIAJgZt5hp9fuOIiig9gyfscj8w", "url": "https://linkedin.com/in/ACoAAAEec20BPKpOulg1oSiweDIAPyG9oRM4rOc", "follower_count": 732}, {"last_name": "Guo", "first_name": "Jiarui", "headline": "Software Engineer at Microsoft", "entity_urn": "urn:li:fsd_profile:ACoAABQqDo4BKYEgeyTq5nmdwM7_CYSByVv97TE", "public_identifier": "jrguo", "premium": false, "profile_picture": "", "url": "https://linkedin.com/in/ACoAABQqDo4BKYEgeyTq5nmdwM7_CYSByVv97TE", "follower_count": 196}]}, "profile_id": "19681920-b6ee-4bac-8746-20f51f398518", "audience_room_id": "91cd222b-8cc9-4ee4-bf06-c5e9ed2f6f74", "summary": null, "postCount": 0}