{"name": "Keith P.", "age": null, "current_company": "Microsoft", "current_location": "Dallas-Fort Worth Metroplex", "total_years_experience": 18.8, "industry": "Software Development", "education": "Bachelor's degree, Finance from University of Nevada-Las Vegas; German Studies from Leuphana University of L\u00fcneburg", "linkedin_profile_url": "https://www.linkedin.com/in/ACwAAEMY1fcBqg-3c0svP0eNbax8HHq4Qm0LFXc", "jobTitle": "Principal Software Engineer", "headline": "Principal Software Engineer", "about": null, "linkedin_url": "https://www.linkedin.com/in/ACwAAEMY1fcBqg-3c0svP0eNbax8HHq4Qm0LFXc", "description": "Principal Software Engineer at Microsoft", "match_status": "matched", "output": {"id": "ACwAAEMY1fcBqg-3c0svP0eNbax8HHq4Qm0LFXc", "linkedinUrl": "https://www.linkedin.com/in/ACwAAEMY1fcBqg-3c0svP0eNbax8HHq4Qm0LFXc", "firstName": "Keith", "lastName": "P.", "openProfile": false, "premium": true, "currentPositions": [{"tenureAtPosition": {"numYears": 2, "numMonths": 4}, "companyName": "Microsoft", "title": "Principal Software Engineer", "current": true, "tenureAtCompany": {"numYears": 2, "numMonths": 4}, "startedOn": {"month": 12, "year": 2023}, "companyId": "1035", "companyLinkedinUrl": "https://www.linkedin.com/company/1035"}], "location": {"linkedinText": "Dallas-Fort Worth Metroplex"}, "_meta": {"pagination": {"totalElements": 51664, "totalPages": 100, "pageNumber": 2, "previousElements": 25, "pageSize": 25}, "query": {"currentJobTitles": ["Software Engineer"], "currentCompanies": ["https://www.linkedin.com/company/microsoft/"]}}}, "basis": [], "profile_info": {"fullName": "Keith P.", "jobTitle": "Principal Software Engineer", "currentCompany": "Microsoft", "companyIndustry": "Software Development", "currentLocation": "Dallas-Fort Worth Metroplex", "totalYearsExperience": 18.8, "education": [{"institution": "University of Nevada-Las Vegas", "degree": "Bachelor's degree, Finance", "period": {"startedOn": {"year": 2007, "month": 8}, "endedOn": {"year": 2010, "month": 12}}}, {"institution": "Leuphana University of L\u00fcneburg", "degree": "German Studies", "period": {"startedOn": {"year": 2009, "month": 5}, "endedOn": {"year": 2009, "month": 7}}}], "about": null, "headline": "Principal Software Engineer"}, "apify_enriched": true, "apify_result": {"linkedinUrl": "https://www.linkedin.com/in/ACwAAEMY1fcBqg-3c0svP0eNbax8HHq4Qm0LFXc", "firstName": "Keith", "lastName": "P.", "fullName": "Keith P.", "headline": "Principal Software Engineer", "connections": 785, "followers": 781, "email": null, "mobileNumber": null, "jobTitle": "Principal Software Engineer", "jobStartedOn": "12-2023", "jobLocation": "Dallas-Fort Worth Metroplex", "jobStillWorking": true, "companyName": "Microsoft", "companyIndustry": "Software Development", "companyWebsite": "https://news.microsoft.com/", "companyLinkedin": "https://www.linkedin.com/company/microsoft/", "companyFoundedIn": null, "companySize": "10001-0", "currentJobDuration": "2 yrs 4 mos", "currentJobDurationInYrs": 2.33, "topSkillsByEndorsements": null, "addressCountryOnly": "United States", "addressWithCountry": "Dallas-Fort Worth Metroplex, United States", "addressWithoutCountry": "Dallas-Fort Worth Metroplex", "profilePic": null, "profilePicHighQuality": null, "backgroundPic": null, "linkedinId": "1125701111", "isPremium": true, "isVerified": true, "isJobSeeker": false, "isRetired": false, "isCreator": false, "isInfluencer": false, "isCurrentlyEmployed": true, "about": null, "publicIdentifier": "ACwAAEMY1fcBqg-3c0svP0eNbax8HHq4Qm0LFXc", "linkedinPublicUrl": "https://linkedin.com/in/keith-p-49bbb3274", "openConnection": false, "urn": "ACoAAEMY1fcBaa01LIzdCBYXmjsqy6W9yCZUE5s", "totalRecommendationsReceived": 0, "totalRecommendationsGiven": 0, "birthday": {"day": "", "month": "", "year": ""}, "associatedHashtag": [], "firstRoleYear": 2007, "totalExperienceYears": 18.8, "experiencesCount": 13, "experiences": [{"companyId": "1035", "companyUrn": "urn:li:fsd_company:1035", "companyLink1": "https://www.linkedin.com/company/microsoft/", "companyName": "Microsoft", "companySize": "10001-0", "companyWebsite": "https://news.microsoft.com/", "companyIndustry": "Software Development", "logo": "https://media.licdn.com/dms/image/v2/D560BAQH32RJQCl3dDQ/company-logo_400_400/B56ZYQ0mrGGoAc-/0/1744038948046/microsoft_logo?e=1775692800&v=beta&t=bpHvEU_rLC_nS5opTP7xem1WrnPgW9tn-bxXltwrpfg", "title": "Principal Software Engineer", "jobDescription": null, "jobStartedOn": "12-2023", "jobEndedOn": null, "jobLocation": "Dallas-Fort Worth Metroplex", "jobStillWorking": true, "jobLocationCountry": "US", "employmentType": "Full-time"}, {"companyId": "2382910", "companyUrn": "urn:li:fsd_company:2382910", "companyLink1": "https://www.linkedin.com/company/amazon-web-services/", "companyName": "Amazon Web Services (AWS)", "companySize": "10001-0", "companyWebsite": "http://aws.amazon.com", "companyIndustry": "IT Services and IT Consulting", "logo": "https://media.licdn.com/dms/image/v2/D4E0BAQFqdm1TZ-RZKQ/company-logo_400_400/B4EZgOay6gHEAg-/0/1752588562343/amazon_web_services_logo?e=1775692800&v=beta&t=hWKM5H_iwXnh7WU1BKCG0NzmKoGONCKUgREtMVTh1L4", "title": "Senior Security Engineer", "jobDescription": null, "jobStartedOn": "10-2023", "jobEndedOn": "11-2023", "jobLocation": "Dallas-Fort Worth Metroplex", "jobStillWorking": false, "jobLocationCountry": "US", "employmentType": "Full-time"}, {"companyId": "2382910", "companyUrn": "urn:li:fsd_company:2382910", "companyLink1": "https://www.linkedin.com/company/amazon-web-services/", "companyName": "Amazon Web Services (AWS)", "companySize": "10001-0", "companyWebsite": "http://aws.amazon.com", "companyIndustry": "IT Services and IT Consulting", "logo": "https://media.licdn.com/dms/image/v2/D4E0BAQFqdm1TZ-RZKQ/company-logo_400_400/B4EZgOay6gHEAg-/0/1752588562343/amazon_web_services_logo?e=1775692800&v=beta&t=hWKM5H_iwXnh7WU1BKCG0NzmKoGONCKUgREtMVTh1L4", "title": "System Development Manager", "jobDescription": null, "jobStartedOn": "6-2023", "jobEndedOn": "10-2023", "jobLocation": "Dallas-Fort Worth Metroplex", "jobStillWorking": false, "jobLocationCountry": "US", "employmentType": "Full-time"}, {"companyId": "2382910", "companyUrn": "urn:li:fsd_company:2382910", "companyLink1": "https://www.linkedin.com/company/amazon-web-services/", "companyName": "Amazon Web Services (AWS)", "companySize": "10001-0", "companyWebsite": "http://aws.amazon.com", "companyIndustry": "IT Services and IT Consulting", "logo": "https://media.licdn.com/dms/image/v2/D4E0BAQFqdm1TZ-RZKQ/company-logo_400_400/B4EZgOay6gHEAg-/0/1752588562343/amazon_web_services_logo?e=1775692800&v=beta&t=hWKM5H_iwXnh7WU1BKCG0NzmKoGONCKUgREtMVTh1L4", "title": "Senior System Development Engineer", "jobDescription": null, "jobStartedOn": "5-2022", "jobEndedOn": "6-2023", "jobLocation": "Dallas-Fort Worth Metroplex", "jobStillWorking": false, "jobLocationCountry": "US", "employmentType": "Full-time"}, {"companyId": "2382910", "companyUrn": "urn:li:fsd_company:2382910", "companyLink1": "https://www.linkedin.com/company/amazon-web-services/", "companyName": "Amazon Web Services (AWS)", "companySize": "10001-0", "companyWebsite": "http://aws.amazon.com", "companyIndustry": "IT Services and IT Consulting", "logo": "https://media.licdn.com/dms/image/v2/D4E0BAQFqdm1TZ-RZKQ/company-logo_400_400/B4EZgOay6gHEAg-/0/1752588562343/amazon_web_services_logo?e=1775692800&v=beta&t=hWKM5H_iwXnh7WU1BKCG0NzmKoGONCKUgREtMVTh1L4", "title": "Senior Solutions Architect", "jobDescription": null, "jobStartedOn": "1-2020", "jobEndedOn": "5-2022", "jobLocation": "Dallas-Fort Worth Metroplex", "jobStillWorking": false, "jobLocationCountry": "US", "employmentType": "Full-time"}, {"companyId": "2382910", "companyUrn": "urn:li:fsd_company:2382910", "companyLink1": "https://www.linkedin.com/company/amazon-web-services/", "companyName": "Amazon Web Services (AWS)", "companySize": "10001-0", "companyWebsite": "http://aws.amazon.com", "companyIndustry": "IT Services and IT Consulting", "logo": "https://media.licdn.com/dms/image/v2/D4E0BAQFqdm1TZ-RZKQ/company-logo_400_400/B4EZgOay6gHEAg-/0/1752588562343/amazon_web_services_logo?e=1775692800&v=beta&t=hWKM5H_iwXnh7WU1BKCG0NzmKoGONCKUgREtMVTh1L4", "title": "Technical Account Manager", "jobDescription": null, "jobStartedOn": "4-2019", "jobEndedOn": "1-2020", "jobLocation": "Dallas-Fort Worth Metroplex", "jobStillWorking": false, "jobLocationCountry": "US", "employmentType": "Full-time"}, {"companyId": "1382", "companyUrn": "urn:li:fsd_company:1382", "companyLink1": "https://www.linkedin.com/company/goldman-sachs/", "companyName": "Goldman Sachs", "companySize": "10001-0", "companyWebsite": "http://www.goldmansachs.com", "companyIndustry": "Financial Services", "logo": "https://media.licdn.com/dms/image/v2/D4E0BAQG9L7InIQVZrQ/company-logo_400_400/company-logo_400_400/0/1722506756452/goldman_sachs_logo?e=1775692800&v=beta&t=rINnB5BT7Xx4vyqoxSAAjvjd2Y6O_nwFieiEjmHVPD4", "title": "Vice President", "jobDescription": null, "jobStartedOn": "7-2017", "jobEndedOn": "4-2019", "jobLocation": "Dallas-Fort Worth Metroplex", "jobStillWorking": false, "jobLocationCountry": "US", "employmentType": "Full-time"}, {"companyId": "1713404", "companyUrn": "urn:li:fsd_company:1713404", "companyLink1": "https://www.linkedin.com/company/jane-street-global/", "companyName": "Jane Street", "companySize": "1001-5000", "companyWebsite": "http://www.janestreet.com", "companyIndustry": "Financial Services", "logo": "https://media.licdn.com/dms/image/v2/D4E0BAQGDwkF0pxTSjg/company-logo_400_400/company-logo_400_400/0/1700507376786/jane_street_global_logo?e=1775692800&v=beta&t=7kXuRERb9ehwJ-lN6wiXg4S3_kB80HTpbgkyGYf5r-E", "title": "Production Engineer", "jobDescription": null, "jobStartedOn": "4-2016", "jobEndedOn": "2-2017", "jobLocation": "New York, New York, United States", "jobStillWorking": false, "jobLocationCountry": "US", "employmentType": "Full-time"}, {"companyId": "2382910", "companyUrn": "urn:li:fsd_company:2382910", "companyLink1": "https://www.linkedin.com/company/amazon-web-services/", "companyName": "Amazon Web Services (AWS)", "companySize": "10001-0", "companyWebsite": "http://aws.amazon.com", "companyIndustry": "IT Services and IT Consulting", "logo": "https://media.licdn.com/dms/image/v2/D4E0BAQFqdm1TZ-RZKQ/company-logo_400_400/B4EZgOay6gHEAg-/0/1752588562343/amazon_web_services_logo?e=1775692800&v=beta&t=hWKM5H_iwXnh7WU1BKCG0NzmKoGONCKUgREtMVTh1L4", "title": "Linux Support Engineer", "jobDescription": null, "jobStartedOn": "9-2014", "jobEndedOn": "4-2016", "jobLocation": "Seattle, Washington, United States", "jobStillWorking": false, "jobLocationCountry": "US", "employmentType": "Full-time"}, {"companyId": "2382910", "companyUrn": "urn:li:fsd_company:2382910", "companyLink1": "https://www.linkedin.com/company/amazon-web-services/", "companyName": "Amazon Web Services (AWS)", "companySize": "10001-0", "companyWebsite": "http://aws.amazon.com", "companyIndustry": "IT Services and IT Consulting", "logo": "https://media.licdn.com/dms/image/v2/D4E0BAQFqdm1TZ-RZKQ/company-logo_400_400/B4EZgOay6gHEAg-/0/1752588562343/amazon_web_services_logo?e=1775692800&v=beta&t=hWKM5H_iwXnh7WU1BKCG0NzmKoGONCKUgREtMVTh1L4", "title": "Premium Support Engineer", "jobDescription": null, "jobStartedOn": "9-2012", "jobEndedOn": "9-2014", "jobLocation": "Herndon, Virginia, United States", "jobStillWorking": false, "jobLocationCountry": "US", "employmentType": "Full-time"}, {"companyId": "19184", "companyUrn": "urn:li:fsd_company:19184", "companyLink1": "https://www.linkedin.com/company/terpsys/", "companyName": "TerpSys", "companySize": "11-50", "companyWebsite": "http://www.terpsys.com", "companyIndustry": "Information Technology & Services", "logo": "https://media.licdn.com/dms/image/v2/C4E0BAQE75uVT8O9Wdg/company-logo_400_400/company-logo_400_400/0/1630605451478/terpsys_logo?e=1775692800&v=beta&t=9rQiY1Nd7md9DYP4nzKmMrJ8-G1AnltkgJ3WznERVf8", "title": "Network Administrator", "jobDescription": null, "jobStartedOn": "5-2012", "jobEndedOn": "9-2012", "jobLocation": "Rockville, Maryland, United States", "jobStillWorking": false, "jobLocationCountry": "US", "employmentType": "Full-time"}, {"companyId": "19184", "companyUrn": "urn:li:fsd_company:19184", "companyLink1": "https://www.linkedin.com/company/terpsys/", "companyName": "TerpSys", "companySize": "11-50", "companyWebsite": "http://www.terpsys.com", "companyIndustry": "Information Technology & Services", "logo": "https://media.licdn.com/dms/image/v2/C4E0BAQE75uVT8O9Wdg/company-logo_400_400/company-logo_400_400/0/1630605451478/terpsys_logo?e=1775692800&v=beta&t=9rQiY1Nd7md9DYP4nzKmMrJ8-G1AnltkgJ3WznERVf8", "title": "Computer Analyst", "jobDescription": null, "jobStartedOn": "1-2011", "jobEndedOn": "5-2012", "jobLocation": "Bethesda, Maryland, United States", "jobStillWorking": false, "jobLocationCountry": "US", "employmentType": "Full-time"}, {"companyId": "5563", "companyUrn": "urn:li:fsd_company:5563", "companyLink1": "https://www.linkedin.com/company/nstec/", "companyName": "National Security Technologies, LLC (NSTec)", "companySize": "1001-5000", "companyWebsite": "http://www.nstec.com", "companyIndustry": "Defense and Space Manufacturing", "logo": "https://media.licdn.com/dms/image/v2/C4D0BAQEVV-3FgR9xIw/company-logo_400_400/company-logo_400_400/0/1631312969998?e=1775692800&v=beta&t=nOWrHZtVJCJtw5mlwc0ZT0Z4pFULVGfrTO8-a2kH2_8", "title": "Information Technology Support Specialist", "jobDescription": null, "jobStartedOn": "6-2007", "jobEndedOn": "1-2011", "jobLocation": "Las Vegas, Nevada, United States", "jobStillWorking": false, "jobLocationCountry": "US", "employmentType": "Part-time"}], "updates": [], "skills": [{"title": "Systems Programming"}, {"title": "NVIDIA"}, {"title": "Azure Kubernetes Service (AKS)"}, {"title": "Cloud Application Development"}, {"title": "Auth0"}, {"title": "OAuth"}, {"title": "Stripe"}, {"title": "AWS Organizations"}, {"title": "Kubernetes"}, {"title": "Terraform"}, {"title": "Amazon Linux"}, {"title": "CentOS"}, {"title": "Akamai"}, {"title": "Cloudflare"}, {"title": "AWS Identity and Access Management (AWS IAM)"}, {"title": "Amazon S3"}, {"title": "Amazon Dynamodb"}, {"title": "Amazon VPC"}, {"title": "Apache"}, {"title": "Java"}], "creatorWebsite": [], "profilePicAllDimensions": [], "educations": [{"companyId": "18907", "companyUrn": "urn:li:fsd_company:18907", "companyLink1": "https://www.linkedin.com/school/officialunlv/", "logo": "https://media.licdn.com/dms/image/v2/C560BAQFEV82zsR8bkQ/company-logo_200_200/company-logo_200_200/0/1631301935143?e=1775692800&v=beta&t=hmquYY8gEMJIFMrzSUkSCO1hQIRjtpyEMy7vphPDX7g", "title": "University of Nevada-Las Vegas", "subtitle": "Bachelor's degree, Finance", "description": null, "grade": null, "period": {"startedOn": {"year": 2007, "month": 8}, "endedOn": {"year": 2010, "month": 12}}}, {"companyId": "11975", "companyUrn": "urn:li:fsd_company:11975", "companyLink1": "https://www.linkedin.com/school/universitat-luneburg/", "logo": "https://media.licdn.com/dms/image/v2/C4E0BAQHdaerS-OMZlg/company-logo_200_200/company-logo_200_200/0/1653912713880/universitat_luneburg_logo?e=1775692800&v=beta&t=I7dzZ6OL-GsfqroABnRZpBpTK3n9bS6VIBwSG4EvgvA", "title": "Leuphana University of L\u00fcneburg", "subtitle": "German Studies", "description": null, "grade": null, "period": {"startedOn": {"year": 2009, "month": 5}, "endedOn": {"year": 2009, "month": 7}}}], "licenseAndCertificates": [], "honorsAndAwards": [], "languages": [], "volunteerAndAwards": [], "verifications": [], "promos": [], "highlights": [], "projects": [], "publications": [{"title": "Building a Third-Party SaaS Metering and Billing Integration on AWS", "source": "", "summary": "", "url": "https://aws.amazon.com/blogs/apn/building-a-third-party-saas-metering-and-billing-integration-on-aws/", "publishing_date": ""}, {"title": "Managing the account lifecycle in account-per-tenant SaaS environments on AWS", "source": "", "summary": "", "url": "https://aws.amazon.com/blogs/mt/managing-the-account-lifecycle-in-account-per-tenant-saas-environments-on-aws/", "publishing_date": ""}, {"title": "Security practices in AWS multi-tenant SaaS environments", "source": "", "summary": "", "url": "https://aws.amazon.com/blogs/security/security-practices-in-aws-multi-tenant-saas-environments/", "publishing_date": ""}], "patents": [], "courses": [], "testScores": [], "organizations": [], "volunteerCauses": [], "interests": [], "recommendationsReceived": [], "recommendations": [], "peopleAlsoViewed": [{"last_name": "Beberman", "first_name": "Henry", "headline": "Principal Software Engineer on Azure Linux @ Microsoft", "entity_urn": "urn:li:fsd_profile:ACoAACPVPl4B2a4gEPXaxMVtiiDg3HKVVZJbOuM", "public_identifier": "hbeberma", "premium": false, "profile_picture": "", "url": "https://linkedin.com/in/ACoAACPVPl4B2a4gEPXaxMVtiiDg3HKVVZJbOuM", "follower_count": 141}, {"last_name": "Leites", "first_name": "Alex", "headline": "Principal Software Engineer at Microsoft", "entity_urn": "urn:li:fsd_profile:ACoAAADt324BXMh9OqTZA7jOSGqoGzoLjMlMo0s", "public_identifier": "alexleites", "premium": false, "profile_picture": "https://media.licdn.com/dms/image/v2/C5603AQHB9H-OteQChg/profile-displayphoto-shrink_800_800/profile-displayphoto-shrink_800_800/0/1615771086155?e=1775692800&v=beta&t=NeffzrzmwUdv57eMQ1x7lKO9gAF1HB9DtKWhcIYrPK4", "url": "https://linkedin.com/in/ACoAAADt324BXMh9OqTZA7jOSGqoGzoLjMlMo0s", "follower_count": 285}, {"last_name": "Benn", "first_name": "Alex", "headline": "Software Engineer at Microsoft", "entity_urn": "urn:li:fsd_profile:ACoAADg6v94BE1okTl6Cm66HKSZd_XyfSNGkkoY", "public_identifier": "alex-benn-252b26223", "premium": false, "profile_picture": "https://media.licdn.com/dms/image/v2/D4D03AQGusnpx_e3YuA/profile-displayphoto-shrink_800_800/profile-displayphoto-shrink_800_800/0/1710825947414?e=1775692800&v=beta&t=ntyA9fxyJOdISLQsV-AZ3Kj7tYxiAKMoCxCvxmrUkAQ", "url": "https://linkedin.com/in/ACoAADg6v94BE1okTl6Cm66HKSZd_XyfSNGkkoY", "follower_count": 266}, {"last_name": "De Avillez", "first_name": "Carlos", "headline": "Senior Escalation Engineer - Azure Linux at Microsoft", "entity_urn": "urn:li:fsd_profile:ACoAAAFaOccBotZM6RIzTMR5t8gRZXGDJgdNG40", "public_identifier": "carlos-de-avillez", "premium": false, "profile_picture": "https://media.licdn.com/dms/image/v2/C5603AQHHdiGUQJhV_w/profile-displayphoto-shrink_400_400/profile-displayphoto-shrink_400_400/0/1516328142997?e=1775692800&v=beta&t=3QwAxYDYnTktfxAtLo-quDl4HwRcZu6M6zAT7U-vwh4", "url": "https://linkedin.com/in/ACoAAAFaOccBotZM6RIzTMR5t8gRZXGDJgdNG40", "follower_count": 458}, {"last_name": "Pang", "first_name": "Juan-Lee", "headline": "Principal Software Development Engineer", "entity_urn": "urn:li:fsd_profile:ACoAAAqtD18B2aq-M3d10r89dPWvz7QL8ScSxrc", "public_identifier": "pwanli", "premium": true, "profile_picture": "https://media.licdn.com/dms/image/v2/C5603AQH2e1x08X6OxA/profile-displayphoto-shrink_800_800/profile-displayphoto-shrink_800_800/0/1522529734646?e=1775692800&v=beta&t=hMAdPlgj01jd1uPY8hRQaFot3dfg22joBXncFCHhscs", "url": "https://linkedin.com/in/ACoAAAqtD18B2aq-M3d10r89dPWvz7QL8ScSxrc", "follower_count": 1003}, {"last_name": "Danielson", "first_name": "Randy", "headline": "Principal Software Engineer Lead", "entity_urn": "urn:li:fsd_profile:ACoAAAsoFHkBgF5KvrmSgV2eVr7Uh_AdTM_Ty2U", "public_identifier": "randydanielson", "premium": false, "profile_picture": "", "url": "https://linkedin.com/in/ACoAAAsoFHkBgF5KvrmSgV2eVr7Uh_AdTM_Ty2U", "follower_count": 281}, {"last_name": "Shankar", "first_name": "Niranjan", "headline": "Senior Software Engineer at Microsoft | Azure Kubernetes Service", "entity_urn": "urn:li:fsd_profile:ACoAACPL4T4BHkhLmRBHO6BDREAp6EdFo8Px2zE", "public_identifier": "niranjan-shankar-766164149", "premium": true, "profile_picture": "https://media.licdn.com/dms/image/v2/D4E03AQEAWEKtzFIFLA/profile-displayphoto-shrink_800_800/B4EZQjXWYkHkAc-/0/1735760111472?e=1775692800&v=beta&t=o4O3t1varISJQDvbXl7OyiMpQd-S9yV_4DnSu54_Q88", "url": "https://linkedin.com/in/ACoAACPL4T4BHkhLmRBHO6BDREAp6EdFo8Px2zE", "follower_count": 1097}, {"last_name": "Lombardi", "first_name": "Philip", "headline": "Principal Infrastructure Engineer / Azure Kubernetes Service", "entity_urn": "urn:li:fsd_profile:ACoAAAbFlYwB5vaigYgJcEAeS5P7HWvtIzWnmkA", "public_identifier": "plombardi89", "premium": false, "profile_picture": "https://media.licdn.com/dms/image/v2/C5603AQH9yYzKv2h-oA/profile-displayphoto-shrink_800_800/profile-displayphoto-shrink_800_800/0/1516494717913?e=1775692800&v=beta&t=9KogqMY0j83OsxbV8KrOFckYhLtP_kVT8eiETDj-uSI", "url": "https://linkedin.com/in/ACoAAAbFlYwB5vaigYgJcEAeS5P7HWvtIzWnmkA", "follower_count": 392}, {"last_name": "Janatra", "first_name": "Ivan", "headline": "Senior Software Engineer @ Microsoft", "entity_urn": "urn:li:fsd_profile:ACoAAAFyH6UB1DBhd40pAVADaXRGl5EBY3f4PRQ", "public_identifier": "ivan-janatra-3451598", "premium": false, "profile_picture": "https://media.licdn.com/dms/image/v2/C5603AQEG_zsdUgd8MA/profile-displayphoto-shrink_800_800/profile-displayphoto-shrink_800_800/0/1516349700050?e=1775692800&v=beta&t=egud2I5Fn3xGC4yvPxYCjzcJR2NAU3X_Y2IZz0WUoA0", "url": "https://linkedin.com/in/ACoAAAFyH6UB1DBhd40pAVADaXRGl5EBY3f4PRQ", "follower_count": 818}, {"last_name": "Roselli", "first_name": "Dom", "headline": "Experienced software engineer and technical leader skilled in building scalable and secure distributed cloud services.", "entity_urn": "urn:li:fsd_profile:ACoAAADUg8cBy0BXvbQGp-YWKDN9opaikupeaGg", "public_identifier": "domroselli", "premium": true, "profile_picture": "https://media.licdn.com/dms/image/v2/D5603AQFFwmg5gOvnwA/profile-displayphoto-crop_800_800/B56Zsz9oJiI0AI-/0/1766103352206?e=1775692800&v=beta&t=PZI4rwL8qkJVhIMh4NT5bDLAoCmZc6NtZWGgrIXGbUM", "url": "https://linkedin.com/in/ACoAAADUg8cBy0BXvbQGp-YWKDN9opaikupeaGg", "follower_count": 792}, {"last_name": "Berrendonner", "first_name": "Jocelyn", "headline": "Principal software development engineer", "entity_urn": "urn:li:fsd_profile:ACoAAAzz7OsBp3WRoPykJ7akWv60QEZr6MArdGM", "public_identifier": "jocelyn-berrendonner-66393b60", "premium": false, "profile_picture": "", "url": "https://linkedin.com/in/ACoAAAzz7OsBp3WRoPykJ7akWv60QEZr6MArdGM", "follower_count": 516}, {"last_name": "Akpan", "first_name": "Bila", "headline": "Principal Software Engineering Manager @ Microsoft | Azure Core Compute", "entity_urn": "urn:li:fsd_profile:ACoAAACrilgBFOWhAAuJXbF6N7GIpSlWWlWLMXE", "public_identifier": "bila-akpan-9b49213", "premium": true, "profile_picture": "", "url": "https://linkedin.com/in/ACoAAACrilgBFOWhAAuJXbF6N7GIpSlWWlWLMXE", "follower_count": 1184}, {"last_name": "C.", "first_name": "Cameron", "headline": "Software Engineer at Microsoft", "entity_urn": "urn:li:fsd_profile:ACoAAALTwzMBX0Vwj2ZKT9xWbitZ3aLv0f0JPvU", "public_identifier": "cameron-c-443a7513", "premium": false, "profile_picture": "https://media.licdn.com/dms/image/v2/C4D03AQH4KZXAlwUhKw/profile-displayphoto-shrink_800_800/profile-displayphoto-shrink_800_800/0/1516517549811?e=1775692800&v=beta&t=vm7yRThiRa5Dwx_zvLe0zrTmmS1fAzS9ZKvSwTrR0XI", "url": "https://linkedin.com/in/ACoAAALTwzMBX0Vwj2ZKT9xWbitZ3aLv0f0JPvU", "follower_count": 241}, {"last_name": "Jayasinghe", "first_name": "Sathya", "headline": "Computer Software Professional", "entity_urn": "urn:li:fsd_profile:ACoAAAIuYisBCaJgZ9heR-DUJke5E5Nb1eAHjqI", "public_identifier": "sathya-jayasinghe-26330910", "premium": false, "profile_picture": "https://media.licdn.com/dms/image/v2/C5603AQFvvt4tEKJucg/profile-displayphoto-shrink_800_800/profile-displayphoto-shrink_800_800/0/1545958761972?e=1775692800&v=beta&t=k9igaDQKt1y5wn60JHvrjdO3YIL0asDjGlVbyOlUHqs", "url": "https://linkedin.com/in/ACoAAAIuYisBCaJgZ9heR-DUJke5E5Nb1eAHjqI", "follower_count": 198}, {"last_name": "Keyan", "first_name": "Lokesh", "headline": "Senior Software Engineer @ Microsoft | KCNA", "entity_urn": "urn:li:fsd_profile:ACoAABO7yX0BaFB5B5fsNbSAWtF0J4GoYKZozbU", "public_identifier": "lokesh-keyan", "premium": false, "profile_picture": "", "url": "https://linkedin.com/in/ACoAABO7yX0BaFB5B5fsNbSAWtF0J4GoYKZozbU", "follower_count": 651}, {"last_name": "Taylor", "first_name": "Justin", "headline": "(RHCE,RHCSA) Linux Engineer", "entity_urn": "urn:li:fsd_profile:ACoAAAmTzSgBPQbnUmrWx6AIVQ270MFuVXm-R-k", "public_identifier": "justintaylor177", "premium": true, "profile_picture": "https://media.licdn.com/dms/image/v2/C4E03AQFQhU79ZP8Lng/profile-displayphoto-shrink_800_800/profile-displayphoto-shrink_800_800/0/1589215831029?e=1775692800&v=beta&t=i-rmyYeryAkCOsl9WYEMuHXOngsg364KFkfpQPrCHTI", "url": "https://linkedin.com/in/ACoAAAmTzSgBPQbnUmrWx6AIVQ270MFuVXm-R-k", "follower_count": 806}, {"last_name": "Kochhar", "first_name": "Sanya", "headline": "Senior Software Engineer at Microsoft", "entity_urn": "urn:li:fsd_profile:ACoAACWUZPYBTi-J7wvA6L_C75pr0U3b32UBaf4", "public_identifier": "sanyakochhar", "premium": false, "profile_picture": "https://media.licdn.com/dms/image/v2/C4E03AQEiQT00ITNVhg/profile-displayphoto-shrink_800_800/profile-displayphoto-shrink_800_800/0/1638033271222?e=1775692800&v=beta&t=1e4eyE5IeiG5G3Z49lUyKdM5cTT18PWdAijoTmdz2cU", "url": "https://linkedin.com/in/ACoAACWUZPYBTi-J7wvA6L_C75pr0U3b32UBaf4", "follower_count": 1192}, {"last_name": "M.", "first_name": "Eric", "headline": "Principal Software Engineering Manager at Microsoft", "entity_urn": "urn:li:fsd_profile:ACoAAAB5qywBQg1nZ22sj6bHsI3f9FkFKd76cik", "public_identifier": "eric-mattingly", "premium": false, "profile_picture": "", "url": "https://linkedin.com/in/ACoAAAB5qywBQg1nZ22sj6bHsI3f9FkFKd76cik", "follower_count": 0}, {"last_name": "Hu", "first_name": "Zhewei", "headline": "Software Engineer@Microsoft Azure Kubernetes Service (AKS)", "entity_urn": "urn:li:fsd_profile:ACoAABOFv7QBXefeZJQaa_l3fKLUBm7ep6J4eNE", "public_identifier": "zhewei-hu", "premium": false, "profile_picture": "", "url": "https://linkedin.com/in/ACoAABOFv7QBXefeZJQaa_l3fKLUBm7ep6J4eNE", "follower_count": 2170}, {"last_name": "Subramanian", "first_name": "Hariharan", "headline": "Senior Software Engineer at Microsoft (Azure Kubernetes Services)", "entity_urn": "urn:li:fsd_profile:ACoAAANX4AsBa37wTR0vKP3JCA-lf-m93H3S9PE", "public_identifier": "hariharan-subramanian-a3794b16", "premium": true, "profile_picture": "", "url": "https://linkedin.com/in/ACoAAANX4AsBa37wTR0vKP3JCA-lf-m93H3S9PE", "follower_count": 767}, {"last_name": "Dama", "first_name": "Devesh", "headline": "Senior Software Engineer at Microsoft", "entity_urn": "urn:li:fsd_profile:ACoAAAIckRsBe9HpALcK4Ep6sU673EKI0KmEBpY", "public_identifier": "ddama", "premium": false, "profile_picture": "", "url": "https://linkedin.com/in/ACoAAAIckRsBe9HpALcK4Ep6sU673EKI0KmEBpY", "follower_count": 697}, {"last_name": "Telfer", "first_name": "Brian", "headline": "Principal Software Engineering Manager at Microsoft", "entity_urn": "urn:li:fsd_profile:ACoAAABMClkBgaH4fmsHRGy1Vpkx8VyXqNznrI0", "public_identifier": "brian-telfer-aa18031", "premium": false, "profile_picture": "", "url": "https://linkedin.com/in/ACoAAABMClkBgaH4fmsHRGy1Vpkx8VyXqNznrI0", "follower_count": 531}, {"last_name": "Pannell", "first_name": "Benjamin", "headline": "Principal Site Reliability Engineer at Microsoft", "entity_urn": "urn:li:fsd_profile:ACoAAAr8do8BhDef2mg28JIrJtCWTbYcQzzd-G4", "public_identifier": "benjaminpannell", "premium": false, "profile_picture": "https://media.licdn.com/dms/image/v2/C4E03AQHK0FEyrvEOsg/profile-displayphoto-shrink_800_800/profile-displayphoto-shrink_800_800/0/1651597635399?e=1775692800&v=beta&t=lDss8-bXG17xLc6zk8EziTu1obL8e4NS2HgYaA8gqw0", "url": "https://linkedin.com/in/ACoAAAr8do8BhDef2mg28JIrJtCWTbYcQzzd-G4", "follower_count": 535}, {"last_name": "H.", "first_name": "Umme", "headline": "Azure | Active Directory |AWS | Microsoft Entra ID | Innovative & Solution Based |  MSP | Linux | Windows | Cybersecurity |  DevOps |", "entity_urn": "urn:li:fsd_profile:ACoAAC_H1IoB6kVh4svNFS8kqerQkEfJcRwgC8U", "public_identifier": "umme-h-5a25671a4", "premium": false, "profile_picture": "", "url": "https://linkedin.com/in/ACoAAC_H1IoB6kVh4svNFS8kqerQkEfJcRwgC8U", "follower_count": 374}, {"last_name": "B.", "first_name": "Fuyuan", "headline": "AKS Service Networking", "entity_urn": "urn:li:fsd_profile:ACoAABD2l5AB_DtX1yaHcl_r0V83gntvW47ewNQ", "public_identifier": "biefy", "premium": false, "profile_picture": "https://media.licdn.com/dms/image/v2/C4E03AQEpDwq076L7GQ/profile-displayphoto-shrink_400_400/profile-displayphoto-shrink_400_400/0/1516787060277?e=1775692800&v=beta&t=3XDWmLddmIb4Tp9yrax8Trtrhhetwlvb47xUvdM_2Q4", "url": "https://linkedin.com/in/ACoAABD2l5AB_DtX1yaHcl_r0V83gntvW47ewNQ", "follower_count": 817}, {"last_name": "McClure", "first_name": "Collin", "headline": "Software Engineer 2 @ Microsoft | Azure SQL Database", "entity_urn": "urn:li:fsd_profile:ACoAABZbQBwB4eXf4tIPmQ-lDxaGMrz7E-a8MJc", "public_identifier": "collinmcclure", "premium": false, "profile_picture": "https://media.licdn.com/dms/image/v2/D5603AQH0-Rw9Y8vCng/profile-displayphoto-shrink_800_800/profile-displayphoto-shrink_800_800/0/1685627224641?e=1775692800&v=beta&t=VUhMjjSg7sLaLR33ftHk0dDI3u9I4iVMEvxQR-6J55U", "url": "https://linkedin.com/in/ACoAABZbQBwB4eXf4tIPmQ-lDxaGMrz7E-a8MJc", "follower_count": 531}]}, "profile_id": "51247a48-077d-4151-a09a-cb3ca8e24cf5", "audience_room_id": "91cd222b-8cc9-4ee4-bf06-c5e9ed2f6f74", "summary": null, "postCount": 0}