{"name": "Anuj N.", "age": null, "current_company": "Microsoft", "current_location": "United States", "total_years_experience": 9.6, "industry": "Software Development", "education": "Master of Science - MS, Computer Science and Engineering from University at Buffalo; Bachelor of Technology - BTech, Electronics and Communication from SRM IST Chennai; R. N. Podar School", "linkedin_profile_url": "https://www.linkedin.com/in/ACwAAActAb0BF3XbSNqCudefM8gYmlp1UJJeQ3k", "jobTitle": "Software Engineer 2", "headline": "Software Engineer @ Microsoft", "about": null, "linkedin_url": "https://www.linkedin.com/in/ACwAAActAb0BF3XbSNqCudefM8gYmlp1UJJeQ3k", "description": "Software Engineer 2 at Microsoft", "match_status": "matched", "output": {"id": "ACwAAActAb0BF3XbSNqCudefM8gYmlp1UJJeQ3k", "linkedinUrl": "https://www.linkedin.com/in/ACwAAActAb0BF3XbSNqCudefM8gYmlp1UJJeQ3k", "firstName": "Anuj", "lastName": "N.", "openProfile": false, "premium": false, "currentPositions": [{"tenureAtPosition": {"numYears": 1, "numMonths": 3}, "companyName": "Microsoft", "description": "Cloud Operations + Innovation", "title": "Software Engineer 2", "current": true, "tenureAtCompany": {"numYears": 1, "numMonths": 3}, "startedOn": {"month": 1, "year": 2025}, "companyId": "1035", "companyLinkedinUrl": "https://www.linkedin.com/company/1035"}], "pictureUrl": "https://media.licdn.com/dms/image/v2/D5603AQFY0rCCC0W4Zg/profile-displayphoto-shrink_800_800/B56ZRozeHjHsAc-/0/1736925112986?e=1775692800&v=beta&t=-s_TILXTfJMKWQK81Fuxalt01DVxHmkzSuUtlpziDqc", "location": {"linkedinText": "Redmond, Washington, United States"}, "_meta": {"pagination": {"totalElements": 51664, "totalPages": 100, "pageNumber": 1, "previousElements": 0, "pageSize": 25}, "query": {"currentJobTitles": ["Software Engineer"], "currentCompanies": ["https://www.linkedin.com/company/microsoft/"]}}}, "basis": [], "profile_info": {"fullName": "Anuj N.", "jobTitle": "Software Engineer 2", "currentCompany": "Microsoft", "companyIndustry": "Software Development", "currentLocation": "United States", "totalYearsExperience": 9.6, "education": [{"institution": "University at Buffalo", "degree": "Master of Science - MS, Computer Science and Engineering", "period": {"startedOn": {"year": 2020, "month": 1}, "endedOn": {"year": 2022, "month": 2}}}, {"institution": "SRM IST Chennai", "degree": "Bachelor of Technology - BTech, Electronics and Communication", "period": {"startedOn": {"year": 2012, "month": 7}, "endedOn": {"year": 2016, "month": 5}}}, {"institution": "R. N. Podar School", "degree": null, "period": {"startedOn": {"year": 0, "month": 0}, "endedOn": {"year": 0, "month": 0}}}], "about": null, "headline": "Software Engineer @ Microsoft"}, "apify_enriched": true, "apify_result": {"linkedinUrl": "https://www.linkedin.com/in/ACwAAActAb0BF3XbSNqCudefM8gYmlp1UJJeQ3k", "firstName": "Anuj", "lastName": "N.", "fullName": "Anuj N.", "headline": "Software Engineer @ Microsoft", "connections": 752, "followers": 941, "email": null, "mobileNumber": null, "jobTitle": "Software Engineer 2", "jobStartedOn": "1-2025", "jobLocation": "United States", "jobStillWorking": true, "companyName": "Microsoft", "companyIndustry": "Software Development", "companyWebsite": "https://news.microsoft.com/", "companyLinkedin": "https://www.linkedin.com/company/microsoft/", "companyFoundedIn": null, "companySize": "10001-0", "currentJobDuration": "1 yr 3 mos", "currentJobDurationInYrs": 1.25, "topSkillsByEndorsements": null, "addressCountryOnly": "United States", "addressWithCountry": "Redmond, Washington, United States", "addressWithoutCountry": "Redmond, Washington", "profilePic": "https://media.licdn.com/dms/image/v2/D5603AQFY0rCCC0W4Zg/profile-displayphoto-shrink_800_800/B56ZRozeHjHsAc-/0/1736925112986?e=1775692800&v=beta&t=-s_TILXTfJMKWQK81Fuxalt01DVxHmkzSuUtlpziDqc", "profilePicHighQuality": "https://media.licdn.com/dms/image/v2/D5603AQFY0rCCC0W4Zg/profile-displayphoto-shrink_800_800/B56ZRozeHjHsAc-/0/1736925112986?e=1775692800&v=beta&t=-s_TILXTfJMKWQK81Fuxalt01DVxHmkzSuUtlpziDqc", "backgroundPic": null, "linkedinId": "120390077", "isPremium": false, "isVerified": true, "isJobSeeker": false, "isRetired": false, "isCreator": true, "isInfluencer": false, "isCurrentlyEmployed": true, "about": null, "publicIdentifier": "ACwAAActAb0BF3XbSNqCudefM8gYmlp1UJJeQ3k", "linkedinPublicUrl": "https://linkedin.com/in/anujns", "openConnection": false, "urn": "ACoAAActAb0BTbvaw_1gRasxegJKbibUEgyWO9s", "totalRecommendationsReceived": 0, "totalRecommendationsGiven": 0, "birthday": {"day": "", "month": "", "year": ""}, "associatedHashtag": [], "firstRoleYear": 2016, "totalExperienceYears": 9.6, "experiencesCount": 6, "experiences": [{"companyId": "1035", "companyUrn": "urn:li:fsd_company:1035", "companyLink1": "https://www.linkedin.com/company/microsoft/", "companyName": "Microsoft", "companySize": "10001-0", "companyWebsite": "https://news.microsoft.com/", "companyIndustry": "Software Development", "logo": "https://media.licdn.com/dms/image/v2/D560BAQH32RJQCl3dDQ/company-logo_400_400/B56ZYQ0mrGGoAc-/0/1744038948046/microsoft_logo?e=1775692800&v=beta&t=bpHvEU_rLC_nS5opTP7xem1WrnPgW9tn-bxXltwrpfg", "title": "Software Engineer 2", "jobDescription": "Cloud Operations + Innovation", "jobStartedOn": "1-2025", "jobEndedOn": null, "jobLocation": "United States", "jobStillWorking": true, "jobLocationCountry": "US", "employmentType": "Full-time"}, {"companyId": "1384", "companyUrn": "urn:li:fsd_company:1384", "companyLink1": "https://www.linkedin.com/company/boeing/", "companyName": "Boeing", "companySize": "10001-0", "companyWebsite": "http://www.boeing.com", "companyIndustry": "Aviation & Aerospace", "logo": "https://media.licdn.com/dms/image/v2/D560BAQG8NhuAoYdTgw/company-logo_400_400/company-logo_400_400/0/1708109812925/boeing_logo?e=1775692800&v=beta&t=rKpS1HORzeV0erMpKIuNtScG5b3BOCwFbeKKFawDIok", "title": "Software Engineer", "jobDescription": null, "jobStartedOn": "6-2024", "jobEndedOn": "12-2024", "jobLocation": "United States", "jobStillWorking": false, "jobLocationCountry": "US", "employmentType": "Contract"}, {"companyId": "2382910", "companyUrn": "urn:li:fsd_company:2382910", "companyLink1": "https://www.linkedin.com/company/amazon-web-services/", "companyName": "Amazon Web Services (AWS)", "companySize": "10001-0", "companyWebsite": "http://aws.amazon.com", "companyIndustry": "IT Services and IT Consulting", "logo": "https://media.licdn.com/dms/image/v2/D4E0BAQFqdm1TZ-RZKQ/company-logo_400_400/B4EZgOay6gHEAg-/0/1752588562343/amazon_web_services_logo?e=1775692800&v=beta&t=hWKM5H_iwXnh7WU1BKCG0NzmKoGONCKUgREtMVTh1L4", "title": "Software Development Engineer", "jobDescription": null, "jobStartedOn": "4-2022", "jobEndedOn": "5-2024", "jobLocation": "Seattle, Washington, United States", "jobStillWorking": false, "jobLocationCountry": "US", "employmentType": "Full-time"}, {"companyId": "11174522", "companyUrn": "urn:li:fsd_company:11174522", "companyLink1": "https://www.linkedin.com/company/walmartglobaltech/", "companyName": "Walmart Global Tech", "companySize": "10001-0", "companyWebsite": "http://tech.walmart.com", "companyIndustry": "Software Development", "logo": "https://media.licdn.com/dms/image/v2/C560BAQEjq-bcaW-GSg/company-logo_400_400/company-logo_400_400/0/1630657358931/walmartglobaltech_logo?e=1775692800&v=beta&t=o_0Vll7avhXQkqG2R1HKBiERT8TxEyZlSdTM7X-6Iao", "title": "Software Engineer Intern", "jobDescription": "Walmart Cloud Native Platform + Observability\nFront End Development + Cloud Operations", "jobStartedOn": "6-2021", "jobEndedOn": "8-2021", "jobLocation": null, "jobStillWorking": false, "jobLocationCountry": "US", "employmentType": "Internship"}, {"companyId": "28135250", "companyUrn": "urn:li:fsd_company:28135250", "companyLink1": "https://www.linkedin.com/company/blocklightio/", "companyName": "Blocklight", "companySize": "2-10", "companyWebsite": "https://www.blocklight.io", "companyIndustry": "Software Development", "logo": "https://media.licdn.com/dms/image/v2/C4E0BAQE8HSj22No7MQ/company-logo_400_400/company-logo_400_400/0/1631379879012/blocklightio_logo?e=1775692800&v=beta&t=ehRl89jczoxerZ6dwkTH7Joa5Mmnpw4ZY-3z6-R4h-s", "title": "Software Engineer Intern", "jobDescription": null, "jobStartedOn": "6-2020", "jobEndedOn": "12-2020", "jobLocation": null, "jobStillWorking": false, "jobLocationCountry": "US", "employmentType": "Full-time"}, {"companyId": "1033", "companyUrn": "urn:li:fsd_company:1033", "companyLink1": "https://www.linkedin.com/company/accenture/", "companyName": "Accenture", "companySize": "10001-0", "companyWebsite": "http://www.accenture.com", "companyIndustry": "Business Consulting and Services", "logo": "https://media.licdn.com/dms/image/v2/D4D0BAQEgtOEcxlXMog/company-logo_400_400/B4DZfqEQWkHAAg-/0/1751978673981/accenture_logo?e=1775692800&v=beta&t=mnTnghbYVWsQo1c5rmLkx_Qgwrij9uptqsnxZCmQn94", "title": "Software Engineer", "jobDescription": null, "jobStartedOn": "8-2016", "jobEndedOn": "11-2018", "jobLocation": "Pune, India", "jobStillWorking": false, "jobLocationCountry": "IE", "employmentType": "Full-time"}], "updates": [{"postText": "Currently pursuing MS in CS | University at Buffalo - anujns", "image": "https://media.licdn.com/dms/image/sync/v2/C4E27AQHc6KnGPth6hQ/articleshare-shrink_800/articleshare-shrink_800/0/1711932914406?e=1774461600&v=beta&t=TuwkqGeLIf4IuTPnz2Xn-S8WiUxySCX1mrMLlyU7-Zs", "postLink": "https://www.linkedin.com/in/anujns/overlay/1591124714657/single-media-viewer?type=LINK&profileId=ACoAAActAb0BTbvaw_1gRasxegJKbibUEgyWO9s", "subTitle": "anujns - Overview", "title": "anujns - Overview", "type": "Link"}], "skills": [{"title": "Front-End Development"}, {"title": "Azure Cosmos DB"}, {"title": "Large Language Models (LLM)"}, {"title": "AI Agents"}, {"title": "CouchDB"}, {"title": "Docker"}, {"title": "Gitlab"}, {"title": "Ticketing Systems"}, {"title": "Information Security"}, {"title": "Incident Management"}, {"title": "On-call Support"}, {"title": "Operational Excellence"}, {"title": "Microsoft Azure"}, {"title": "C#"}, {"title": ".NET Framework"}, {"title": "Angular"}, {"title": "Data Center Operations"}, {"title": "Product Development"}, {"title": "Project Management"}, {"title": "Microsoft Copilot"}], "creatorWebsite": [], "profilePicAllDimensions": [], "educations": [{"companyId": "19028", "companyUrn": "urn:li:fsd_company:19028", "companyLink1": "https://www.linkedin.com/school/universityatbuffalo/", "logo": "https://media.licdn.com/dms/image/v2/C4E0BAQEk7c2dS0qFGA/company-logo_200_200/company-logo_200_200/0/1660069485905/universityatbuffalo_logo?e=1775692800&v=beta&t=hmmyNkGXheZqwBvfRiWrZ0d5HXRYH7FhkzHoTE-_8Cg", "title": "University at Buffalo", "subtitle": "Master of Science - MS, Computer Science and Engineering", "description": null, "grade": null, "period": {"startedOn": {"year": 2020, "month": 1}, "endedOn": {"year": 2022, "month": 2}}}, {"companyId": "5478006", "companyUrn": "urn:li:fsd_company:5478006", "companyLink1": "https://www.linkedin.com/school/srm-university-official/", "logo": "https://media.licdn.com/dms/image/v2/C510BAQFVp-fBqkKQyg/company-logo_200_200/company-logo_200_200/0/1630625612861?e=1775692800&v=beta&t=2f6XxZbzHFXPSp3DqUjBOdsUhm0-V1uReBamyO3NPPQ", "title": "SRM IST Chennai", "subtitle": "Bachelor of Technology - BTech, Electronics and Communication", "description": null, "grade": null, "period": {"startedOn": {"year": 2012, "month": 7}, "endedOn": {"year": 2016, "month": 5}}}, {"companyId": "3439014", "companyUrn": "urn:li:fsd_company:3439014", "companyLink1": "https://www.linkedin.com/school/rnpodarschool/", "logo": "https://media.licdn.com/dms/image/v2/C4D0BAQE6cLj6csTYmA/company-logo_200_200/company-logo_200_200/0/1671811264447/rnpodarschool_logo?e=1775692800&v=beta&t=QnJ2CYh0tgOJxOJ3jhBQOqEeGE4tyDhrFQ5MHRSMkg0", "title": "R. N. Podar School", "subtitle": null, "description": null, "grade": null, "period": {"startedOn": {"year": 0, "month": 0}, "endedOn": {"year": 0, "month": 0}}}], "licenseAndCertificates": [{"name": "Building and Deploying Deep Learning Applications with TensorFlow", "startedOn": {"year": 2020, "month": 4, "day": null}, "authority": "LinkedIn", "company_id": "", "url": "https://linkedin.com/company/1337"}, {"name": "Succeeding in Web Development: Full Stack and Front End", "startedOn": {"year": 2020, "month": 4, "day": null}, "authority": "LinkedIn", "company_id": "", "url": "https://linkedin.com/company/1337"}], "honorsAndAwards": [], "languages": [{"name": "English", "proficiency": "Native or bilingual proficiency"}, {"name": "Hindi", "proficiency": "Native or bilingual proficiency"}], "volunteerAndAwards": [], "verifications": [], "promos": [], "highlights": [], "projects": [], "publications": [], "patents": [], "courses": [], "testScores": [], "organizations": [], "volunteerCauses": [], "interests": [], "recommendationsReceived": [], "recommendations": [], "peopleAlsoViewed": [{"last_name": "Patnaik", "first_name": "Pratiksha", "headline": "AI Infra | Gen AI | Agentic AI | Cloud Infrastructure Engineer at Google", "entity_urn": "urn:li:fsd_profile:ACoAABiV6agB8RZVbWLB5BjvDcMZwi02jFCDXlc", "public_identifier": "pratiksha-patnaik", "premium": false, "profile_picture": "https://media.licdn.com/dms/image/v2/D5603AQHgUa9Lr0Z-JQ/profile-displayphoto-crop_800_800/B56Zo2W.WNIcAM-/0/1761848584948?e=1775692800&v=beta&t=aKUTKPqr1WSKh6sikKYfbNBxRiV1-I6fJctlQpM_UX8", "url": "https://linkedin.com/in/ACoAABiV6agB8RZVbWLB5BjvDcMZwi02jFCDXlc", "follower_count": 2989}, {"last_name": "Anand", "first_name": "Akriti", "headline": "Software Development Engineer at Amazon", "entity_urn": "urn:li:fsd_profile:ACoAABm8-X8BSWvvE1SqS6romHf9bxBHp4INN20", "public_identifier": "akriti-anand", "premium": false, "profile_picture": "https://media.licdn.com/dms/image/v2/C5603AQEUUNPXtuSpMQ/profile-displayphoto-shrink_800_800/profile-displayphoto-shrink_800_800/0/1601342068938?e=1775692800&v=beta&t=4aVUTeBrCsnQk5Spnr68etie9vxulUGkMIYD0yn7hDo", "url": "https://linkedin.com/in/ACoAABm8-X8BSWvvE1SqS6romHf9bxBHp4INN20", "follower_count": 2205}, {"last_name": "Agarwal", "first_name": "Chirag", "headline": "SDE at AWS | Conversational and Agentic AI", "entity_urn": "urn:li:fsd_profile:ACoAAAIl3_0BsN6IJYVt6OL23x9okFXJj62gRCo", "public_identifier": "chiragagarwal2511", "premium": false, "profile_picture": "", "url": "https://linkedin.com/in/ACoAAAIl3_0BsN6IJYVt6OL23x9okFXJj62gRCo", "follower_count": 923}, {"last_name": "K.", "first_name": "Sai Anirudh", "headline": "NYU CyberFellow | Ex-Microsoft | Ex-Samsung | NYU | IIT | Computer Science | Technology", "entity_urn": "urn:li:fsd_profile:ACoAABGDN5UBOvl0VlLvna-wyz4x5e4jbtqJKYI", "public_identifier": "saikondaveeti", "premium": true, "profile_picture": "https://media.licdn.com/dms/image/v2/C4E03AQEa7SiHBEgDIg/profile-displayphoto-shrink_400_400/profile-displayphoto-shrink_400_400/0/1516864611864?e=1775692800&v=beta&t=uKZ-kyK7FQdrxXp16H9jEkxAnSxckPasWB0umZMb4gE", "url": "https://linkedin.com/in/ACoAABGDN5UBOvl0VlLvna-wyz4x5e4jbtqJKYI", "follower_count": 1126}, {"last_name": "Geetha", "first_name": "Parvathy", "headline": "Software Engineer | Infra | Certified Kubernetes Administrator", "entity_urn": "urn:li:fsd_profile:ACoAABWtYTcBky39v2INTooA99dIqX7LgJdQIu0", "public_identifier": "parvathy-geetha", "premium": true, "profile_picture": "https://media.licdn.com/dms/image/v2/C4E03AQHxNBSdql27nQ/profile-displayphoto-shrink_800_800/profile-displayphoto-shrink_800_800/0/1557251292420?e=1775692800&v=beta&t=BBgib_4lTk8k7YVPm3jkWWGdj5Npgoq4GQwLdNPIOxs", "url": "https://linkedin.com/in/ACoAABWtYTcBky39v2INTooA99dIqX7LgJdQIu0", "follower_count": 1218}, {"last_name": "Boob", "first_name": "Surabhi", "headline": "Engineering | Systems and Software Design | Networking Software | Microsoft | Co-founder and Advisor @Vahati for Women in STEM Empowerment", "entity_urn": "urn:li:fsd_profile:ACoAAA09kYEBgiJ5-sWeskQTZ3rs67KmSqsQwy0", "public_identifier": "surabhiboob", "premium": true, "profile_picture": "https://media.licdn.com/dms/image/v2/D5603AQG7a_VBqZcqJQ/profile-displayphoto-shrink_800_800/profile-displayphoto-shrink_800_800/0/1727421363993?e=1775692800&v=beta&t=1bbx3SmmtgG_VErPbSdWbcB0uus5slTb0lmtXqKsYVU", "url": "https://linkedin.com/in/ACoAAA09kYEBgiJ5-sWeskQTZ3rs67KmSqsQwy0", "follower_count": 3960}, {"last_name": "Batacan", "first_name": "Maribel", "headline": "Business Analyst at HealthCare Partners", "entity_urn": "urn:li:fsd_profile:ACoAABlCwDcBYActVW5MOo8zyysr4-4Ay9zhgrg", "public_identifier": "maribel-batacan-61bb21b9", "premium": false, "profile_picture": "", "url": "https://linkedin.com/in/ACoAABlCwDcBYActVW5MOo8zyysr4-4Ay9zhgrg", "follower_count": 48}, {"last_name": "Mann", "first_name": "Kaley", "headline": "Registered Nurse at Abrazo Health", "entity_urn": "urn:li:fsd_profile:ACoAAFkfihgBKijoHZ7UP9ykCJflOjjT0k7BzV0", "public_identifier": "kaley-mann-560904358", "premium": false, "profile_picture": "https://media.licdn.com/dms/image/v2/D4D03AQH-0WLOAradIg/profile-displayphoto-crop_800_800/B4DZl8WvXaIYAI-/0/1758727960934?e=1775692800&v=beta&t=A2fLSSowujdQjQd7awV35KG4kGWvi5r_vFgRDp8Y9vs", "url": "https://linkedin.com/in/ACoAAFkfihgBKijoHZ7UP9ykCJflOjjT0k7BzV0", "follower_count": 3}, {"last_name": "Swamy", "first_name": "Narayana", "headline": "Senior Quality Engineer, Walmart Glogal Tech India", "entity_urn": "urn:li:fsd_profile:ACoAAD0f_P8BYTOpnCWGMi9x9wOCnnAabiYVGE8", "public_identifier": "narayana-swamy-53b534247", "premium": false, "profile_picture": "", "url": "https://linkedin.com/in/ACoAAD0f_P8BYTOpnCWGMi9x9wOCnnAabiYVGE8", "follower_count": 23}, {"last_name": "Chopra", "first_name": "Sandeep", "headline": "Director at California State University, Fullerton", "entity_urn": "urn:li:fsd_profile:ACoAAAnEUvsBrPUIvGkBuRAera1RLjol5IKXY1g", "public_identifier": "sandeep-chopra-137a6346", "premium": false, "profile_picture": "", "url": "https://linkedin.com/in/ACoAAAnEUvsBrPUIvGkBuRAera1RLjol5IKXY1g", "follower_count": 1}, {"last_name": "Khauv", "first_name": "Hong", "headline": "Mechanical Engineer", "entity_urn": "urn:li:fsd_profile:ACoAAAGJ2gcBqV0HHz5yERJqvSUFRMCfDDXhbYw", "public_identifier": "hong-khauv-2337898", "premium": false, "profile_picture": "https://media.licdn.com/dms/image/v2/C5603AQHuoY_Mnd4cmA/profile-displayphoto-shrink_800_800/profile-displayphoto-shrink_800_800/0/1564676493134?e=1775692800&v=beta&t=vrMG7G0w6eAU05ZwwGds2ox3Cj87E_zykYoyENNShD4", "url": "https://linkedin.com/in/ACoAAAGJ2gcBqV0HHz5yERJqvSUFRMCfDDXhbYw", "follower_count": 186}, {"last_name": "Chopra", "first_name": "Sandeep", "headline": "CFO at Eckhart Corp", "entity_urn": "urn:li:fsd_profile:ACoAABxlJp8BpuUXmpq8ApqLqZtrHwaZwrxC8_U", "public_identifier": "sandeep-chopra-33b661113", "premium": false, "profile_picture": "", "url": "https://linkedin.com/in/ACoAABxlJp8BpuUXmpq8ApqLqZtrHwaZwrxC8_U", "follower_count": 4}, {"last_name": "Chopra", "first_name": "Toral", "headline": "Bridal Dress Designer at TC Urban Couture ", "entity_urn": "urn:li:fsd_profile:ACoAACph2v0BkB4v1XyyXqwazIeP73kaMe1jgHg", "public_identifier": "toral-chopra-99116a17a", "premium": false, "profile_picture": "https://media.licdn.com/dms/image/v2/C4D03AQEFpLjoxf-QZQ/profile-displayphoto-shrink_800_800/profile-displayphoto-shrink_800_800/0/1587063694396?e=1775692800&v=beta&t=hnZiJVCtB-fWM9LAEDVvAbuQEk_u3sT62LQh5JybOjE", "url": "https://linkedin.com/in/ACoAACph2v0BkB4v1XyyXqwazIeP73kaMe1jgHg", "follower_count": 11}, {"last_name": "Roja Selvamani", "first_name": "Anshu Malika", "headline": "Student at Oakridge International School", "entity_urn": "urn:li:fsd_profile:ACoAADEj4s4BG_EzgGdpCEM8FglfleNGW_4TZS4", "public_identifier": "anshu-malika-roja-selvamani-9a61271b0", "premium": false, "profile_picture": "", "url": "https://linkedin.com/in/ACoAADEj4s4BG_EzgGdpCEM8FglfleNGW_4TZS4", "follower_count": 13}, {"last_name": "U", "first_name": "Chaitanya", "headline": "Software Full stack Developer", "entity_urn": "urn:li:fsd_profile:ACoAACUXXiQBiryT_aNpDWKrs-ViV4mACBjuQZ0", "public_identifier": "chaitanya-python-dev", "premium": false, "profile_picture": "", "url": "https://linkedin.com/in/ACoAACUXXiQBiryT_aNpDWKrs-ViV4mACBjuQZ0", "follower_count": 254}, {"last_name": "Seely", "first_name": "Daniel", "headline": "Software Development Manager at Amazon Web Services (AWS)", "entity_urn": "urn:li:fsd_profile:ACoAAAvLZ_IBh6rbo-twlyMpOSstNbOQVCy7DQQ", "public_identifier": "daniel-seely-92a32956", "premium": false, "profile_picture": "https://media.licdn.com/dms/image/v2/C5103AQG6A4E90CT_WA/profile-displayphoto-shrink_800_800/profile-displayphoto-shrink_800_800/0/1516901899472?e=1775692800&v=beta&t=q3_WZ9YJTqtltykmvS9jm4izdXXcYd2MiqZnCRG6o0w", "url": "https://linkedin.com/in/ACoAAAvLZ_IBh6rbo-twlyMpOSstNbOQVCy7DQQ", "follower_count": 170}, {"last_name": "Natrayan", "first_name": "Prabhu", "headline": "Managing Director Paradigm Intl & Chairman HEPC, Ministry of Textiles, Govt of India.", "entity_urn": "urn:li:fsd_profile:ACoAABBSQR4BNsNvjGQdCYt7acc4Q3vcZ4ts-zM", "public_identifier": "prabhu-natrayan-1ba85477", "premium": false, "profile_picture": "https://media.licdn.com/dms/image/v2/C5103AQF85EpiU0cg0Q/profile-displayphoto-shrink_800_800/profile-displayphoto-shrink_800_800/0/1534181726750?e=1775692800&v=beta&t=xi245lGjArbVnh9-NR8rDk7o54N-PTk447cJB1BhO4o", "url": "https://linkedin.com/in/ACoAABBSQR4BNsNvjGQdCYt7acc4Q3vcZ4ts-zM", "follower_count": 66}, {"last_name": "Nnamdi-Emetarom", "first_name": "Nnamdi", "headline": "Software Engineer at Microsoft", "entity_urn": "urn:li:fsd_profile:ACoAACCPX1MB1YTQojE95zslPICrkmomqlQAQcQ", "public_identifier": "nnamdi-nnamdi-emetarom", "premium": false, "profile_picture": "https://media.licdn.com/dms/image/v2/C4E03AQFA-LOconcx2g/profile-displayphoto-shrink_800_800/profile-displayphoto-shrink_800_800/0/1546110099879?e=1775692800&v=beta&t=ZaPxE-lhJ2kVelpVLfaMEFvx07WjPXSSUDmM-KZKbCk", "url": "https://linkedin.com/in/ACoAACCPX1MB1YTQojE95zslPICrkmomqlQAQcQ", "follower_count": 184}, {"last_name": "Malhotra", "first_name": "Payal", "headline": "Creative and content writer", "entity_urn": "urn:li:fsd_profile:ACoAAAlZC4EBgXPGQ58Kv0gSGazgYPx6GHv093A", "public_identifier": "payal-malhotra-54163244", "premium": false, "profile_picture": "https://media.licdn.com/dms/image/v2/C5603AQHYBZ2w_FLotQ/profile-displayphoto-shrink_800_800/profile-displayphoto-shrink_800_800/0/1517367977471?e=1775692800&v=beta&t=pEi6_SAaCzwo2krU-j-13MJh1aP4i86LafaE0WnAD9o", "url": "https://linkedin.com/in/ACoAAAlZC4EBgXPGQ58Kv0gSGazgYPx6GHv093A", "follower_count": 76}, {"last_name": "Torres Dominguez", "first_name": "Sebastian", "headline": "Software Development Engineer", "entity_urn": "urn:li:fsd_profile:ACoAADEbNEoBBnb2EicPmXzZgrc2Ii8AWCY0fnQ", "public_identifier": "sebastiantorresd", "premium": false, "profile_picture": "https://media.licdn.com/dms/image/v2/C5603AQHiLV2ppXUCCg/profile-displayphoto-shrink_800_800/profile-displayphoto-shrink_800_800/0/1662351415562?e=1775692800&v=beta&t=aCdWlziVfEyOQwiFL6BrlSFAkbtMbbGAuaPgQ3JdzbU", "url": "https://linkedin.com/in/ACoAADEbNEoBBnb2EicPmXzZgrc2Ii8AWCY0fnQ", "follower_count": 39}, {"last_name": "H.", "first_name": "Mark", "headline": "Senior Software Engineer at Coinbase", "entity_urn": "urn:li:fsd_profile:ACoAABRHhzMBoadOM5IQjrCBeXXIlMVcn3X2EiE", "public_identifier": "markqhao", "premium": false, "profile_picture": "https://media.licdn.com/dms/image/v2/C5603AQHzut2byB55RQ/profile-displayphoto-shrink_400_400/profile-displayphoto-shrink_400_400/0/1586902720399?e=1775692800&v=beta&t=3LEkcyXHcSBzK0z8iCJcNvHTKz7EFqyQ68gyV72sTZg", "url": "https://linkedin.com/in/ACoAABRHhzMBoadOM5IQjrCBeXXIlMVcn3X2EiE", "follower_count": 575}, {"last_name": "Rodal", "first_name": "Kevin", "headline": "Software Development Engineer II at Microsoft", "entity_urn": "urn:li:fsd_profile:ACoAAAh2_9EBlvW-cEtuKSK4OX4rX1D8y54YTVY", "public_identifier": "kevinrodal", "premium": false, "profile_picture": "https://media.licdn.com/dms/image/v2/C5603AQEieTnvrczM4A/profile-displayphoto-shrink_800_800/profile-displayphoto-shrink_800_800/0/1634615350181?e=1775692800&v=beta&t=wPdHrsX5hd3CvolZptCrC2AmjzNOi_6oxe-GItiss54", "url": "https://linkedin.com/in/ACoAAAh2_9EBlvW-cEtuKSK4OX4rX1D8y54YTVY", "follower_count": 450}, {"last_name": "Swamy", "first_name": "Kumar", "headline": "Senior Software Engineering Manager at Motorola Inc", "entity_urn": "urn:li:fsd_profile:ACoAAATLGXEBEOQycVpY3-hyTKFJMqUpYUbvL1E", "public_identifier": "kumar-swamy-a69b2222", "premium": false, "profile_picture": "", "url": "https://linkedin.com/in/ACoAAATLGXEBEOQycVpY3-hyTKFJMqUpYUbvL1E", "follower_count": 0}, {"last_name": "B.", "first_name": "Omar", "headline": "Software Engineer at Capital One", "entity_urn": "urn:li:fsd_profile:ACoAADKZskoBRbCz16FacgPtXdAu3941-G2rziQ", "public_identifier": "omar-b-b223801b8", "premium": false, "profile_picture": "", "url": "https://linkedin.com/in/ACoAADKZskoBRbCz16FacgPtXdAu3941-G2rziQ", "follower_count": 116}, {"last_name": "Wrye", "first_name": "Dane", "headline": "Software Development Engineer 2 at Amazon Web Services", "entity_urn": "urn:li:fsd_profile:ACoAACNrrggBRnZ3xchzS0jmTUtevg0Q4Yupun4", "public_identifier": "danewrye", "premium": false, "profile_picture": "https://media.licdn.com/dms/image/v2/C5603AQHBXM2sIDPiBA/profile-displayphoto-shrink_800_800/profile-displayphoto-shrink_800_800/0/1662759400451?e=1775692800&v=beta&t=u_eWdOqtgq6dZcCNxP5ksQmLzfPL_AYIwEb_KDrTf_8", "url": "https://linkedin.com/in/ACoAACNrrggBRnZ3xchzS0jmTUtevg0Q4Yupun4", "follower_count": 241}, {"last_name": "Matthews", "first_name": "Paul", "headline": "Principal Engineer at The MITRE Corporation", "entity_urn": "urn:li:fsd_profile:ACoAAADUXUkBkP5J_LOQmEQxP4zqWtC0ea5CsQg", "public_identifier": "paul-matthews-1497b24", "premium": false, "profile_picture": "", "url": "https://linkedin.com/in/ACoAAADUXUkBkP5J_LOQmEQxP4zqWtC0ea5CsQg", "follower_count": 244}]}, "profile_id": "e9e811b0-6759-473a-aed2-8a84e5566a8c", "audience_room_id": "91cd222b-8cc9-4ee4-bf06-c5e9ed2f6f74", "summary": "Anuj N. is currently a software professional at Microsoft operating within the context of a large, mature tech company, and he draws on prior experiences across major cloud and product organizations (references to Amazon/AWS appear frequently). He posts across a broad range of themes \u2014 system design and interview coaching, cloud and ML/AI tools, full\u2011stack and DevOps learning, product management career paths, and personal wellbeing/fitness \u2014 often mixing technical guidance with career mentorship and personal narrative. His style is practical and mentorship-driven: long-form, checklist or list-based posts, multi-part technical series, curated links, and clear, actionable takeaways; tone balances technical depth with accessible, conversational advice. A recurring emphasis is on communication, trade\u2011offs, and problem\u2011solving skills (especially for interviews), paired with hands\u2011on tool mentions (React, Django, TensorFlow, AWS, etc.) and certificates or product announcements to validate credibility. He frequently solicits community engagement (questions, shares, comments), promotes learning resources and internships, and blends thought leadership with direct, tactical guidance for engineers and job\u2011seekers. The unique value in his content lies in combining interview/system\u2011design mentorship, practical engineering tool guidance, career coaching, and motivational/personal insights in one feed.", "highlights": ["Microsoft \u2014 Large Tech / Mature Company", "Interview Coach & System Design Expert", "Technical Thought Leader (AI/ML & Cloud)", "Full\u2011Stack & DevOps Practitioner", "Career Mentor / Product Management Advisor", "Content Creator / Author (newsletter & book)"], "keywords": ["System Design", "Interviewing", "Communication & Trade-offs", "AWS / CodeWhisperer", "Microsoft", "Amazon", "TensorFlow", "React", "Django", "DevOps", "Machine Learning / Deep Learning", "Generative AI", "Product Management / APM", "Full\u2011stack", "Career Coaching"], "postCount": 57}