{"name": "Vasudev Burle", "age": null, "current_company": "Microsoft", "current_location": "Redmond, Washington, United States", "total_years_experience": 20.8, "industry": "Software Development", "education": "MS, Computer Science from University of South Carolina; BS from Birla Institute of Technology and Science, Pilani; St. Jhs , Khammam; St. Jhs , Khammam", "linkedin_profile_url": "https://www.linkedin.com/in/ACwAAADA_dIBDFeQjYg5mfi1tYk3FkOVFkxGLTE", "jobTitle": "Senior technical Program Manager/Senior Software Engineer", "headline": "Senior Software Professional", "about": null, "linkedin_url": "https://www.linkedin.com/in/ACwAAADA_dIBDFeQjYg5mfi1tYk3FkOVFkxGLTE", "description": "Senior technical Program Manager/Senior Software Engineer at Microsoft", "match_status": "matched", "output": {"id": "ACwAAADA_dIBDFeQjYg5mfi1tYk3FkOVFkxGLTE", "linkedinUrl": "https://www.linkedin.com/in/ACwAAADA_dIBDFeQjYg5mfi1tYk3FkOVFkxGLTE", "firstName": "Vasudev", "lastName": "Burle", "openProfile": true, "premium": true, "currentPositions": [{"tenureAtPosition": {"numYears": 20, "numMonths": 10}, "companyName": "Microsoft", "title": "Senior technical Program Manager/Senior Software Engineer", "current": true, "tenureAtCompany": {"numYears": 20, "numMonths": 10}, "startedOn": {"month": 6, "year": 2005}, "companyId": "1035", "companyLinkedinUrl": "https://www.linkedin.com/company/1035"}], "pictureUrl": "https://media.licdn.com/dms/image/v2/C5603AQF171lEeljLKg/profile-displayphoto-shrink_800_800/profile-displayphoto-shrink_800_800/0/1599920349485?e=1775692800&v=beta&t=wZgCvVGZrbFq-QTC0pv343tqk9Jbeol65MU8MH2qAvk", "location": {"linkedinText": "Redmond, Washington, United States"}, "_meta": {"pagination": {"totalElements": 51664, "totalPages": 100, "pageNumber": 1, "previousElements": 0, "pageSize": 25}, "query": {"currentJobTitles": ["Software Engineer"], "currentCompanies": ["https://www.linkedin.com/company/microsoft/"]}}}, "basis": [], "profile_info": {"fullName": "Vasudev Burle", "jobTitle": "Senior technical Program Manager/Senior Software Engineer", "currentCompany": "Microsoft", "companyIndustry": "Software Development", "currentLocation": "Redmond, Washington, United States", "totalYearsExperience": 20.8, "education": [{"institution": "University of South Carolina", "degree": "MS, Computer Science", "period": {"startedOn": {"year": 0, "month": 0}, "endedOn": {"year": 0, "month": 0}}}, {"institution": "Birla Institute of Technology and Science, Pilani", "degree": "BS", "period": {"startedOn": {"year": 0, "month": 0}, "endedOn": {"year": 0, "month": 0}}}, {"institution": "St. Jhs , Khammam", "degree": null, "period": {"startedOn": {"year": 0, "month": 0}, "endedOn": {"year": 0, "month": 0}}}, {"institution": "St. Jhs , Khammam", "degree": null, "period": {"startedOn": {"year": 0, "month": 0}, "endedOn": {"year": 0, "month": 0}}}], "about": null, "headline": "Senior Software Professional"}, "apify_enriched": true, "apify_result": {"linkedinUrl": "https://www.linkedin.com/in/ACwAAADA_dIBDFeQjYg5mfi1tYk3FkOVFkxGLTE", "firstName": "Vasudev", "lastName": "Burle", "fullName": "Vasudev Burle", "headline": "Senior Software Professional", "connections": 868, "followers": 860, "email": null, "mobileNumber": null, "jobTitle": "Senior technical Program Manager/Senior Software Engineer", "jobStartedOn": "6-2005", "jobLocation": null, "jobStillWorking": true, "companyName": "Microsoft", "companyIndustry": "Software Development", "companyWebsite": "https://news.microsoft.com/", "companyLinkedin": "https://www.linkedin.com/company/microsoft/", "companyFoundedIn": null, "companySize": "10001-0", "currentJobDuration": "20 yrs 10 mos", "currentJobDurationInYrs": 20.83, "topSkillsByEndorsements": null, "addressCountryOnly": "United States", "addressWithCountry": "Redmond, Washington, United States", "addressWithoutCountry": "Redmond, Washington", "profilePic": "https://media.licdn.com/dms/image/v2/C5603AQF171lEeljLKg/profile-displayphoto-shrink_800_800/profile-displayphoto-shrink_800_800/0/1599920349485?e=1775692800&v=beta&t=wZgCvVGZrbFq-QTC0pv343tqk9Jbeol65MU8MH2qAvk", "profilePicHighQuality": "https://media.licdn.com/dms/image/v2/C5603AQF171lEeljLKg/profile-displayphoto-shrink_800_800/profile-displayphoto-shrink_800_800/0/1599920349485?e=1775692800&v=beta&t=wZgCvVGZrbFq-QTC0pv343tqk9Jbeol65MU8MH2qAvk", "backgroundPic": null, "linkedinId": "12647890", "isPremium": true, "isVerified": true, "isJobSeeker": false, "isRetired": false, "isCreator": false, "isInfluencer": false, "isCurrentlyEmployed": true, "about": null, "publicIdentifier": "ACwAAADA_dIBDFeQjYg5mfi1tYk3FkOVFkxGLTE", "linkedinPublicUrl": "https://linkedin.com/in/vasudev-burle-46a29b4", "openConnection": true, "urn": "ACoAAADA_dIB6vRANQ-QszJjXDnXwzWdqHn_C_g", "totalRecommendationsReceived": 1, "totalRecommendationsGiven": 0, "birthday": {"day": "", "month": "", "year": ""}, "associatedHashtag": [], "firstRoleYear": 2005, "totalExperienceYears": 20.8, "experiencesCount": 1, "experiences": [{"companyId": "1035", "companyUrn": "urn:li:fsd_company:1035", "companyLink1": "https://www.linkedin.com/company/microsoft/", "companyName": "Microsoft", "companySize": "10001-0", "companyWebsite": "https://news.microsoft.com/", "companyIndustry": "Software Development", "logo": "https://media.licdn.com/dms/image/v2/D560BAQH32RJQCl3dDQ/company-logo_400_400/B56ZYQ0mrGGoAc-/0/1744038948046/microsoft_logo?e=1775692800&v=beta&t=bpHvEU_rLC_nS5opTP7xem1WrnPgW9tn-bxXltwrpfg", "title": "Senior technical Program Manager/Senior Software Engineer", "jobDescription": null, "jobStartedOn": "6-2005", "jobEndedOn": null, "jobLocation": null, "jobStillWorking": true, "jobLocationCountry": "US", "employmentType": null}], "updates": [], "skills": [{"title": "Test Automation"}, {"title": "Agile Methodologies"}, {"title": "Scalability"}, {"title": "Distributed Systems"}, {"title": "Software Engineering"}, {"title": "Software Design"}, {"title": "Manual Testing"}, {"title": "Test Planning"}, {"title": "Software Development"}, {"title": "Quality Center"}, {"title": "Scrum"}, {"title": "Web Services"}, {"title": "Object Oriented Design"}, {"title": "XML"}, {"title": ".NET"}, {"title": "Agile Project Management"}, {"title": "SOA"}, {"title": "C#"}, {"title": "Java"}, {"title": "Software Project Management"}], "creatorWebsite": [], "profilePicAllDimensions": [], "educations": [{"companyId": "19382", "companyUrn": "urn:li:fsd_company:19382", "companyLink1": "https://www.linkedin.com/school/uofsc/", "logo": "https://media.licdn.com/dms/image/v2/D560BAQEJ_-N9MBGihQ/company-logo_200_200/company-logo_200_200/0/1666789286458/uofsc_logo?e=1775692800&v=beta&t=3fwDxDKNlKRB8RpaFVoj7r7V17wuRk10rSvd4I60_t8", "title": "University of South Carolina", "subtitle": "MS, Computer Science", "description": null, "grade": null, "period": {"startedOn": {"year": 0, "month": 0}, "endedOn": {"year": 0, "month": 0}}}, {"companyId": "13440", "companyUrn": "urn:li:fsd_company:13440", "companyLink1": "https://www.linkedin.com/school/birla-institute-of-technology-and-science-pilani/", "logo": "https://media.licdn.com/dms/image/v2/D4D0BAQHJcHjUCqWVbA/company-logo_200_200/company-logo_200_200/0/1695033146996/birla_institute_of_technology_and_science_pilani_logo?e=1775692800&v=beta&t=iiDH_e45fhQaoldmX50fxZcXO1N_8qgvyQq-ndicSQw", "title": "Birla Institute of Technology and Science, Pilani", "subtitle": "BS", "description": null, "grade": null, "period": {"startedOn": {"year": 0, "month": 0}, "endedOn": {"year": 0, "month": 0}}}, {"companyId": null, "companyUrn": null, "companyLink1": null, "logo": null, "title": "St. Jhs , Khammam", "subtitle": null, "description": null, "grade": null, "period": {"startedOn": {"year": 0, "month": 0}, "endedOn": {"year": 0, "month": 0}}}, {"companyId": null, "companyUrn": null, "companyLink1": null, "logo": null, "title": "St. Jhs , Khammam", "subtitle": null, "description": null, "grade": null, "period": {"startedOn": {"year": 0, "month": 0}, "endedOn": {"year": 0, "month": 0}}}], "licenseAndCertificates": [], "honorsAndAwards": [], "languages": [], "volunteerAndAwards": [], "verifications": [], "promos": [], "highlights": [], "projects": [], "publications": [], "patents": [], "courses": [], "testScores": [], "organizations": [], "volunteerCauses": [], "interests": [], "recommendationsReceived": [{"name": "Susan Davies", "subtitle": "Director - Technical Marketing Engineering at Cisco - in the Collab division (Webex)", "date": "May 1, 2015", "context": "Susan managed Vasudev directly", "description": "Vasu and I worked together on a couple of projects. He is an exceptional employee - hard working, smart, conscientious - I would have no concern in recommending him for any role, in any capacity.", "urn": "urn:li:fsd_profile:ACoAAAAWq0wBcSmyEBzKQD2mvAbW1Jz9ZFMz0GU", "url": "https://www.linkedin.com/in/susandavies/"}], "recommendations": [], "peopleAlsoViewed": [{"last_name": "Birla", "first_name": "Harsh", "headline": "AI Technology Leader at Microsoft with extensive expertise in Dynamics 365 AI ERP & CRM, Copilot Studio, Power Platform, Azure", "entity_urn": "urn:li:fsd_profile:ACoAAADaqx0BmuqPTi7tCoDDzQVYI5JIti0Bu1w", "public_identifier": "harsh-birla-2519714", "premium": false, "profile_picture": "https://media.licdn.com/dms/image/v2/D5603AQEnKsBL484Y_g/profile-displayphoto-crop_800_800/B56Zmmr_NaJsAI-/0/1759438176561?e=1775692800&v=beta&t=cSTf7s-P0LTTMUOsRQMH68I644DWS3GBisb7ynLC9FY", "url": "https://linkedin.com/in/ACoAAADaqx0BmuqPTi7tCoDDzQVYI5JIti0Bu1w", "follower_count": 1839}, {"last_name": "Turner", "first_name": "Daren", "headline": "Principal Solution Architect", "entity_urn": "urn:li:fsd_profile:ACoAAABNbEwB444dZwbX86lGeQdu-ivvZnwHRqE", "public_identifier": "darenturner", "premium": false, "profile_picture": "https://media.licdn.com/dms/image/v2/C5103AQHJaY4Y_u8mxA/profile-displayphoto-shrink_800_800/profile-displayphoto-shrink_800_800/0/1516326895080?e=1775692800&v=beta&t=Zi_gUMO4fe-VkMmnyi0ivvo5Gvl9QAsTOIhifYSr8Ho", "url": "https://linkedin.com/in/ACoAAABNbEwB444dZwbX86lGeQdu-ivvZnwHRqE", "follower_count": 469}, {"last_name": "Naik", "first_name": "Hiren", "headline": "Senior Solution Architect at Microsoft", "entity_urn": "urn:li:fsd_profile:ACoAAADUJ6kBgzxHYOg9FFeMtlESljGQ6iUJfv8", "public_identifier": "hirenrnaik", "premium": false, "profile_picture": "", "url": "https://linkedin.com/in/ACoAAADUJ6kBgzxHYOg9FFeMtlESljGQ6iUJfv8", "follower_count": 1632}, {"last_name": "Seaton", "first_name": "Phillip", "headline": "Sr. Solutions Architect", "entity_urn": "urn:li:fsd_profile:ACoAAAGk1JkBN_K6iFWvpyHHjUderThPFFhaZs4", "public_identifier": "pbseaton", "premium": false, "profile_picture": "", "url": "https://linkedin.com/in/ACoAAAGk1JkBN_K6iFWvpyHHjUderThPFFhaZs4", "follower_count": 2330}, {"last_name": "Joyce", "first_name": "Nicole", "headline": "Principal Supply Chain Solution Architect at Microsoft", "entity_urn": "urn:li:fsd_profile:ACoAAAJzre8BB5OUIjLE0UHOFdOOWa9I7vMwWNs", "public_identifier": "nicolegump", "premium": false, "profile_picture": "https://media.licdn.com/dms/image/v2/C4E03AQEQbS0rKVbC4Q/profile-displayphoto-shrink_800_800/profile-displayphoto-shrink_800_800/0/1594048634202?e=1775692800&v=beta&t=uDyFDwR1oo5UDO7uuGJ8-2DcV6hGnEq-tDYjxHZwaTU", "url": "https://linkedin.com/in/ACoAAAJzre8BB5OUIjLE0UHOFdOOWa9I7vMwWNs", "follower_count": 1951}, {"last_name": "Jonnala", "first_name": "Mahesh", "headline": "Engineering Leader", "entity_urn": "urn:li:fsd_profile:ACoAAAA4DsoBis33OIp6Y7OCAJJMm__GXo4QC3c", "public_identifier": "jmahesh", "premium": false, "profile_picture": "", "url": "https://linkedin.com/in/ACoAAAA4DsoBis33OIp6Y7OCAJJMm__GXo4QC3c", "follower_count": 1017}, {"last_name": "Gujjula", "first_name": "Rakesh", "headline": "Engineering Leader at Microsoft", "entity_urn": "urn:li:fsd_profile:ACoAAACgdHUBEloOVgr2E-muPnqsiWHcjeySudM", "public_identifier": "rakguj", "premium": true, "profile_picture": "", "url": "https://linkedin.com/in/ACoAAACgdHUBEloOVgr2E-muPnqsiWHcjeySudM", "follower_count": 1232}, {"last_name": "Miller", "first_name": "Elisa", "headline": "Developer at Urban Science", "entity_urn": "urn:li:fsd_profile:ACoAAAX4kVIBmYZfev7M1wW79ZSIhMzo7h4RwMo", "public_identifier": "elisa-miller-41667029", "premium": false, "profile_picture": "https://media.licdn.com/dms/image/v2/C4D03AQFxEt6LeZubfA/profile-displayphoto-shrink_400_400/profile-displayphoto-shrink_400_400/0/1517557569129?e=1775692800&v=beta&t=-r85WcdZnZrpKR7c0BB5qewOs6341mr4wbiJZjKFdy0", "url": "https://linkedin.com/in/ACoAAAX4kVIBmYZfev7M1wW79ZSIhMzo7h4RwMo", "follower_count": 0}, {"last_name": "Khambaty", "first_name": "Rashida", "headline": "Manager - Operations CML", "entity_urn": "urn:li:fsd_profile:ACoAAALDqTsBGceJj9NjGd5tvkBrLmO5H402UqA", "public_identifier": "rashida-khambaty-84b64613", "premium": false, "profile_picture": "", "url": "https://linkedin.com/in/ACoAAALDqTsBGceJj9NjGd5tvkBrLmO5H402UqA", "follower_count": 255}, {"last_name": "Kamineni", "first_name": "Sampath", "headline": "--", "entity_urn": "urn:li:fsd_profile:ACoAAAimBg4B7dUMlGimV9a37QuAv2QWp1PI73Y", "public_identifier": "sampath-kamineni-a9271440", "premium": false, "profile_picture": "", "url": "https://linkedin.com/in/ACoAAAimBg4B7dUMlGimV9a37QuAv2QWp1PI73Y", "follower_count": 1}, {"last_name": "Solomon", "first_name": "James", "headline": "Software Architect at Apttus", "entity_urn": "urn:li:fsd_profile:ACoAAAD3Hk4B-CiNvc-8EiKvSnK5R4KTXQSK2LI", "public_identifier": "jamessolomon", "premium": false, "profile_picture": "", "url": "https://linkedin.com/in/ACoAAAD3Hk4B-CiNvc-8EiKvSnK5R4KTXQSK2LI", "follower_count": 173}, {"last_name": "Nune", "first_name": "Ramesh", "headline": "data processing assistant at EPFO", "entity_urn": "urn:li:fsd_profile:ACoAAAk4Vc0BO98lZcwAHLpkTwwPvQsyOlzBMtA", "public_identifier": "ramesh-nune-a9197943", "premium": false, "profile_picture": "https://media.licdn.com/dms/image/v2/C5103AQEtEt_T0OChCA/profile-displayphoto-shrink_400_400/profile-displayphoto-shrink_400_400/0/1578751406085?e=1775692800&v=beta&t=e4t3D-GZYLhaXh5xIrdDi_PCg7SjmAOJRjxwfiWvQmA", "url": "https://linkedin.com/in/ACoAAAk4Vc0BO98lZcwAHLpkTwwPvQsyOlzBMtA", "follower_count": 83}, {"last_name": "Esposito", "first_name": "Melisa", "headline": "Principal Program Manager at Microsoft", "entity_urn": "urn:li:fsd_profile:ACoAAARRle8BaL5X1ifs-iT-JKtrr_GEwMjYSYM", "public_identifier": "melisa-esposito", "premium": false, "profile_picture": "", "url": "https://linkedin.com/in/ACoAAARRle8BaL5X1ifs-iT-JKtrr_GEwMjYSYM", "follower_count": 0}, {"last_name": "Bhat", "first_name": "Sreesha", "headline": "Holiday Infinite Leisures Pvt. Ltd.", "entity_urn": "urn:li:fsd_profile:ACoAAATzIFsB4OeL983gqw3rJlBev25i8dOiumk", "public_identifier": "sreesha-bhat-b3798823", "premium": false, "profile_picture": "https://media.licdn.com/dms/image/v2/C5603AQEj0fX1qMHWeA/profile-displayphoto-shrink_800_800/profile-displayphoto-shrink_800_800/0/1610772979142?e=1775692800&v=beta&t=uWPJnKc2s9cWIaJx72vOgvZu5IW0y1jD0X6A3qF_hz0", "url": "https://linkedin.com/in/ACoAAATzIFsB4OeL983gqw3rJlBev25i8dOiumk", "follower_count": 617}, {"last_name": "Linga", "first_name": "Murali", "headline": "Software Engineering Manager", "entity_urn": "urn:li:fsd_profile:ACoAAABXMQ4BLrSGyfoN1HennEsLgQiZD_fTqHI", "public_identifier": "murali-linga-9a6ab61", "premium": false, "profile_picture": "", "url": "https://linkedin.com/in/ACoAAABXMQ4BLrSGyfoN1HennEsLgQiZD_fTqHI", "follower_count": 500}, {"last_name": "V.", "first_name": "Rana", "headline": "Software Engineer", "entity_urn": "urn:li:fsd_profile:ACoAAA-7FwUBiBwZd3I6SCAAyEbIE6YnIcCGOcY", "public_identifier": "rana-vedre", "premium": false, "profile_picture": "https://media.licdn.com/dms/image/v2/D5603AQFuFVQZ592YrQ/profile-displayphoto-shrink_800_800/profile-displayphoto-shrink_800_800/0/1712074722586?e=1775692800&v=beta&t=su2qPRuyJnceS_ejdQi96AZyqKrvk61-Lhrtd_YTrhg", "url": "https://linkedin.com/in/ACoAAA-7FwUBiBwZd3I6SCAAyEbIE6YnIcCGOcY", "follower_count": 51}, {"last_name": "Thompson", "first_name": "Tinku", "headline": "Architect at Federal Reserve Bank of Minneapolis", "entity_urn": "urn:li:fsd_profile:ACoAAACagiMBLVNDgqOrsIcVsjKKqJC_R2OxvLs", "public_identifier": "tinku-thompson-a574833", "premium": false, "profile_picture": "", "url": "https://linkedin.com/in/ACoAAACagiMBLVNDgqOrsIcVsjKKqJC_R2OxvLs", "follower_count": 251}, {"last_name": "Valandrano", "first_name": "Israel", "headline": "Support Engineer", "entity_urn": "urn:li:fsd_profile:ACoAACQ0iwUB4-A5lJjFKEPyXsxT2rLeSiqCZtI", "public_identifier": "israel-valandrano-0b151214b", "premium": false, "profile_picture": "https://media.licdn.com/dms/image/v2/D4D03AQFw0YHTPiYQLw/profile-displayphoto-shrink_800_800/profile-displayphoto-shrink_800_800/0/1676352059833?e=1775692800&v=beta&t=Am8Wq0g8qcffvsthQnpLR9p69ShiAGWq13BMbrQ5i6U", "url": "https://linkedin.com/in/ACoAACQ0iwUB4-A5lJjFKEPyXsxT2rLeSiqCZtI", "follower_count": 61}, {"last_name": "Karumanchi", "first_name": "Goutham", "headline": "RPA Automation/Solutions Architect/UiPath Developer", "entity_urn": "urn:li:fsd_profile:ACoAAAM3itwBk8GQfGPbEXWe8lXukTS0IZ2Gt3Q", "public_identifier": "goutham-karumanchi-7380a916", "premium": false, "profile_picture": "", "url": "https://linkedin.com/in/ACoAAAM3itwBk8GQfGPbEXWe8lXukTS0IZ2Gt3Q", "follower_count": 481}, {"last_name": "Stakh", "first_name": "Alex", "headline": "Principal Software Architect Engineer at Microsoft", "entity_urn": "urn:li:fsd_profile:ACoAAAWNsbwBWCPl53FOdHylfjIy8tkzynq_dyU", "public_identifier": "alex-stakh-0a425327", "premium": false, "profile_picture": "https://media.licdn.com/dms/image/v2/C4D03AQGB_4hKjnM43g/profile-displayphoto-shrink_200_200/profile-displayphoto-shrink_200_200/0/1517443424496?e=1775692800&v=beta&t=C_Qu0YgCW782pUitLHZ5k3l_VX7LG3surquorHXiA9Y", "url": "https://linkedin.com/in/ACoAAAWNsbwBWCPl53FOdHylfjIy8tkzynq_dyU", "follower_count": 58}, {"last_name": "Gunter", "first_name": "Kenny", "headline": "Microsoft D365 Senior EAM Consultant", "entity_urn": "urn:li:fsd_profile:ACoAAAnUBocBjas78if4x7UIu8mrkzMLsaYCM-8", "public_identifier": "kenny-gunter-71b27a47", "premium": false, "profile_picture": "https://media.licdn.com/dms/image/v2/C5603AQGlYLNuYrStMg/profile-displayphoto-shrink_400_400/profile-displayphoto-shrink_400_400/0/1517452730725?e=1775692800&v=beta&t=vZgni4btmjp39zoAATk1zlb4brQOUiBfuVe7xl6gQf0", "url": "https://linkedin.com/in/ACoAAAnUBocBjas78if4x7UIu8mrkzMLsaYCM-8", "follower_count": 104}, {"last_name": "Neela", "first_name": "Lava Kumar", "headline": "Senior Functional Consultant-Dynamics AX/ 365", "entity_urn": "urn:li:fsd_profile:ACoAABzaY78BZMRe4s9NdJQRTRMD7nu8F-mWlQo", "public_identifier": "lavakumarneela", "premium": false, "profile_picture": "", "url": "https://linkedin.com/in/ACoAABzaY78BZMRe4s9NdJQRTRMD7nu8F-mWlQo", "follower_count": 2762}, {"last_name": "S.", "first_name": "Peter Paul", "headline": "Principle Architect \\ Senior Director", "entity_urn": "urn:li:fsd_profile:ACoAACEALCEByMx2-gwwowQ1BkQA9fnvivOwkJw", "public_identifier": "pp87", "premium": false, "profile_picture": "", "url": "https://linkedin.com/in/ACoAACEALCEByMx2-gwwowQ1BkQA9fnvivOwkJw", "follower_count": 0}, {"last_name": "Mantha", "first_name": "Praveen", "headline": "Microsoft", "entity_urn": "urn:li:fsd_profile:ACoAAAC5BE8BN_ngVl2QeIRNMqZJGmVDtx0Bwkw", "public_identifier": "praveen-mantha-b270884", "premium": false, "profile_picture": "", "url": "https://linkedin.com/in/ACoAAAC5BE8BN_ngVl2QeIRNMqZJGmVDtx0Bwkw", "follower_count": 384}]}, "profile_id": "c788cdc0-2b0a-4a32-bf4e-de67621560ce", "audience_room_id": "91cd222b-8cc9-4ee4-bf06-c5e9ed2f6f74", "summary": "Vasudev Burle is currently a Microsoft professional who also actively engages with and posts about peers and initiatives at growth-stage ventures like TruVs, where he highlights hires and practice-building efforts. His posts consistently center on program management, delivery leadership, cloud (AWS) and GenAI capabilities, and broader themes of digital transformation and process modernization. He writes in a warm, professional, and network-oriented tone \u2014 concise celebratory announcements, gratitude for collaborators, and practical resource-sharing for current and aspiring PMs. His content reflects hands-on delivery experience combined with strategic thinking and people leadership, often referencing past corporate experience (Tech Mahindra / ex-Satyam) to underscore credibility. Patterns in his posts include talent welcomes, practice-scaling updates, sharing contact/resources, and acknowledgements of colleagues \u2014 signaling active community engagement and mentoring. The unique value in his feed is the blend of technical/cloud expertise with program/delivery focus and a people-first leadership perspective that supports both hiring/growth narratives and practical guidance for PMs.", "highlights": ["Microsoft Professional", "Digital Transformation Expert", "Program Management & Delivery Leader", "AWS & GenAI Practitioner", "People Leadership / Mentor", "Growth-Stage Practice Builder"], "keywords": ["Program Management", "Delivery Leadership", "Digital Transformation", "Process Modernization", "AWS", "GenAI", "Amazon Business Solutions", "TruVs", "Tech Mahindra", "Satyam", "Hiring / Welcome Announcements", "Mentorship for PMs", "Network Building", "serveNeedy.org", "Resource Sharing"], "postCount": 3}