{"name": "Sreejith S.", "age": null, "current_company": "Microsoft", "current_location": "Greater Seattle Area", "total_years_experience": 18.2, "industry": "Software Development", "education": "Bachelor of Engineering - BE, Electronics and Communication from Anna University Chennai; Master of Science - MS, Electrical & Computer Engineering from Rutgers University", "linkedin_profile_url": "https://www.linkedin.com/in/ACwAAAECONYBSmhOBHscosKYp8ZocgBEV1OyINQ", "jobTitle": "Principal Software Engineer", "headline": "Software Engineer at Microsoft", "about": null, "linkedin_url": "https://www.linkedin.com/in/ACwAAAECONYBSmhOBHscosKYp8ZocgBEV1OyINQ", "description": "Principal Software Engineer at Microsoft", "match_status": "matched", "output": {"id": "ACwAAAECONYBSmhOBHscosKYp8ZocgBEV1OyINQ", "linkedinUrl": "https://www.linkedin.com/in/ACwAAAECONYBSmhOBHscosKYp8ZocgBEV1OyINQ", "firstName": "Sreejith", "lastName": "S.", "openProfile": false, "premium": false, "currentPositions": [{"tenureAtPosition": {"numYears": 15, "numMonths": 4}, "companyName": "Microsoft", "title": "Principal Software Engineer", "current": true, "tenureAtCompany": {"numYears": 15, "numMonths": 4}, "startedOn": {"month": 12, "year": 2010}, "companyId": "1035", "companyLinkedinUrl": "https://www.linkedin.com/company/1035"}], "location": {"linkedinText": "Redmond, Washington, United States"}, "_meta": {"pagination": {"totalElements": 51664, "totalPages": 100, "pageNumber": 2, "previousElements": 25, "pageSize": 25}, "query": {"currentJobTitles": ["Software Engineer"], "currentCompanies": ["https://www.linkedin.com/company/microsoft/"]}}}, "basis": [], "profile_info": {"fullName": "Sreejith S.", "jobTitle": "Principal Software Engineer", "currentCompany": "Microsoft", "companyIndustry": "Software Development", "currentLocation": "Greater Seattle Area", "totalYearsExperience": 18.2, "education": [{"institution": "Anna University Chennai", "degree": "Bachelor of Engineering - BE, Electronics and Communication", "period": {"startedOn": {"year": 0, "month": 0}, "endedOn": {"year": 0, "month": 0}}}, {"institution": "Rutgers University", "degree": "Master of Science - MS, Electrical & Computer Engineering", "period": {"startedOn": {"year": 0, "month": 0}, "endedOn": {"year": 0, "month": 0}}}], "about": null, "headline": "Software Engineer at Microsoft"}, "apify_enriched": true, "apify_result": {"linkedinUrl": "https://www.linkedin.com/in/ACwAAAECONYBSmhOBHscosKYp8ZocgBEV1OyINQ", "firstName": "Sreejith", "lastName": "S.", "fullName": "Sreejith S.", "headline": "Software Engineer at Microsoft", "connections": 572, "followers": 571, "email": null, "mobileNumber": null, "jobTitle": "Principal Software Engineer", "jobStartedOn": "12-2010", "jobLocation": "Greater Seattle Area", "jobStillWorking": true, "companyName": "Microsoft", "companyIndustry": "Software Development", "companyWebsite": "https://news.microsoft.com/", "companyLinkedin": "https://www.linkedin.com/company/microsoft/", "companyFoundedIn": null, "companySize": "10001-0", "currentJobDuration": "15 yrs 4 mos", "currentJobDurationInYrs": 15.33, "topSkillsByEndorsements": null, "addressCountryOnly": "United States", "addressWithCountry": "Redmond, Washington, United States", "addressWithoutCountry": "Redmond, Washington", "profilePic": null, "profilePicHighQuality": null, "backgroundPic": null, "linkedinId": "16922838", "isPremium": false, "isVerified": true, "isJobSeeker": false, "isRetired": false, "isCreator": false, "isInfluencer": false, "isCurrentlyEmployed": true, "about": null, "publicIdentifier": "ACwAAAECONYBSmhOBHscosKYp8ZocgBEV1OyINQ", "linkedinPublicUrl": "https://linkedin.com/in/sree003", "openConnection": false, "urn": "ACoAAAECONYBocNuaB93c6vz9SistbBGqquADo8", "totalRecommendationsReceived": 4, "totalRecommendationsGiven": 0, "birthday": {"day": "", "month": "", "year": ""}, "associatedHashtag": [], "firstRoleYear": 2008, "totalExperienceYears": 18.2, "experiencesCount": 4, "experiences": [{"companyId": "1035", "companyUrn": "urn:li:fsd_company:1035", "companyLink1": "https://www.linkedin.com/company/microsoft/", "companyName": "Microsoft", "companySize": "10001-0", "companyWebsite": "https://news.microsoft.com/", "companyIndustry": "Software Development", "logo": "https://media.licdn.com/dms/image/v2/D560BAQH32RJQCl3dDQ/company-logo_400_400/B56ZYQ0mrGGoAc-/0/1744038948046/microsoft_logo?e=1775692800&v=beta&t=bpHvEU_rLC_nS5opTP7xem1WrnPgW9tn-bxXltwrpfg", "title": "Principal Software Engineer", "jobDescription": null, "jobStartedOn": "12-2010", "jobEndedOn": null, "jobLocation": "Greater Seattle Area", "jobStillWorking": true, "jobLocationCountry": "US", "employmentType": null}, {"companyId": "915386", "companyUrn": "urn:li:fsd_company:915386", "companyLink1": "https://www.linkedin.com/company/rutgers-the-state-university-of-new-jersey/", "companyName": "Rutgers, The State University of New Jersey", "companySize": "0-1", "companyWebsite": null, "companyIndustry": "Higher Education", "logo": null, "title": "Network and technical support/Toefl Test administrator", "jobDescription": "Awarded \"Top ten student employees of the year 2010\" at Rutgers\n\u2022 Assist and train faculty/staff/student users in a multi\u2010platform computer lab environment.\n\u2022 Administer and maintain network during exams.", "jobStartedOn": "1-2008", "jobEndedOn": "9-2010", "jobLocation": null, "jobStillWorking": false, "jobLocationCountry": null, "employmentType": null}, {"companyId": "1103", "companyUrn": "urn:li:fsd_company:1103", "companyLink1": "https://www.linkedin.com/company/verizon/", "companyName": "Verizon", "companySize": "10001-0", "companyWebsite": "https://mycareer.verizon.com/", "companyIndustry": "IT Services and IT Consulting", "logo": "https://media.licdn.com/dms/image/v2/D4E0BAQFcVBjsbfJrBQ/company-logo_400_400/company-logo_400_400/0/1719399854965/verizon_logo?e=1775692800&v=beta&t=qqMvQnwlUGgBMZJZlkVpAXiPNTF9BisSzxJfZw4dY74", "title": "Software Intern", "jobDescription": "Data Masking\t\t\t\t\t\t\t\t       \nImplemented sensitive data masking for complete Employee Database considering information privacy &amp; data confidentiality\nAnalyzed tables used by different People Soft applications and supported Data Masking team in creating masking specs\nAnalyzed masking algorithms for different types of masking requirements\nMasked/unmasked Tables &amp; files containing data from different customers in different formats and tested for their validity", "jobStartedOn": "6-2009", "jobEndedOn": "9-2009", "jobLocation": null, "jobStillWorking": false, "jobLocationCountry": "US", "employmentType": null}, {"companyId": "1103", "companyUrn": "urn:li:fsd_company:1103", "companyLink1": "https://www.linkedin.com/company/verizon/", "companyName": "Verizon", "companySize": "10001-0", "companyWebsite": "https://mycareer.verizon.com/", "companyIndustry": "IT Services and IT Consulting", "logo": "https://media.licdn.com/dms/image/v2/D4E0BAQFcVBjsbfJrBQ/company-logo_400_400/company-logo_400_400/0/1719399854965/verizon_logo?e=1775692800&v=beta&t=qqMvQnwlUGgBMZJZlkVpAXiPNTF9BisSzxJfZw4dY74", "title": "Software Intern", "jobDescription": null, "jobStartedOn": "6-2008", "jobEndedOn": "9-2008", "jobLocation": null, "jobStillWorking": false, "jobLocationCountry": "US", "employmentType": null}], "updates": [], "skills": [{"title": "Programming"}, {"title": "Web Applications"}, {"title": "Technical Design"}, {"title": "Microservices"}, {"title": "JavaScript"}, {"title": "Software Engineering"}, {"title": "Software Development"}, {"title": "C"}, {"title": "C++"}, {"title": "Unix"}, {"title": "SQL"}, {"title": "Linux"}, {"title": "Databases"}, {"title": "Algorithms"}, {"title": "Testing"}, {"title": "C#"}, {"title": "TypeScript"}, {"title": "Java"}], "creatorWebsite": [], "profilePicAllDimensions": [], "educations": [{"companyId": "3595016", "companyUrn": "urn:li:fsd_company:3595016", "companyLink1": "https://www.linkedin.com/school/annauniversity-chennai/", "logo": "https://media.licdn.com/dms/image/v2/D4E0BAQHUHJVQ0ySurw/company-logo_200_200/company-logo_200_200/0/1698329692568?e=1775692800&v=beta&t=34yy778N4Xq-g-7qotUWo1bb-Hv29N85E2VoVga8THg", "title": "Anna University Chennai", "subtitle": "Bachelor of Engineering - BE, Electronics and Communication", "description": null, "grade": null, "period": {"startedOn": {"year": 0, "month": 0}, "endedOn": {"year": 0, "month": 0}}}, {"companyId": "18874", "companyUrn": "urn:li:fsd_company:18874", "companyLink1": "https://www.linkedin.com/school/rutgersu/", "logo": "https://media.licdn.com/dms/image/v2/D4E0BAQFnLVzNL8ZOYg/company-logo_200_200/company-logo_200_200/0/1692195098121/rutgersu_logo?e=1775692800&v=beta&t=nFAkfyiaTe9xBDKGsmyWTI5YlplsykheTUayJej9zi8", "title": "Rutgers University", "subtitle": "Master of Science - MS, Electrical & Computer Engineering", "description": null, "grade": null, "period": {"startedOn": {"year": 0, "month": 0}, "endedOn": {"year": 0, "month": 0}}}], "licenseAndCertificates": [{"name": "Microsoft Certified: Azure Fundamentals", "startedOn": {"year": 2020, "month": 10, "day": null}, "authority": "Microsoft", "company_id": "", "url": "https://linkedin.com/company/1035"}, {"name": "Microsoft Certified: Power Apps + Dynamics 365 Developer Associate", "startedOn": {"year": 2020, "month": 12, "day": null}, "authority": "Microsoft", "company_id": "", "url": "https://linkedin.com/company/1035"}], "honorsAndAwards": [], "languages": [], "volunteerAndAwards": [], "verifications": [], "promos": [], "highlights": [], "projects": [], "publications": [], "patents": [], "courses": [], "testScores": [], "organizations": [], "volunteerCauses": [], "interests": [], "recommendationsReceived": [{"name": "SR Daka", "subtitle": "IT. Team Lead at The Citco Group Limited", "date": "July 25, 2010", "context": "SR worked with Sreejith on the same team", "description": "Sreejith is a hardworking and dedicated team member. He is a sound programmer with commendable problem solving skills.\r\n\r\nI worked with him in Verizon on various projects. He is full of ideas and easy to work with. He is organized and has good presentation skills. He likes to be in front line for taking responsibilities. He was always ahead of time in delivering analysis reports or executing the assigned tasks, and so meeting clients' expectations. He is dependable, witty and sincere with his work. Be it requirements gathering or developing the code, bug fixing or issue analysis I enjoyed working with him both the times.\r\n\r\nI wish him a very great future ahead. Good Luck Sree!", "urn": "urn:li:fsd_profile:ACoAAAKMbgwB59bPHF_I1aYzI6cRTXrWd6LNzUc", "url": "https://www.linkedin.com/in/subhashdaka/"}, {"name": "Christy Williams", "subtitle": "Teacher, Instructional Designer, Mentor/Coach/Curriculum Designer", "date": "July 23, 2010", "context": "Christy worked with Sreejith on the same team", "description": "I would like to recommend Sreejith Sreedharan as a potential employee for your company. I have known Sreejith for approximately three years as a graduate assistant in our diverse office. He is very well versed on the ins and outs of technology and has been extremely helpful in the resolution of technological crises. Outside of technology, Sreejith is a hard-working, energetic team player that is always willing to pitch in and aid anyone in, or out of, the office.  Perpetually upbeat, he is a go-getter that completes any task with diligence. In addition to his excellent interpersonal skills, Sreejith has developed diplomatic skills needed when working in an office with an international clientele. He would be an asset to your company.", "urn": "urn:li:fsd_profile:ACoAAADOYjMBXgvz8t22blTAo8NJiMMaopH6QgU", "url": "https://www.linkedin.com/in/christy-williams-3576434/"}, {"name": "Angad Kale", "subtitle": "Vice President at Morgan Stanley", "date": "July 21, 2010", "context": "", "description": "Sreejith is a very skilled and hard working Engineer, versatile at Kernel level customizations for Linux Operating System. Has developed 'Fair Share Scheduler' for User and Process level fairness, 'Role Based Access Control (RBAC)' using existing Linux 2.6 Hooks. His deft mathematical approach to solving problems is commendable. I personally recommend him based on my observations during Team Projects for Graduate School at Rutgers.", "urn": "urn:li:fsd_profile:ACoAAAGRw84BFe6Il7dRBhdgJxzOJmnaulDN3a4", "url": "https://www.linkedin.com/in/angad-kale-37a9998/"}, {"name": "Mary Ellen Maguire", "subtitle": "International Student Advisor at Rutgers University", "date": "July 21, 2010", "context": "Mary Ellen was senior to Sreejith but didn't manage Sreejith directly", "description": "Sreejith is an efficient, competent, and intelligent member of the staff at PALS, Rutgers University.  He is dependable and often goes above and beyond what he is required to do to help our program run smoothly.  He has effectively trained the PALS staff in using the multi-platform computer lab and he addresses any issues the staff has timely and judiciously.  I feel very lucky to have him on my team and I would highly recommend Sreejith  for a Software Development Engineer position.", "urn": "urn:li:fsd_profile:ACoAAATW1GkBdLEfBB5gpZe8N6KzvTbGzX8GRWE", "url": "https://www.linkedin.com/in/mary-ellen-maguire-92123323/"}], "recommendations": [], "peopleAlsoViewed": [{"last_name": "Mohanan", "first_name": "Divya", "headline": "Senior Software Engineer at Microsoft", "entity_urn": "urn:li:fsd_profile:ACoAACaCx2IBLIKbi6yy6uLYNveyLEIpKig61j4", "public_identifier": "divya-mohanan-396467160", "premium": false, "profile_picture": "https://media.licdn.com/dms/image/v2/C5603AQGsVJbHJ8C6UA/profile-displayphoto-shrink_800_800/profile-displayphoto-shrink_800_800/0/1659591387718?e=1775692800&v=beta&t=HQBzH2wfSF-8jVd9lYKzZQOnuZqZq9cy-scPQjti8b4", "url": "https://linkedin.com/in/ACoAACaCx2IBLIKbi6yy6uLYNveyLEIpKig61j4", "follower_count": 0}, {"last_name": "Chakraborty", "first_name": "Ishani", "headline": "Principal Researcher | LLM Post-Training @ Microsoft", "entity_urn": "urn:li:fsd_profile:ACoAAAOeiDoBemlAdSnyt_OM0NNXwRBVuCqHUIA", "public_identifier": "ishanichakraborty", "premium": false, "profile_picture": "", "url": "https://linkedin.com/in/ACoAAAOeiDoBemlAdSnyt_OM0NNXwRBVuCqHUIA", "follower_count": 0}, {"last_name": "Seetharaman", "first_name": "Karthik", "headline": "Director, Software Dev, Amazon, Digital and Emerging Market payments", "entity_urn": "urn:li:fsd_profile:ACoAAAAoy3gBS6CxNxOs0LF4MExMlAJQQL1Nslc", "public_identifier": "karthikseetharaman", "premium": false, "profile_picture": "https://media.licdn.com/dms/image/v2/C4D03AQHrsU374qAhsw/profile-displayphoto-shrink_200_200/profile-displayphoto-shrink_200_200/0/1516269700040?e=1775692800&v=beta&t=2OY01mDlgfm2jNpYpI5Wr2z3yltIIXW4xOaZ2C1LOE4", "url": "https://linkedin.com/in/ACoAAAAoy3gBS6CxNxOs0LF4MExMlAJQQL1Nslc", "follower_count": 3133}, {"last_name": "blanco", "first_name": "daniel", "headline": "Warehousing Professional", "entity_urn": "urn:li:fsd_profile:ACoAAAr-AF0B1BzwtRdhpZ4oz9i3KRidANcpv2g", "public_identifier": "daniel-blanco-73991751", "premium": false, "profile_picture": "", "url": "https://linkedin.com/in/ACoAAAr-AF0B1BzwtRdhpZ4oz9i3KRidANcpv2g", "follower_count": 0}, {"last_name": "Natesa", "first_name": "Nateshkumar", "headline": "Senior Developer", "entity_urn": "urn:li:fsd_profile:ACoAACjWsF8BQXNn8JMBjMIn1Jdu6Gr0R__L80k", "public_identifier": "nateshkumar-natesa-91355b171", "premium": false, "profile_picture": "", "url": "https://linkedin.com/in/ACoAACjWsF8BQXNn8JMBjMIn1Jdu6Gr0R__L80k", "follower_count": 7}, {"last_name": "J.", "first_name": "Nithin", "headline": "Software Development Engineer at Microsoft", "entity_urn": "urn:li:fsd_profile:ACoAAAK1y5UBSRcd4ki3U9ZCVb3HA78yAD5m07c", "public_identifier": "josenithin", "premium": false, "profile_picture": "", "url": "https://linkedin.com/in/ACoAAAK1y5UBSRcd4ki3U9ZCVb3HA78yAD5m07c", "follower_count": 300}, {"last_name": "GS Nair", "first_name": "Sreejith ", "headline": "Entrepreneur / Business Leadership", "entity_urn": "urn:li:fsd_profile:ACoAABQk2HIB3aO4SJzp5s_wzEexlYZn6WKgUzY", "public_identifier": "sreejith-nair-g-s-mist-global-ventures", "premium": false, "profile_picture": "https://media.licdn.com/dms/image/v2/D5603AQFkKVJLVHHGVw/profile-displayphoto-crop_800_800/B56ZgOduQlHMAM-/0/1752589330076?e=1775692800&v=beta&t=nRmceYTP3ij4nGMDIbrcoZekc9ZH-A2il5lG1fvgZaQ", "url": "https://linkedin.com/in/ACoAABQk2HIB3aO4SJzp5s_wzEexlYZn6WKgUzY", "follower_count": 153}, {"last_name": "A S", "first_name": "Rajesh", "headline": "Senior Software Engineer at Apple", "entity_urn": "urn:li:fsd_profile:ACoAACT0c4gBtNs3ktf_GOj9HVskL-mhFHFBATI", "public_identifier": "rajesh-a-s-460778153", "premium": false, "profile_picture": "", "url": "https://linkedin.com/in/ACoAACT0c4gBtNs3ktf_GOj9HVskL-mhFHFBATI", "follower_count": 85}, {"last_name": "Sabbineni", "first_name": "Mamatha", "headline": "Senior Software Engineer at Accenture", "entity_urn": "urn:li:fsd_profile:ACoAACLp3agBvfozvmDHssnZLACgkTd6VqwV-5A", "public_identifier": "mamatha-sabbineni-a08200144", "premium": false, "profile_picture": "", "url": "https://linkedin.com/in/ACoAACLp3agBvfozvmDHssnZLACgkTd6VqwV-5A", "follower_count": 2}, {"last_name": "V", "first_name": "Praveen", "headline": "Senior Consultant (Government & Public Sector)", "entity_urn": "urn:li:fsd_profile:ACoAAADmZNIBcYZQE3TjxUMBJFAZDrFJN6bYCGI", "public_identifier": "praveenv83", "premium": false, "profile_picture": "", "url": "https://linkedin.com/in/ACoAAADmZNIBcYZQE3TjxUMBJFAZDrFJN6bYCGI", "follower_count": 266}, {"last_name": "Liang", "first_name": "Dongxiao", "headline": "Senior Software Engineer at Microsoft", "entity_urn": "urn:li:fsd_profile:ACoAAB_4eecBMP6hqSreLkixpq-ocb9uF9Y5MNw", "public_identifier": "dongxiao-liang-a0776b12b", "premium": false, "profile_picture": "", "url": "https://linkedin.com/in/ACoAAB_4eecBMP6hqSreLkixpq-ocb9uF9Y5MNw", "follower_count": 62}, {"last_name": "Kandasamy Rajendra", "first_name": "Sivakkumar", "headline": "Senior Manager - Governance Risk and Compliance", "entity_urn": "urn:li:fsd_profile:ACoAAAWvkMcB8U9nk9cTQkvadbqPNhy3TeyKHkA", "public_identifier": "sivakkumar-kandasamy-rajendra-807b4327", "premium": false, "profile_picture": "https://media.licdn.com/dms/image/v2/C4D03AQE78YCK95Q2rg/profile-displayphoto-shrink_400_400/profile-displayphoto-shrink_400_400/0/1517477627769?e=1775692800&v=beta&t=iS6kG3yKZUY4Ks-7XFuPqkEE0dWblwIrjfbMwLOAN-0", "url": "https://linkedin.com/in/ACoAAAWvkMcB8U9nk9cTQkvadbqPNhy3TeyKHkA", "follower_count": 765}, {"last_name": "McAfoos", "first_name": "Michael", "headline": "Sr. Director, Customer Support, eCOA at Medidata Solutions", "entity_urn": "urn:li:fsd_profile:ACoAAAEPUjUBjMRCFmP_aSkJXjOzP2ZPcQpAXt8", "public_identifier": "michaelmcafoos", "premium": true, "profile_picture": "https://media.licdn.com/dms/image/v2/D4E03AQEiVjAz9GQQEQ/profile-displayphoto-shrink_800_800/profile-displayphoto-shrink_800_800/0/1671819555530?e=1775692800&v=beta&t=i9unn4oX6W5t7A7SStgJmWzIsG2xN5rWe9R34FfSXJs", "url": "https://linkedin.com/in/ACoAAAEPUjUBjMRCFmP_aSkJXjOzP2ZPcQpAXt8", "follower_count": 960}, {"last_name": "Gupta", "first_name": "Sunaina", "headline": "Experienced Project Manager and Customer Service Specialist with a Strong Background in Market Research & Digital Marketing.", "entity_urn": "urn:li:fsd_profile:ACoAACIzGgUBnRc3BwH7YftRPT_2twSRQ1ioV9Q", "public_identifier": "sunaina-gupta", "premium": false, "profile_picture": "", "url": "https://linkedin.com/in/ACoAACIzGgUBnRc3BwH7YftRPT_2twSRQ1ioV9Q", "follower_count": 929}, {"last_name": "Castellanos-Moreno", "first_name": "Alan", "headline": "Principal Group Engineering Manager, Power Apps at Microsoft", "entity_urn": "urn:li:fsd_profile:ACoAABSGhlwBW8EDTOJOZN4VWS6uPIoLquqewgg", "public_identifier": "alan-castellanos-moreno-8783aa97", "premium": false, "profile_picture": "https://media.licdn.com/dms/image/v2/C5603AQFa3e_4J_mnzw/profile-displayphoto-shrink_800_800/profile-displayphoto-shrink_800_800/0/1516404497106?e=1775692800&v=beta&t=dkG__NV7m2L9fJUcXOC9qOtMMgYOOT_TW-IYUGX0hWk", "url": "https://linkedin.com/in/ACoAABSGhlwBW8EDTOJOZN4VWS6uPIoLquqewgg", "follower_count": 319}, {"last_name": "K", "first_name": "Sendil Prabu", "headline": "Software Engineer Staff", "entity_urn": "urn:li:fsd_profile:ACoAAAM5UlIBMvwhyrrhXaapaV8lZVRMci7gU7s", "public_identifier": "sendil-prabu-k-10214516", "premium": false, "profile_picture": "", "url": "https://linkedin.com/in/ACoAAAM5UlIBMvwhyrrhXaapaV8lZVRMci7gU7s", "follower_count": 0}, {"last_name": "Mohandas", "first_name": "Praveen", "headline": "Principal Software Engineer", "entity_urn": "urn:li:fsd_profile:ACoAAAihcgwBasdniYRu7iyk322nr7TZ-h_lQu8", "public_identifier": "praveen-mohandas-3245ab40", "premium": false, "profile_picture": "", "url": "https://linkedin.com/in/ACoAAAihcgwBasdniYRu7iyk322nr7TZ-h_lQu8", "follower_count": 349}, {"last_name": "Na", "first_name": "Risong", "headline": "Founder - Lao Na (Golf) Media | \u8001\u90a3\u9ad8\u5c14\u592b - YouTube/\u5c0f\u7ea2\u4e66/B\u7ad9/\u6296\u97f3/Tiktok", "entity_urn": "urn:li:fsd_profile:ACoAAAiXLRAB5PXGTlA2O5zIrCVJQTohvhvMsws", "public_identifier": "risong-na-95432540", "premium": false, "profile_picture": "https://media.licdn.com/dms/image/v2/D5603AQFmuhlHvyX9UQ/profile-displayphoto-shrink_800_800/B56ZX6c0UuGQAc-/0/1743663613534?e=1775692800&v=beta&t=3-JRUHETkTNPVNRE6c-xML3t5yDSIhM3Z-5t7nLTJiQ", "url": "https://linkedin.com/in/ACoAAAiXLRAB5PXGTlA2O5zIrCVJQTohvhvMsws", "follower_count": 767}, {"last_name": "Ojastro", "first_name": "Kamea", "headline": "Graphic Designer and Illustrator", "entity_urn": "urn:li:fsd_profile:ACoAADKhEs8BIWVeCWOIhD5RhG09ncpLc3jojjE", "public_identifier": "kamea-ojastro-8675741b8", "premium": false, "profile_picture": "https://media.licdn.com/dms/image/v2/D5603AQFH2GnI2TSu0w/profile-displayphoto-shrink_800_800/profile-displayphoto-shrink_800_800/0/1670239485340?e=1775692800&v=beta&t=u3JEsTXrtih_0zdnHwpA4V-A5kASb8bUnbXGlsXUSqg", "url": "https://linkedin.com/in/ACoAADKhEs8BIWVeCWOIhD5RhG09ncpLc3jojjE", "follower_count": 10}, {"last_name": "B.", "first_name": "Amin", "headline": "Software Engineer", "entity_urn": "urn:li:fsd_profile:ACoAAAO66-cBlfEfKt1OHrtkRkPFaL8OXcr7Ink", "public_identifier": "aminbagheri", "premium": false, "profile_picture": "https://media.licdn.com/dms/image/v2/C4D03AQE6NbRy1jEOcQ/profile-displayphoto-shrink_400_400/profile-displayphoto-shrink_400_400/0/1516798255705?e=1775692800&v=beta&t=0FM7YdOqfqqlDQ2wIHMI18fQpFbIIXj8ME0nyFSHA_I", "url": "https://linkedin.com/in/ACoAAAO66-cBlfEfKt1OHrtkRkPFaL8OXcr7Ink", "follower_count": 0}, {"last_name": "Jayaraman", "first_name": "Prem Anand", "headline": "Software Engineer at Electronic Arts", "entity_urn": "urn:li:fsd_profile:ACoAAAFPweUBNPr_47ed_np9ThIUubG99Jzists", "public_identifier": "prem-anand-jayaraman-ab14517", "premium": true, "profile_picture": "https://media.licdn.com/dms/image/v2/D5603AQF7pHagQfV-uA/profile-displayphoto-crop_800_800/B56ZyMW567IcAI-/0/1771881340907?e=1775692800&v=beta&t=g1hhQx4f9R7ZYmuByr8jApRHnI1cX0YZnNKIPThRaYA", "url": "https://linkedin.com/in/ACoAAAFPweUBNPr_47ed_np9ThIUubG99Jzists", "follower_count": 294}, {"last_name": "Kemparaju", "first_name": "Pavan", "headline": "Microsoft PowerApps", "entity_urn": "urn:li:fsd_profile:ACoAAAdKoscBNbZK7e851ClJ-Z8rnOjFIjQpNyg", "public_identifier": "pavan-kemparaju", "premium": false, "profile_picture": "https://media.licdn.com/dms/image/v2/C4E03AQFMrHxiNSQrFQ/profile-displayphoto-shrink_800_800/profile-displayphoto-shrink_800_800/0/1519763094660?e=1775692800&v=beta&t=rN5-TIZRyGztEUgDRJ-AaJOEJ7KOjEdaqIZcPJuF4i0", "url": "https://linkedin.com/in/ACoAAAdKoscBNbZK7e851ClJ-Z8rnOjFIjQpNyg", "follower_count": 603}, {"last_name": "Tremblay", "first_name": "Ryan", "headline": "Principal Software Engineer | 3D/MR/HMD/Mobile", "entity_urn": "urn:li:fsd_profile:ACoAAAErMM8BJTmE2BeOxSlzlbhPG5NaHOoacyg", "public_identifier": "ryantrem", "premium": false, "profile_picture": "", "url": "https://linkedin.com/in/ACoAAAErMM8BJTmE2BeOxSlzlbhPG5NaHOoacyg", "follower_count": 451}, {"last_name": "Wu", "first_name": "Xiaoling", "headline": "Lecturer in Business Management", "entity_urn": "urn:li:fsd_profile:ACoAACX8ckgBOnMCBdll6_oBeU1oyoC0DQnyotM", "public_identifier": "xiaoling-wu-774520159", "premium": false, "profile_picture": "https://media.licdn.com/dms/image/v2/D4E03AQESrbU3c340CA/profile-displayphoto-crop_800_800/B4EZeD25gOHcAM-/0/1750263896564?e=1775692800&v=beta&t=pk6yoa4gY0h0hekK72MDCileFL5rvN-4LaeQMBkcdu8", "url": "https://linkedin.com/in/ACoAACX8ckgBOnMCBdll6_oBeU1oyoC0DQnyotM", "follower_count": 92}, {"last_name": "K.", "first_name": "Anoop", "headline": "Senior Engineer at Cavelo Inc.", "entity_urn": "urn:li:fsd_profile:ACoAAAF6nT8B7KmgLSK0cPK8gjG5BpSUbT8Gvig", "public_identifier": "aanoop-krishnakumar", "premium": false, "profile_picture": "https://media.licdn.com/dms/image/v2/C5103AQF4NXmbqlGQDg/profile-displayphoto-shrink_800_800/profile-displayphoto-shrink_800_800/0/1530889826186?e=1775692800&v=beta&t=LW42fHS-qStR7kHouR7e-G5RuJsGYsbuUOrlsEKy9lw", "url": "https://linkedin.com/in/ACoAAAF6nT8B7KmgLSK0cPK8gjG5BpSUbT8Gvig", "follower_count": 519}, {"last_name": "Shankar", "first_name": "Lakshmi", "headline": "CEO at Bitlume", "entity_urn": "urn:li:fsd_profile:ACoAAALiyuoBDPGoU-Wm2lWl9Lt__huNjDNrf0A", "public_identifier": "lakshank", "premium": false, "profile_picture": "https://media.licdn.com/dms/image/v2/C4D03AQFZKIYrT1cPTw/profile-displayphoto-shrink_400_400/profile-displayphoto-shrink_400_400/0/1516527545432?e=1775692800&v=beta&t=OcSLZ1jU6xtLcp0uo5b6zDoJqhxjwkQ9ymuaAmBe1To", "url": "https://linkedin.com/in/ACoAAALiyuoBDPGoU-Wm2lWl9Lt__huNjDNrf0A", "follower_count": 1419}]}, "profile_id": "fada6456-8fdd-400f-98dd-a9209fff93e2", "audience_room_id": "91cd222b-8cc9-4ee4-bf06-c5e9ed2f6f74", "summary": null, "postCount": 0}