{"name": "Haitao Huang", "age": null, "current_company": "Microsoft", "current_location": "Austin, Texas, United States", "total_years_experience": 25.3, "industry": "Software Development", "education": "Doctor of Philosophy - PhD, Chemical Engineering from Texas Tech University; Master's degree, Chemical Engineering from The University of Kansas; Bachelor's degree, Nuclear Engineering from Shanghai Jiao Tong University", "linkedin_profile_url": "https://www.linkedin.com/in/ACwAAADLFAcB32dCpvdfTJpPBP8poR3YHtzuoRo", "jobTitle": "Senior Software Engineer", "headline": "Senior Software Engineer at Microsofft", "about": "Enjoy challenges and innovation in computing, with extensive experiences in mobile OSes and applications, location related technologies, graphics/media, security, web browser internals.", "linkedin_url": "https://www.linkedin.com/in/ACwAAADLFAcB32dCpvdfTJpPBP8poR3YHtzuoRo", "description": "Enjoy challenges and innovation in computing, with extensive experiences in mobile OSes and applications, location related technologies, graphics/media, security, web browser internals.", "match_status": "matched", "output": {"id": "ACwAAADLFAcB32dCpvdfTJpPBP8poR3YHtzuoRo", "linkedinUrl": "https://www.linkedin.com/in/ACwAAADLFAcB32dCpvdfTJpPBP8poR3YHtzuoRo", "firstName": "Haitao", "lastName": "Huang", "summary": "Enjoy challenges and innovation in computing, with extensive experiences in mobile OSes and applications, location related technologies, graphics/media, security, web browser internals.", "openProfile": false, "premium": false, "currentPositions": [{"tenureAtPosition": {"numYears": 1, "numMonths": 1}, "companyName": "Microsoft", "description": "Working on Azure Confidential Computing Technologies", "title": "Senior Software Engineer", "current": true, "tenureAtCompany": {"numYears": 1, "numMonths": 1}, "startedOn": {"month": 3, "year": 2025}, "companyId": "1035", "companyLinkedinUrl": "https://www.linkedin.com/company/1035"}], "pictureUrl": "https://media.licdn.com/dms/image/v2/D5603AQGeY3XoggNISw/profile-displayphoto-shrink_800_800/profile-displayphoto-shrink_800_800/0/1731524666663?e=1775692800&v=beta&t=gw7s2okPeB1Hiej0cl2Gu2r_cjOIL6EKqowi1IEArGU", "location": {"linkedinText": "Austin, Texas, United States"}, "_meta": {"pagination": {"totalElements": 51664, "totalPages": 100, "pageNumber": 2, "previousElements": 25, "pageSize": 25}, "query": {"currentJobTitles": ["Software Engineer"], "currentCompanies": ["https://www.linkedin.com/company/microsoft/"]}}}, "basis": [], "profile_info": {"fullName": "Haitao Huang", "jobTitle": "Senior Software Engineer", "currentCompany": "Microsoft", "companyIndustry": "Software Development", "currentLocation": "Austin, Texas, United States", "totalYearsExperience": 25.3, "education": [{"institution": "Texas Tech University", "degree": "Doctor of Philosophy - PhD, Chemical Engineering", "period": {"startedOn": {"year": 1997, "month": 0}, "endedOn": {"year": 2000, "month": 0}}}, {"institution": "The University of Kansas", "degree": "Master's degree, Chemical Engineering", "period": {"startedOn": {"year": 1995, "month": 0}, "endedOn": {"year": 1997, "month": 0}}}, {"institution": "Shanghai Jiao Tong University", "degree": "Bachelor's degree, Nuclear Engineering", "period": {"startedOn": {"year": 1985, "month": 0}, "endedOn": {"year": 1989, "month": 0}}}], "about": "Enjoy challenges and innovation in computing, with extensive experiences in mobile OSes and applications, location related technologies, graphics/media, security, web browser internals.", "headline": "Senior Software Engineer at Microsofft"}, "apify_enriched": true, "apify_result": {"linkedinUrl": "https://www.linkedin.com/in/ACwAAADLFAcB32dCpvdfTJpPBP8poR3YHtzuoRo", "firstName": "Haitao", "lastName": "Huang", "fullName": "Haitao Huang", "headline": "Senior Software Engineer at Microsofft", "connections": 265, "followers": 272, "email": null, "mobileNumber": null, "jobTitle": "Senior Software Engineer", "jobStartedOn": "3-2025", "jobLocation": null, "jobStillWorking": true, "companyName": "Microsoft", "companyIndustry": "Software Development", "companyWebsite": "https://news.microsoft.com/", "companyLinkedin": "https://www.linkedin.com/company/microsoft/", "companyFoundedIn": null, "companySize": "10001-0", "currentJobDuration": "1 yr 1 mo", "currentJobDurationInYrs": 1.08, "topSkillsByEndorsements": null, "addressCountryOnly": "United States", "addressWithCountry": "Austin, Texas, United States", "addressWithoutCountry": "Austin, Texas", "profilePic": "https://media.licdn.com/dms/image/v2/D5603AQGeY3XoggNISw/profile-displayphoto-shrink_800_800/profile-displayphoto-shrink_800_800/0/1731524666663?e=1775692800&v=beta&t=gw7s2okPeB1Hiej0cl2Gu2r_cjOIL6EKqowi1IEArGU", "profilePicHighQuality": "https://media.licdn.com/dms/image/v2/D5603AQGeY3XoggNISw/profile-displayphoto-shrink_800_800/profile-displayphoto-shrink_800_800/0/1731524666663?e=1775692800&v=beta&t=gw7s2okPeB1Hiej0cl2Gu2r_cjOIL6EKqowi1IEArGU", "backgroundPic": null, "linkedinId": "13308935", "isPremium": false, "isVerified": true, "isJobSeeker": false, "isRetired": false, "isCreator": false, "isInfluencer": false, "isCurrentlyEmployed": true, "about": "Enjoy challenges and innovation in computing, with extensive experiences in mobile OSes and applications, location related technologies, graphics/media, security, web browser internals.", "publicIdentifier": "ACwAAADLFAcB32dCpvdfTJpPBP8poR3YHtzuoRo", "linkedinPublicUrl": "https://linkedin.com/in/haitao-huang", "openConnection": false, "urn": "ACoAAADLFAcBfKc-_F9V3RDkBfQY4xQruCPgjyQ", "totalRecommendationsReceived": 0, "totalRecommendationsGiven": 2, "birthday": {"day": "", "month": "", "year": ""}, "associatedHashtag": [], "firstRoleYear": 2000, "totalExperienceYears": 25.3, "experiencesCount": 7, "experiences": [{"companyId": "1035", "companyUrn": "urn:li:fsd_company:1035", "companyLink1": "https://www.linkedin.com/company/microsoft/", "companyName": "Microsoft", "companySize": "10001-0", "companyWebsite": "https://news.microsoft.com/", "companyIndustry": "Software Development", "logo": "https://media.licdn.com/dms/image/v2/D560BAQH32RJQCl3dDQ/company-logo_400_400/B56ZYQ0mrGGoAc-/0/1744038948046/microsoft_logo?e=1775692800&v=beta&t=bpHvEU_rLC_nS5opTP7xem1WrnPgW9tn-bxXltwrpfg", "title": "Senior Software Engineer", "jobDescription": "Working on Azure Confidential Computing Technologies", "jobStartedOn": "3-2025", "jobEndedOn": null, "jobLocation": null, "jobStillWorking": true, "jobLocationCountry": "US", "employmentType": "Full-time"}, {"companyId": "1053", "companyUrn": "urn:li:fsd_company:1053", "companyLink1": "https://www.linkedin.com/company/intel-corporation/", "companyName": "Intel Corporation", "companySize": "10001-0", "companyWebsite": "http://www.intel.com", "companyIndustry": "Semiconductor Manufacturing", "logo": "https://media.licdn.com/dms/image/v2/C560BAQGpvWtEtj9oTQ/company-logo_400_400/company-logo_400_400/0/1630663244736/intel_corporation_logo?e=1775692800&v=beta&t=NSr3lN7m6UbyQEab7CstjNo-x461BdQgn-Gk_4vQUe4", "title": "Software Architect", "jobDescription": "Worked on software stack to enable security features (SGX, TDX)  for intel architecture. Android, Linux SDK and runtimes, Kernel.", "jobStartedOn": "10-2012", "jobEndedOn": "11-2024", "jobLocation": "Austin, TX", "jobStillWorking": false, "jobLocationCountry": "US", "employmentType": "Full-time"}, {"companyId": "1053", "companyUrn": "urn:li:fsd_company:1053", "companyLink1": "https://www.linkedin.com/company/intel-corporation/", "companyName": "Intel Corporation", "companySize": "10001-0", "companyWebsite": "http://www.intel.com", "companyIndustry": "Semiconductor Manufacturing", "logo": "https://media.licdn.com/dms/image/v2/C560BAQGpvWtEtj9oTQ/company-logo_400_400/company-logo_400_400/0/1630663244736/intel_corporation_logo?e=1775692800&v=beta&t=NSr3lN7m6UbyQEab7CstjNo-x461BdQgn-Gk_4vQUe4", "title": "Software Engineer", "jobDescription": "Work on Android x86 enabling, Graphics and Media, Webkit, and user space frameworks", "jobStartedOn": "1-2011", "jobEndedOn": "10-2012", "jobLocation": null, "jobStillWorking": false, "jobLocationCountry": "US", "employmentType": null}, {"companyId": "9240", "companyUrn": "urn:li:fsd_company:9240", "companyLink1": "https://www.linkedin.com/company/garmin/", "companyName": "Garmin International", "companySize": "10001-0", "companyWebsite": "http://www.garmin.com", "companyIndustry": "Computers and Electronics Manufacturing", "logo": "https://media.licdn.com/dms/image/v2/C4E0BAQFoH9k8ssM14Q/company-logo_400_400/company-logo_400_400/0/1630565171777?e=1775692800&v=beta&t=T1dBe_nqaDHIyPNi_NOkLA3Jno5WfgiSR4033sNUYQk", "title": "Software Engineering Team Leader", "jobDescription": null, "jobStartedOn": "3-2008", "jobEndedOn": "1-2011", "jobLocation": null, "jobStillWorking": false, "jobLocationCountry": "US", "employmentType": null}, {"companyId": "9240", "companyUrn": "urn:li:fsd_company:9240", "companyLink1": "https://www.linkedin.com/company/garmin/", "companyName": "Garmin International", "companySize": "10001-0", "companyWebsite": "http://www.garmin.com", "companyIndustry": "Computers and Electronics Manufacturing", "logo": "https://media.licdn.com/dms/image/v2/C4E0BAQFoH9k8ssM14Q/company-logo_400_400/company-logo_400_400/0/1630565171777?e=1775692800&v=beta&t=T1dBe_nqaDHIyPNi_NOkLA3Jno5WfgiSR4033sNUYQk", "title": "Sr Software Engineer", "jobDescription": null, "jobStartedOn": "1-2008", "jobEndedOn": "3-2010", "jobLocation": null, "jobStillWorking": false, "jobLocationCountry": "US", "employmentType": null}, {"companyId": "1066", "companyUrn": "urn:li:fsd_company:1066", "companyLink1": "https://www.linkedin.com/company/motorola-mobility/", "companyName": "Motorola, inc.", "companySize": "1001-5000", "companyWebsite": "http://www.motorola.com", "companyIndustry": "Computers and Electronics Manufacturing", "logo": null, "title": "Principal Staff Engineer", "jobDescription": null, "jobStartedOn": "11-2000", "jobEndedOn": "1-2008", "jobLocation": null, "jobStillWorking": false, "jobLocationCountry": "US", "employmentType": null}, {"companyId": "3051", "companyUrn": "urn:li:fsd_company:3051", "companyLink1": "https://www.linkedin.com/company/apollo-group/", "companyName": "Apollo Group", "companySize": "10001-0", "companyWebsite": "http://www.apollo.edu", "companyIndustry": "Higher Education", "logo": "https://media.licdn.com/dms/image/v2/C4E0BAQHld7AiOHwA0w/company-logo_400_400/company-logo_400_400/0/1631333556609?e=1775692800&v=beta&t=Rq7Kpq4bccFm5Fo2-7KjeXtM6CzXmOwyvQnFAUYodzI", "title": "Sr Software Engineer", "jobDescription": null, "jobStartedOn": "2000", "jobEndedOn": "2000", "jobLocation": null, "jobStillWorking": false, "jobLocationCountry": "US", "employmentType": null}], "updates": [], "skills": [{"title": "Machine Learning"}, {"title": "Large Language Models (LLM)"}, {"title": "Artificial Intelligence (AI)"}, {"title": "Linux Kernel"}, {"title": "Software Architecture"}, {"title": "Docker"}, {"title": "Kubernetes"}, {"title": "Mobile Technology"}, {"title": "X86"}, {"title": "Embedded Software"}, {"title": "Android"}, {"title": "Software Engineering"}, {"title": "Embedded Systems"}, {"title": "Debugging"}, {"title": "Software Development"}, {"title": "Device Drivers"}, {"title": "Linux"}, {"title": "Operating Systems"}, {"title": "Perl"}, {"title": "Embedded Linux"}], "creatorWebsite": [], "profilePicAllDimensions": [], "educations": [{"companyId": "19505", "companyUrn": "urn:li:fsd_company:19505", "companyLink1": "https://www.linkedin.com/school/texas-tech-university/", "logo": "https://media.licdn.com/dms/image/v2/D560BAQGkud-441bEhg/company-logo_200_200/company-logo_200_200/0/1719256966035/texas_tech_university_logo?e=1775692800&v=beta&t=3Nqq_wnJefIociRUbM1Ye2qiy6JsxUcDcpnnzw0EW1Q", "title": "Texas Tech University", "subtitle": "Doctor of Philosophy - PhD, Chemical Engineering", "description": null, "grade": null, "period": {"startedOn": {"year": 1997, "month": 0}, "endedOn": {"year": 2000, "month": 0}}}, {"companyId": "18385", "companyUrn": "urn:li:fsd_company:18385", "companyLink1": "https://www.linkedin.com/school/university-of-kansas/", "logo": "https://media.licdn.com/dms/image/v2/D560BAQGloVKMvYQU2A/company-logo_200_200/company-logo_200_200/0/1738162890312/university_of_kansas_logo?e=1775692800&v=beta&t=Tlc1UnsblIKnghm_8lLbdpekhH1LUp57RruDyuia6Bg", "title": "The University of Kansas", "subtitle": "Master's degree, Chemical Engineering", "description": null, "grade": null, "period": {"startedOn": {"year": 1995, "month": 0}, "endedOn": {"year": 1997, "month": 0}}}, {"companyId": "11319", "companyUrn": "urn:li:fsd_company:11319", "companyLink1": "https://www.linkedin.com/school/sjtu1896/", "logo": "https://media.licdn.com/dms/image/v2/C4E0BAQFkNUM4pr0xcg/company-logo_200_200/company-logo_200_200/0/1631314417560?e=1775692800&v=beta&t=7c1HkJmK0ZcUiSMzbOSqpK-gsJ7fFeY9Ce6m5Tcphs8", "title": "Shanghai Jiao Tong University", "subtitle": "Bachelor's degree, Nuclear Engineering", "description": null, "grade": null, "period": {"startedOn": {"year": 1985, "month": 0}, "endedOn": {"year": 1989, "month": 0}}}], "licenseAndCertificates": [{"name": "Large Language Model Agent MOOC - Mastery Tier", "startedOn": {"year": 2025, "month": 1, "day": null}, "authority": "University of California, Berkeley", "company_id": "", "url": "https://linkedin.com/company/2517"}], "honorsAndAwards": [], "languages": [], "volunteerAndAwards": [], "verifications": [], "promos": [], "highlights": [], "projects": [], "publications": [{"title": "Intel Edison Reaction Timer", "source": "Demo showcased at Intel Developer Forum (IDF) 2014", "summary": "", "url": "https://communities.intel.com/docs/DOC-23389", "publishing_date": "Sep 8, 2014"}], "patents": [{"title": "Automatic journal creation", "subtitle": "US", "description": "A system to automatically record/create/manage personal contents/journals", "url": ""}, {"title": "Decoding location information in content for use by a native mapping application", "subtitle": "US", "description": "Recognizing locations info in any content such that it can be consumed by location applications", "url": ""}, {"title": "Intelligent geocoding of location information", "subtitle": "US US7469182 B2", "description": "A flexible way to handle variations of address format for geocoding", "url": ""}, {"title": "Position source selection", "subtitle": "US US8214139B2", "description": "A positioning strategy to handle/manage multiple positioning sources.", "url": ""}], "courses": [], "testScores": [], "organizations": [], "volunteerCauses": [], "interests": [], "recommendationsReceived": [], "recommendations": [{"name": "Betim Deva", "subtitle": "Sr. Engineering Manager at Apple", "date": "January 29, 2011", "context": "Haitao managed Betim directly", "description": "Betim is a superb software engineer. Working on some complex tasks within my team, he was able to do thorough analysis and come up right designs in short notice. He is also hard working and a team player.", "urn": "urn:li:fsd_profile:ACoAAABkLZoBKIj1QJAyBtfhxldLSyX5_socvgI", "url": "https://www.linkedin.com/in/betimdeva/"}, {"name": "Bharath H.", "subtitle": "Building successful mobile products at leading companies | Engineering leader | Software architect | Specializing in high scale architecture, mobile framework and app design, mobile strategy | Ex-Procore | Ex-Salesforce.", "date": "January 18, 2011", "context": "Haitao was senior to Bharath but didn't manage Bharath directly", "description": "I worked with Bharath at Garmin. He has been a very resourceful engineer, always eager to learn new things and able to come up speed quickly as well. He has an easy-going personality and is willing to lend a hand to team members as needed.", "urn": "urn:li:fsd_profile:ACoAAACbpiUBY6ANtWnuhF6lbMateBRaoNlTIjA", "url": "https://www.linkedin.com/in/bharathhariharan/"}], "peopleAlsoViewed": [{"last_name": "Meenakshisundaram", "first_name": "Magesh", "headline": "Senior Software Engineer at Microsoft with expertise in Clearing and Settlement Systems", "entity_urn": "urn:li:fsd_profile:ACoAABHYMq0B6QfIpElX6Bdsy8ZT3U98GI0oSrI", "public_identifier": "magesh-meenakshisundaram-17931984", "premium": false, "profile_picture": "https://media.licdn.com/dms/image/v2/C4E03AQHCwZLyC4UP-w/profile-displayphoto-shrink_800_800/profile-displayphoto-shrink_800_800/0/1516929238844?e=1775692800&v=beta&t=AbIaKVHTc9NpOLGtEGcvgyO9yVlFoZ3Sn_djkoCw4SQ", "url": "https://linkedin.com/in/ACoAABHYMq0B6QfIpElX6Bdsy8ZT3U98GI0oSrI", "follower_count": 1303}, {"last_name": "Vardhan", "first_name": "Vidya", "headline": "Software Engineer @ Azure, Expertise in building cloud scale distributed systems", "entity_urn": "urn:li:fsd_profile:ACoAAAI4kKkBpRE4_xeQhkT81imx5_UeJRiDN1k", "public_identifier": "vidyavardhan", "premium": false, "profile_picture": "", "url": "https://linkedin.com/in/ACoAAAI4kKkBpRE4_xeQhkT81imx5_UeJRiDN1k", "follower_count": 562}, {"last_name": "Siripurapu", "first_name": "Srujana", "headline": "Microsoft ", "entity_urn": "urn:li:fsd_profile:ACoAAAJA_ZIBe6pzBRwrDJMHmMfF3_o9j_FAIEY", "public_identifier": "srujanasiripurapu", "premium": false, "profile_picture": "", "url": "https://linkedin.com/in/ACoAAAJA_ZIBe6pzBRwrDJMHmMfF3_o9j_FAIEY", "follower_count": 238}, {"last_name": "Qu", "first_name": "Yaoxian", "headline": "Senior Software Engineer @ Microsoft | LLM Agents", "entity_urn": "urn:li:fsd_profile:ACoAABphtFsBrhUaS2JqvDSwxsg7BIRFjfqhqaY", "public_identifier": "yaoxian-qu-5b7290104", "premium": true, "profile_picture": "https://media.licdn.com/dms/image/v2/C5603AQHul1KjMgM28g/profile-displayphoto-shrink_800_800/profile-displayphoto-shrink_800_800/0/1628503364509?e=1775692800&v=beta&t=1QvMo8wIzb3WGEecLMkAvbKUIbwbeu7HL6NTAuS155Q", "url": "https://linkedin.com/in/ACoAABphtFsBrhUaS2JqvDSwxsg7BIRFjfqhqaY", "follower_count": 266}, {"last_name": "Yang", "first_name": "Kevin", "headline": "Senior Data & Applied Scientist at Microsoft", "entity_urn": "urn:li:fsd_profile:ACoAABhVSC0BJmBOs4T9iiKfxK_teTfV4YFZH3k", "public_identifier": "kevin-yang-pitt", "premium": false, "profile_picture": "https://media.licdn.com/dms/image/v2/C5603AQG4hUOs3jQdGQ/profile-displayphoto-shrink_400_400/profile-displayphoto-shrink_400_400/0/1605352074949?e=1775692800&v=beta&t=SXTekB9s1uj1w7tvfY9aGyWBiUHHoIRWIUKWIUDPdnc", "url": "https://linkedin.com/in/ACoAABhVSC0BJmBOs4T9iiKfxK_teTfV4YFZH3k", "follower_count": 1122}, {"last_name": "Tice", "first_name": "Kevin", "headline": "Senior Software Engineer at Visa", "entity_urn": "urn:li:fsd_profile:ACoAACU6ATsBQRZ1gUJK-2aoNHNdJJglpahmyco", "public_identifier": "kevin-tice", "premium": false, "profile_picture": "https://media.licdn.com/dms/image/v2/C4D03AQFoyQwhvecDeA/profile-displayphoto-shrink_800_800/profile-displayphoto-shrink_800_800/0/1623275601896?e=1775692800&v=beta&t=D256WlkiF2v4KeORVih3dCletRhD9zjJGArJkT8Daco", "url": "https://linkedin.com/in/ACoAACU6ATsBQRZ1gUJK-2aoNHNdJJglpahmyco", "follower_count": 517}, {"last_name": "Yu", "first_name": "Haonan", "headline": "Software Engineer", "entity_urn": "urn:li:fsd_profile:ACoAACSqTU8BWdk3Z2j0IqjiUx5Yq9gPuwzFwyI", "public_identifier": "haonan-yu-23b014152", "premium": false, "profile_picture": "", "url": "https://linkedin.com/in/ACoAACSqTU8BWdk3Z2j0IqjiUx5Yq9gPuwzFwyI", "follower_count": 180}, {"last_name": "Wang", "first_name": "Haiming", "headline": "A developer who develops at individual level and at scale", "entity_urn": "urn:li:fsd_profile:ACoAAAJ9-B0BU49LiRdyodDpsVrSMeXOCciFm9w", "public_identifier": "haimingwang", "premium": false, "profile_picture": "https://media.licdn.com/dms/image/v2/C5603AQFtcqyXNvwfWA/profile-displayphoto-shrink_800_800/profile-displayphoto-shrink_800_800/0/1517777091873?e=1775692800&v=beta&t=in1XFvuG-lSdYoyEOJM952207myVOZCDDXWJhUiXKvQ", "url": "https://linkedin.com/in/ACoAAAJ9-B0BU49LiRdyodDpsVrSMeXOCciFm9w", "follower_count": 848}, {"last_name": "Fu", "first_name": "Yu", "headline": "SDE at Microsoft", "entity_urn": "urn:li:fsd_profile:ACoAABc0H4oBAmSimd9D7ZxL_12aSZWYrdPoZrk", "public_identifier": "yufu23", "premium": false, "profile_picture": "https://media.licdn.com/dms/image/v2/D5603AQGg48JmzA6Kwg/profile-displayphoto-shrink_800_800/profile-displayphoto-shrink_800_800/0/1685583778177?e=1775692800&v=beta&t=VZy0GnuzWv0X-FO55JHVrn1nnDhucJI75W5J0IDxiqk", "url": "https://linkedin.com/in/ACoAABc0H4oBAmSimd9D7ZxL_12aSZWYrdPoZrk", "follower_count": 1046}, {"last_name": "Wang", "first_name": "Hao", "headline": "Senior Software Engineer @ Microsoft | Master of Science in Computer Science", "entity_urn": "urn:li:fsd_profile:ACoAAAi5KXABjWAJXD5ujB9X_8FSe8_tbSNzdqY", "public_identifier": "haowang1", "premium": false, "profile_picture": "https://media.licdn.com/dms/image/v2/C5603AQHiKp-1k5GMjw/profile-displayphoto-shrink_800_800/profile-displayphoto-shrink_800_800/0/1631690578289?e=1775692800&v=beta&t=DoLNz8vEHN2g8QRATGOhrXCKeGCxbBQWNpK0tCcDMj8", "url": "https://linkedin.com/in/ACoAAAi5KXABjWAJXD5ujB9X_8FSe8_tbSNzdqY", "follower_count": 334}, {"last_name": "Wang", "first_name": "Hao", "headline": "Software Engineer at Microsoft", "entity_urn": "urn:li:fsd_profile:ACoAAAQGVVUBrYMA_TVk1tVMfeDyqVCs-8BkZK4", "public_identifier": "hao-wang-4197441a", "premium": false, "profile_picture": "", "url": "https://linkedin.com/in/ACoAAAQGVVUBrYMA_TVk1tVMfeDyqVCs-8BkZK4", "follower_count": 464}, {"last_name": "Hollandsworth", "first_name": "Seth", "headline": "Software Engineer II at Microsoft", "entity_urn": "urn:li:fsd_profile:ACoAAB8lkPcB9bEaVGpE3N8uXm5YtSJrrbZ4SMs", "public_identifier": "sethhollandsworth", "premium": false, "profile_picture": "https://media.licdn.com/dms/image/v2/C4E03AQH-scYn2uQ3FA/profile-displayphoto-shrink_800_800/profile-displayphoto-shrink_800_800/0/1564026439166?e=1775692800&v=beta&t=H_OD9QmNZToKVyayo91L2Uo5cOHYDM7ZpYrS4eMD5rs", "url": "https://linkedin.com/in/ACoAAB8lkPcB9bEaVGpE3N8uXm5YtSJrrbZ4SMs", "follower_count": 625}, {"last_name": "Sun", "first_name": "Guiquan", "headline": "Software Engineer at Microsoft", "entity_urn": "urn:li:fsd_profile:ACoAACrzDDEBm23vWYYO3YUMdh5XAQ-I4hB1bpg", "public_identifier": "guiquan-sun-441399181", "premium": false, "profile_picture": "", "url": "https://linkedin.com/in/ACoAACrzDDEBm23vWYYO3YUMdh5XAQ-I4hB1bpg", "follower_count": 456}, {"last_name": "Wen", "first_name": "Jie", "headline": "Software Engineer at Microsoft", "entity_urn": "urn:li:fsd_profile:ACoAABYXKHUBi_W-fU_9RtczFCKZ67p6jjhwtfE", "public_identifier": "jie-wen-131151a4", "premium": false, "profile_picture": "", "url": "https://linkedin.com/in/ACoAABYXKHUBi_W-fU_9RtczFCKZ67p6jjhwtfE", "follower_count": 1174}, {"last_name": "Guo", "first_name": "Jia", "headline": "Principal Software Engineer Manager at Microsoft", "entity_urn": "urn:li:fsd_profile:ACoAAAYdTlEBoeNHENGJQ3ePTZA9AA6CEO-iU18", "public_identifier": "jia-guo-8154312a", "premium": false, "profile_picture": "https://media.licdn.com/dms/image/v2/D5603AQGd5KNCmfyf5A/profile-displayphoto-crop_800_800/B56Zg1bXe_G4AM-/0/1753243023592?e=1775692800&v=beta&t=coPDjQ9fDzLOxSoOOETb6JxWl8lUXXz3eOUJyfiJRv4", "url": "https://linkedin.com/in/ACoAAAYdTlEBoeNHENGJQ3ePTZA9AA6CEO-iU18", "follower_count": 347}, {"last_name": "Yu", "first_name": "Xiaochen", "headline": "Software Engineer in Austin, Texas", "entity_urn": "urn:li:fsd_profile:ACoAACcOn_gBt4t432hTtNgsGOzZ2LHlP7AtHdY", "public_identifier": "xiaochen-yu", "premium": false, "profile_picture": "", "url": "https://linkedin.com/in/ACoAACcOn_gBt4t432hTtNgsGOzZ2LHlP7AtHdY", "follower_count": 27}, {"last_name": "Wang", "first_name": "Guanyu", "headline": "Engineer@Microsoft", "entity_urn": "urn:li:fsd_profile:ACoAAAnMx4IB8zaNgNkY3qmbgtPKBAG5jBGiQC8", "public_identifier": "guanyu-wang-94208b47", "premium": false, "profile_picture": "https://media.licdn.com/dms/image/v2/C4E03AQH9Sk7dYbY1Ew/profile-displayphoto-shrink_800_800/profile-displayphoto-shrink_800_800/0/1650946088575?e=1775692800&v=beta&t=ae72Kmhd04IID7XGLjR9ZWZJE0UevWPe-SMUBxSqL70", "url": "https://linkedin.com/in/ACoAAAnMx4IB8zaNgNkY3qmbgtPKBAG5jBGiQC8", "follower_count": 714}, {"last_name": "Zeng", "first_name": "Jianping", "headline": "Software Engineer 2 at Microsoft", "entity_urn": "urn:li:fsd_profile:ACoAABIf9XABftJmre74-5BOVO796v2if-hAdbA", "public_identifier": "jianpingzeng", "premium": true, "profile_picture": "", "url": "https://linkedin.com/in/ACoAABIf9XABftJmre74-5BOVO796v2if-hAdbA", "follower_count": 1159}, {"last_name": "Guo", "first_name": "Jiayu", "headline": "Software Engineer", "entity_urn": "urn:li:fsd_profile:ACoAABxL-PEB1jpKBW9LL-4pkSTF6Ng-ggFhBYk", "public_identifier": "gjyu63", "premium": false, "profile_picture": "https://media.licdn.com/dms/image/v2/D5603AQHtbt1dmTF8VQ/profile-displayphoto-crop_800_800/B56ZhBe3LcHcAM-/0/1753445266793?e=1775692800&v=beta&t=5GhUxRiTwoIR83mcZnf9K6saFmIjxDtbW3q9UL3WPKQ", "url": "https://linkedin.com/in/ACoAABxL-PEB1jpKBW9LL-4pkSTF6Ng-ggFhBYk", "follower_count": 0}, {"last_name": "Tikoo", "first_name": "Vikas Amar", "headline": "Senior Software Engineer at Microsoft", "entity_urn": "urn:li:fsd_profile:ACoAAARqN1cBVapFdSToFXITuTgv-lJaVQUChI8", "public_identifier": "vikasamartikoo", "premium": false, "profile_picture": "https://media.licdn.com/dms/image/v2/C4D03AQGhZXEijpEW1g/profile-displayphoto-shrink_400_400/profile-displayphoto-shrink_400_400/0/1516921089681?e=1775692800&v=beta&t=aA8gzC8wEC8_et8F_IDwp3gDQo-SIJrSGHP_Sq8Qvf0", "url": "https://linkedin.com/in/ACoAAARqN1cBVapFdSToFXITuTgv-lJaVQUChI8", "follower_count": 617}, {"last_name": "Liu", "first_name": "Feng (Francis)", "headline": "Software Engineer at Microsoft", "entity_urn": "urn:li:fsd_profile:ACoAACGk43oBngzn_twPlHZ_RKdJ_p6aohIurfs", "public_identifier": "f-liu", "premium": false, "profile_picture": "https://media.licdn.com/dms/image/v2/C5603AQFyim5g53XQ9g/profile-displayphoto-shrink_800_800/profile-displayphoto-shrink_800_800/0/1659508170984?e=1775692800&v=beta&t=_qFsCB5LhblDRVZG8heDxt7K9zVA7p0tlMud043NnN4", "url": "https://linkedin.com/in/ACoAACGk43oBngzn_twPlHZ_RKdJ_p6aohIurfs", "follower_count": 249}, {"last_name": "Zhang", "first_name": "Jie", "headline": "Principal Software Engineer", "entity_urn": "urn:li:fsd_profile:ACoAABIx0JwBMjhSct5hkc-wrnG4Haa3TfHvW4w", "public_identifier": "jie-zhang-b3828b86", "premium": false, "profile_picture": "https://media.licdn.com/dms/image/v2/C4E03AQGPqn05jyFq6A/profile-displayphoto-shrink_800_800/profile-displayphoto-shrink_800_800/0/1516994699068?e=1775692800&v=beta&t=TtzKOAB42jQuYEg5mcOHzRoEY08pZ_7hyLSCYG6crW8", "url": "https://linkedin.com/in/ACoAABIx0JwBMjhSct5hkc-wrnG4Haa3TfHvW4w", "follower_count": 351}, {"last_name": "Wang", "first_name": "Fumin", "headline": "Senior Software Engineer at Uber", "entity_urn": "urn:li:fsd_profile:ACoAAAZSVMMBUEnLxHjjepM1PHoz4vHGBZBhByY", "public_identifier": "fumin-wang-8576282b", "premium": false, "profile_picture": "", "url": "https://linkedin.com/in/ACoAAAZSVMMBUEnLxHjjepM1PHoz4vHGBZBhByY", "follower_count": 249}, {"last_name": "Wang", "first_name": "Hao", "headline": "Software Engineer", "entity_urn": "urn:li:fsd_profile:ACoAAAt7MVYBLBiCMol-MWPPcRAx4pc1c82gBrs", "public_identifier": "hao-wang-73261354", "premium": false, "profile_picture": "https://media.licdn.com/dms/image/v2/C5103AQECWTRrXKum0g/profile-displayphoto-shrink_800_800/profile-displayphoto-shrink_800_800/0/1516753461970?e=1775692800&v=beta&t=rcwo5gyESW9Sq4OZ1YD2HGZKz8XYPimjruFoBBWnszg", "url": "https://linkedin.com/in/ACoAAAt7MVYBLBiCMol-MWPPcRAx4pc1c82gBrs", "follower_count": 90}, {"last_name": "Xu", "first_name": "Jian", "headline": "Software Engineer II at Microsoft", "entity_urn": "urn:li:fsd_profile:ACoAABIuUZ4BOORXFZtE84wENAfcT-g2g4qD1T4", "public_identifier": "jian-xu-42619b86", "premium": false, "profile_picture": "", "url": "https://linkedin.com/in/ACoAABIuUZ4BOORXFZtE84wENAfcT-g2g4qD1T4", "follower_count": 623}, {"last_name": "Liu", "first_name": "Haowen", "headline": "Software Engineer at Microsoft", "entity_urn": "urn:li:fsd_profile:ACoAAChVyvMB81D_P9yPLB22LW8OLbQWNp1EbZ8", "public_identifier": "haowen-liu-10", "premium": false, "profile_picture": "https://media.licdn.com/dms/image/v2/D5603AQGpgdDtPYIvlg/profile-displayphoto-shrink_800_800/B56Zhc2QkhHcAc-/0/1753904384839?e=1775692800&v=beta&t=rDs4y0vWZE44iq61f2o2uQzAfPYHIYXMMRHDVkRTFI8", "url": "https://linkedin.com/in/ACoAAChVyvMB81D_P9yPLB22LW8OLbQWNp1EbZ8", "follower_count": 965}]}, "profile_id": "33d596e8-c598-404c-92b6-daf9ebf68b5b", "audience_room_id": "91cd222b-8cc9-4ee4-bf06-c5e9ed2f6f74", "summary": null, "postCount": 0}