{"name": "Karthik Kakarla", "age": null, "current_company": "Microsoft", "current_location": "Redmond, Washington, United States", "total_years_experience": 14.1, "industry": "Software Development", "education": "Master of Science (MS), Computer Science from University at Buffalo; Bachelor of Engineering (BE), Electronics and Communication Engineering from RV College Of Engineering", "linkedin_profile_url": "https://www.linkedin.com/in/ACwAAAg3N04BJcQcy2-RMMCshaR6y-ugt4X4KJw", "jobTitle": "Software Engineer", "headline": "Software Engineer at Microsoft", "about": null, "linkedin_url": "https://www.linkedin.com/in/ACwAAAg3N04BJcQcy2-RMMCshaR6y-ugt4X4KJw", "description": "Software Engineer at Microsoft", "match_status": "matched", "output": {"id": "ACwAAAg3N04BJcQcy2-RMMCshaR6y-ugt4X4KJw", "linkedinUrl": "https://www.linkedin.com/in/ACwAAAg3N04BJcQcy2-RMMCshaR6y-ugt4X4KJw", "firstName": "Karthik", "lastName": "Kakarla", "openProfile": false, "premium": false, "currentPositions": [{"tenureAtPosition": {"numYears": 5, "numMonths": 6}, "companyName": "Microsoft", "description": "Working as a Software Engineer in Network Resource Provider team under Azure Networking", "title": "Software Engineer", "current": true, "tenureAtCompany": {"numYears": 5, "numMonths": 6}, "startedOn": {"month": 10, "year": 2020}, "companyId": "1035", "companyLinkedinUrl": "https://www.linkedin.com/company/1035"}], "location": {"linkedinText": "Greater Seattle Area"}, "_meta": {"pagination": {"totalElements": 51664, "totalPages": 100, "pageNumber": 1, "previousElements": 0, "pageSize": 25}, "query": {"currentJobTitles": ["Software Engineer"], "currentCompanies": ["https://www.linkedin.com/company/microsoft/"]}}}, "basis": [], "profile_info": {"fullName": "Karthik Kakarla", "jobTitle": "Software Engineer", "currentCompany": "Microsoft", "companyIndustry": "Software Development", "currentLocation": "Redmond, Washington, United States", "totalYearsExperience": 14.1, "education": [{"institution": "University at Buffalo", "degree": "Master of Science (MS), Computer Science", "period": {"startedOn": {"year": 2014, "month": 0}, "endedOn": {"year": 2016, "month": 2}}}, {"institution": "RV College Of Engineering", "degree": "Bachelor of Engineering (BE), Electronics and Communication Engineering", "period": {"startedOn": {"year": 2008, "month": 0}, "endedOn": {"year": 2012, "month": 0}}}], "about": null, "headline": "Software Engineer at Microsoft"}, "apify_enriched": true, "apify_result": {"linkedinUrl": "https://www.linkedin.com/in/ACwAAAg3N04BJcQcy2-RMMCshaR6y-ugt4X4KJw", "firstName": "Karthik", "lastName": "Kakarla", "fullName": "Karthik Kakarla", "headline": "Software Engineer at Microsoft", "connections": 917, "followers": 918, "email": null, "mobileNumber": null, "jobTitle": "Software Engineer", "jobStartedOn": "10-2020", "jobLocation": "Redmond, Washington, United States", "jobStillWorking": true, "companyName": "Microsoft", "companyIndustry": "Software Development", "companyWebsite": "https://news.microsoft.com/", "companyLinkedin": "https://www.linkedin.com/company/microsoft/", "companyFoundedIn": null, "companySize": "10001-0", "currentJobDuration": "5 yrs 6 mos", "currentJobDurationInYrs": 5.5, "topSkillsByEndorsements": null, "addressCountryOnly": "United States", "addressWithCountry": "Greater Seattle Area, United States", "addressWithoutCountry": "Greater Seattle Area", "profilePic": null, "profilePicHighQuality": null, "backgroundPic": null, "linkedinId": "137836366", "isPremium": false, "isVerified": true, "isJobSeeker": false, "isRetired": false, "isCreator": false, "isInfluencer": false, "isCurrentlyEmployed": true, "about": null, "publicIdentifier": "ACwAAAg3N04BJcQcy2-RMMCshaR6y-ugt4X4KJw", "linkedinPublicUrl": "https://linkedin.com/in/karthikkakarla", "openConnection": false, "urn": "ACoAAAg3N04B0EsMqLIX9AMJ6RffifDcqUUG-ZA", "totalRecommendationsReceived": 0, "totalRecommendationsGiven": 0, "birthday": {"day": "", "month": "", "year": ""}, "associatedHashtag": [], "firstRoleYear": 2012, "totalExperienceYears": 14.1, "experiencesCount": 4, "experiences": [{"companyId": "1035", "companyUrn": "urn:li:fsd_company:1035", "companyLink1": "https://www.linkedin.com/company/microsoft/", "companyName": "Microsoft", "companySize": "10001-0", "companyWebsite": "https://news.microsoft.com/", "companyIndustry": "Software Development", "logo": "https://media.licdn.com/dms/image/v2/D560BAQH32RJQCl3dDQ/company-logo_400_400/B56ZYQ0mrGGoAc-/0/1744038948046/microsoft_logo?e=1775692800&v=beta&t=bpHvEU_rLC_nS5opTP7xem1WrnPgW9tn-bxXltwrpfg", "title": "Software Engineer", "jobDescription": "Working as a Software Engineer in Network Resource Provider team under Azure Networking", "jobStartedOn": "10-2020", "jobEndedOn": null, "jobLocation": "Redmond, Washington, United States", "jobStillWorking": true, "jobLocationCountry": "US", "employmentType": "Full-time"}, {"companyId": "20419946", "companyUrn": "urn:li:fsd_company:20419946", "companyLink1": null, "companyName": "Amazon", "companySize": null, "companyWebsite": null, "companyIndustry": null, "logo": null, "title": "Software Development Engineer", "jobDescription": "Software Development Engineer\n\n\u2022\tWorking as an SDE for the IN Checkout and Shopping Cart team, responsible for developing some of the new IN specific \nfeatures in the Checkout pages and the Shopping Cart page of Amazon India Website.\n\u2022\tWorked on designing and implementing a self-service solution for Customers who are blocked from shopping on Amazon \neither because their mobile number was recycled or being used on another Amazon account. Languages: Java, Javascript, JSP \n\u2022\tWorked on migrating the Shopping Cart page on Amazon India website from Perl based framework to Java framework. \n\u2022\tWorked on launching Prime exclusives in Amazon India which provided exclusive selection of items for Prime customers. This\nwas a critical project for the Prime day in IN. Languages: Perl, Javascript\n\u2022\tWorked on designing and implementing a feature where we ask customers to provide a mobile number if not already present \non the account, verify the number and then add it to the customer account before they can checkout. Languages: Java, JS, XML", "jobStartedOn": "5-2016", "jobEndedOn": "10-2020", "jobLocation": "Seattle, Washington, United States", "jobStillWorking": false, "jobLocationCountry": null, "employmentType": "Full-time"}, {"companyId": "1063", "companyUrn": "urn:li:fsd_company:1063", "companyLink1": "https://www.linkedin.com/company/cisco/", "companyName": "Cisco Systems India Private Ltd.", "companySize": "10001-0", "companyWebsite": "http://www.cisco.com", "companyIndustry": "Software Development", "logo": "https://media.licdn.com/dms/image/v2/D560BAQFYnR_Zrm87Dg/company-logo_400_400/B56ZnMyVr4HUAY-/0/1760077372453/cisco_logo?e=1775692800&v=beta&t=TX7e3lqGVclSBfYWu1IT09-s2ar8FEeqAKY0a_svDk4", "title": "Software Engineer", "jobDescription": "\u2022\tWorked as a Software Engineer in Voice Technology Group (VTG). \n\u2022\tResponsible for testing a wide range of CISCO VoIP products at solution level, both manually as well by automation.", "jobStartedOn": "6-2012", "jobEndedOn": "7-2014", "jobLocation": null, "jobStillWorking": false, "jobLocationCountry": "US", "employmentType": null}, {"companyId": "1063", "companyUrn": "urn:li:fsd_company:1063", "companyLink1": "https://www.linkedin.com/company/cisco/", "companyName": "Cisco Systems India Private Ltd.", "companySize": "10001-0", "companyWebsite": "http://www.cisco.com", "companyIndustry": "Software Development", "logo": "https://media.licdn.com/dms/image/v2/D560BAQFYnR_Zrm87Dg/company-logo_400_400/B56ZnMyVr4HUAY-/0/1760077372453/cisco_logo?e=1775692800&v=beta&t=TX7e3lqGVclSBfYWu1IT09-s2ar8FEeqAKY0a_svDk4", "title": "College Intern", "jobDescription": "\u2022\tTool Development for Project Tracking and Reporting using Python and PHP: Developed Web based Project Tracking tool as a single point of reference for all the project related information", "jobStartedOn": "2-2012", "jobEndedOn": "5-2012", "jobLocation": null, "jobStillWorking": false, "jobLocationCountry": "US", "employmentType": null}], "updates": [{"postText": "Resume (As of 07/21/2020)", "image": "https://media.licdn.com/dms/image/v2/C562DAQEJly6c_-HwSA/profile-treasury-document-cover-images_480/profile-treasury-document-cover-images_480/0/1595390762552?e=1774461600&v=beta&t=m52yycqS9V4xSCn0LtIv-Lyb_RS6XzLXz1mPZrV5I8M", "postLink": "https://www.linkedin.com/in/karthikkakarla/overlay/1595390774296/single-media-viewer?type=DOCUMENT&profileId=ACoAAAg3N04B0EsMqLIX9AMJ6RffifDcqUUG-ZA", "subTitle": "9658502_KARTHIK_KAKARLA_15080314_202005250108_Resume.pdf", "title": "9658502_KARTHIK_KAKARLA_15080314_202005250108_Resume.pdf", "type": "Document"}], "skills": [{"title": "Java"}, {"title": "Python"}, {"title": "R"}, {"title": "Machine Learning"}, {"title": "Statistics"}, {"title": "Data Mining"}, {"title": "Stochastic Simulation"}, {"title": "Hadoop"}, {"title": "MapReduce"}, {"title": "Apache Pig"}, {"title": "Hive"}, {"title": "HBase"}, {"title": "Matlab"}, {"title": "Computer Vision"}, {"title": "SQL"}, {"title": "JDBC"}, {"title": "Hibernate"}, {"title": "C++"}, {"title": "HTML"}, {"title": "CSS"}], "creatorWebsite": [], "profilePicAllDimensions": [], "educations": [{"companyId": "19028", "companyUrn": "urn:li:fsd_company:19028", "companyLink1": "https://www.linkedin.com/school/universityatbuffalo/", "logo": "https://media.licdn.com/dms/image/v2/C4E0BAQEk7c2dS0qFGA/company-logo_200_200/company-logo_200_200/0/1660069485905/universityatbuffalo_logo?e=1775692800&v=beta&t=hmmyNkGXheZqwBvfRiWrZ0d5HXRYH7FhkzHoTE-_8Cg", "title": "University at Buffalo", "subtitle": "Master of Science (MS), Computer Science", "description": null, "grade": "3.5/4.0", "period": {"startedOn": {"year": 2014, "month": 0}, "endedOn": {"year": 2016, "month": 2}}}, {"companyId": "3292000", "companyUrn": "urn:li:fsd_company:3292000", "companyLink1": "https://www.linkedin.com/school/rvcengineering/", "logo": "https://media.licdn.com/dms/image/v2/D560BAQFEZtCmByGTGg/company-logo_200_200/company-logo_200_200/0/1700567297525/rvcengineering_logo?e=1775692800&v=beta&t=Q26GtDvvRNO9q7DqvRdfGi22Jg-qpkxtpTHvzb3JE0M", "title": "RV College Of Engineering", "subtitle": "Bachelor of Engineering (BE), Electronics and Communication Engineering", "description": null, "grade": "8.74/10.0", "period": {"startedOn": {"year": 2008, "month": 0}, "endedOn": {"year": 2012, "month": 0}}}], "licenseAndCertificates": [{"name": "Reporting with R Markdown", "startedOn": {"year": 2016, "month": 5, "day": null}, "authority": "DataCamp", "company_id": "", "url": "https://linkedin.com/company/3227175"}], "honorsAndAwards": [], "languages": [{"name": "English", "proficiency": "Full professional proficiency"}, {"name": "Kannada", "proficiency": "Native or bilingual proficiency"}], "volunteerAndAwards": [], "verifications": [], "promos": [], "highlights": [], "projects": [], "publications": [], "patents": [], "courses": [], "testScores": [], "organizations": [], "volunteerCauses": [], "interests": [], "recommendationsReceived": [], "recommendations": [], "peopleAlsoViewed": [{"last_name": "Karthik", "first_name": "Kakarla", "headline": "--Softwere Developer With LAURENTII IT SOLUTIONS PRIVATE LIMITED", "entity_urn": "urn:li:fsd_profile:ACoAADmbFZABiWqJe1ixMKwERepbSx7FsIkdj7M", "public_identifier": "kakarla-karthik-9a880022b", "premium": false, "profile_picture": "https://media.licdn.com/dms/image/v2/D5603AQGnFRACeq9XUw/profile-displayphoto-shrink_800_800/profile-displayphoto-shrink_800_800/0/1685863419907?e=1775692800&v=beta&t=d8yaoO9wgXqq2OlfrCRJiP9UxmCwBqV0kiBtm7sNduw", "url": "https://linkedin.com/in/ACoAADmbFZABiWqJe1ixMKwERepbSx7FsIkdj7M", "follower_count": 81}, {"last_name": "Mathamsetty", "first_name": "Etaash", "headline": "Robotics, Low level programming, open source projects and Robocup competitions keep me going.", "entity_urn": "urn:li:fsd_profile:ACoAAEqW70kBeChZ_x3JoP6wOqgpvYOrafZnVvQ", "public_identifier": "etaash", "premium": false, "profile_picture": "https://media.licdn.com/dms/image/v2/D4E03AQEbfMia_yhw1w/profile-displayphoto-shrink_100_100/profile-displayphoto-shrink_100_100/0/1705806447538?e=1775692800&v=beta&t=Kz8er3SziSt-4VbZwlcLs9jnUpRPFiX4Wep6wxkgQro", "url": "https://linkedin.com/in/ACoAAEqW70kBeChZ_x3JoP6wOqgpvYOrafZnVvQ", "follower_count": 129}, {"last_name": "Jaiswal", "first_name": "Adarsh", "headline": "SWE @ Microsoft | MS in CS at UB", "entity_urn": "urn:li:fsd_profile:ACoAABt8tLoBbODd3BnWjXeSgvUuDxYthNkqqwE", "public_identifier": "adarsh-jaiswal-aj", "premium": false, "profile_picture": "https://media.licdn.com/dms/image/v2/C4D03AQHU90YKDXf4Xw/profile-displayphoto-shrink_800_800/profile-displayphoto-shrink_800_800/0/1661506363610?e=1775692800&v=beta&t=Uvv5BBF6eVvK0jy44F4vkZCUoUkQI98B1Pqp2Vxg2cI", "url": "https://linkedin.com/in/ACoAABt8tLoBbODd3BnWjXeSgvUuDxYthNkqqwE", "follower_count": 965}, {"last_name": "Kakarala", "first_name": "Kartik", "headline": "Entrepreneur | Investor | CEO @ Halcyon | Co-Founder: Redbumper, EcarTag, Nextgen (RumbleOn)", "entity_urn": "urn:li:fsd_profile:ACoAAAO5jSoB40Uo3m866BBSiJRzOmRgrYAnSSo", "public_identifier": "kartik-kakarala", "premium": true, "profile_picture": "https://media.licdn.com/dms/image/v2/D5603AQEYIVF8EIVI0Q/profile-displayphoto-crop_800_800/B56ZkK2NCYHMAI-/0/1756823605763?e=1775692800&v=beta&t=EjSI6FOrTvFA3DhXek_SneOTq925z6gkRlInQWm2AOw", "url": "https://linkedin.com/in/ACoAAAO5jSoB40Uo3m866BBSiJRzOmRgrYAnSSo", "follower_count": 2023}, {"last_name": "Varidireddy", "first_name": "Geetika Reddy", "headline": "Software Development Manager at Amazon", "entity_urn": "urn:li:fsd_profile:ACoAABBZMPkBl01HjsrViVl5LkxgHmnyxIwBQsw", "public_identifier": "geetika-reddy-varidireddy-309a3377", "premium": false, "profile_picture": "https://media.licdn.com/dms/image/v2/D5603AQGkyT4Dq3EDyQ/profile-displayphoto-shrink_800_800/profile-displayphoto-shrink_800_800/0/1696308593536?e=1775692800&v=beta&t=0HQ9pa7IyYeFNlzNS1x5GNFN6_rsCnDuq9KmZmSDGz8", "url": "https://linkedin.com/in/ACoAABBZMPkBl01HjsrViVl5LkxgHmnyxIwBQsw", "follower_count": 718}, {"last_name": "Acharya", "first_name": "Venkatesh", "headline": "Owner, Ganapati Collection", "entity_urn": "urn:li:fsd_profile:ACoAAAivpPABaU3VUUqnSith0pftGbcACnMDDCk", "public_identifier": "venkatesh-acharya-92897940", "premium": false, "profile_picture": "", "url": "https://linkedin.com/in/ACoAAAivpPABaU3VUUqnSith0pftGbcACnMDDCk", "follower_count": 54}, {"last_name": "Golive", "first_name": "Santosh", "headline": "Student at Amrita Institute Of Technology Science", "entity_urn": "urn:li:fsd_profile:ACoAABeVqw4B4nz-6ojpyLrPtCoIRZ7ORn1jBe4", "public_identifier": "santosh-golive-1a6620b0", "premium": false, "profile_picture": "", "url": "https://linkedin.com/in/ACoAABeVqw4B4nz-6ojpyLrPtCoIRZ7ORn1jBe4", "follower_count": 0}, {"last_name": "kiran", "first_name": "Nvs", "headline": "--", "entity_urn": "urn:li:fsd_profile:ACoAADTFp1oB2KOVeNLEkpzZPvxS-eWn3cxsQow", "public_identifier": "nvs-kiran-162612208", "premium": false, "profile_picture": "", "url": "https://linkedin.com/in/ACoAADTFp1oB2KOVeNLEkpzZPvxS-eWn3cxsQow", "follower_count": 2}, {"last_name": "Badea", "first_name": "Bogdan", "headline": "Data Backup Advisor @ Dell | Commmvault Certified Expert, DellEMC Certified", "entity_urn": "urn:li:fsd_profile:ACoAAAUmAWoB1Gfyx72GE6GzAYt-GZaTdMluFJw", "public_identifier": "bogdanbadea", "premium": false, "profile_picture": "", "url": "https://linkedin.com/in/ACoAAAUmAWoB1Gfyx72GE6GzAYt-GZaTdMluFJw", "follower_count": 333}, {"last_name": "Mastrangelo", "first_name": "Mark", "headline": "Sr. Automation Engineer", "entity_urn": "urn:li:fsd_profile:ACoAABhBNJIB4ePV7xqu6PX8LdybSe2IkUYT4Kc", "public_identifier": "mark-mastrangelo-a42341b4", "premium": false, "profile_picture": "", "url": "https://linkedin.com/in/ACoAABhBNJIB4ePV7xqu6PX8LdybSe2IkUYT4Kc", "follower_count": 54}, {"last_name": "nalla", "first_name": "aadarsh", "headline": "Sr Java Developer Master's in Computer Sciences", "entity_urn": "urn:li:fsd_profile:ACoAADha7SYBjN_h-B4i7zek8Y7-Okh4l7iJ3-E", "public_identifier": "aadarsh-nalla-65a782224", "premium": false, "profile_picture": "", "url": "https://linkedin.com/in/ACoAADha7SYBjN_h-B4i7zek8Y7-Okh4l7iJ3-E", "follower_count": 540}, {"last_name": "Greene", "first_name": "Tamara", "headline": "AWS Database Engineer", "entity_urn": "urn:li:fsd_profile:ACoAAANYNloBzqIWzO1bLvjnbLCyyo81cWQyiek", "public_identifier": "tamara-greene", "premium": false, "profile_picture": "https://media.licdn.com/dms/image/v2/C4E03AQE3437psCO7NQ/profile-displayphoto-shrink_800_800/profile-displayphoto-shrink_800_800/0/1540512204905?e=1775692800&v=beta&t=uJl__vV4CCQ0UG3njmmeticxYA-NDJkAeEEizpJ5Xkw", "url": "https://linkedin.com/in/ACoAAANYNloBzqIWzO1bLvjnbLCyyo81cWQyiek", "follower_count": 322}, {"last_name": "Hole\u0161", "first_name": "\u0160tefan", "headline": "Software engineer and problem solver, let me make your work easier. ", "entity_urn": "urn:li:fsd_profile:ACoAABLEt-sB-rfpyA1pdjmwQn5Bk9OU_z76Jf0", "public_identifier": "stefan-holes", "premium": false, "profile_picture": "https://media.licdn.com/dms/image/v2/D4E03AQEeOwWb06AgqQ/profile-displayphoto-shrink_800_800/B4EZXrXvQOGgAg-/0/1743410624322?e=1775692800&v=beta&t=mn1oyHD-620G9rwZoHTrvX9YmOOtua7Mnhs1oBKBBlo", "url": "https://linkedin.com/in/ACoAABLEt-sB-rfpyA1pdjmwQn5Bk9OU_z76Jf0", "follower_count": 271}, {"last_name": "Kumar", "first_name": "Gireesh", "headline": "Program Manager for TCS (CSE - Cloud Services Engineering team) at Apple", "entity_urn": "urn:li:fsd_profile:ACoAAAAyk9oBMjf0cyACoVpAF_7p8YwXdJBiM6c", "public_identifier": "gireesh-kumar-rao", "premium": false, "profile_picture": "https://media.licdn.com/dms/image/v2/C5603AQGHQfoggCSvkw/profile-displayphoto-shrink_800_800/profile-displayphoto-shrink_800_800/0/1535253421312?e=1775692800&v=beta&t=i1LJChVejLDVSswRueq2O_9ffWLqgvek6mduktJBKIo", "url": "https://linkedin.com/in/ACoAAAAyk9oBMjf0cyACoVpAF_7p8YwXdJBiM6c", "follower_count": 271}, {"last_name": "Karthik", "first_name": "Kakkerla", "headline": "Kitsw Mechanical - 2020 , Trine University Detroit Michigan - 2023", "entity_urn": "urn:li:fsd_profile:ACoAAELSGoABu8tvl9z2MywNiJsufaaZt6cZL_Q", "public_identifier": "karthikkakkerla", "premium": false, "profile_picture": "https://media.licdn.com/dms/image/v2/D5603AQHMKcpfOPodpg/profile-displayphoto-crop_800_800/B56ZwmzGcdKsAM-/0/1770177457030?e=1775692800&v=beta&t=rb6szhfVqjOKCugdLszKeCh5X_WPZRoGmpVwgmyfsF0", "url": "https://linkedin.com/in/ACoAAELSGoABu8tvl9z2MywNiJsufaaZt6cZL_Q", "follower_count": 597}, {"last_name": "D", "first_name": "Rahul", "headline": "Cloud & Infra Management | Azure | AWS | Devops | Kubernetes | Docker | Backups and Restore Management |  Disaster Recovery | BCP | SAN | NAS", "entity_urn": "urn:li:fsd_profile:ACoAAB-rMMUBCw7Dz2w_HEJ8alIeFG0rDibbiog", "public_identifier": "rahul-d-it", "premium": false, "profile_picture": "", "url": "https://linkedin.com/in/ACoAAB-rMMUBCw7Dz2w_HEJ8alIeFG0rDibbiog", "follower_count": 516}, {"last_name": "Dvo\u0159\u00e1k", "first_name": "Miroslav", "headline": "Technical Services Manager at Novartis", "entity_urn": "urn:li:fsd_profile:ACoAAAEo-gcBrO8H3Fyspn_FlHno8RgavlF2j_w", "public_identifier": "dvorakmiroslav", "premium": false, "profile_picture": "https://media.licdn.com/dms/image/v2/D4E03AQEhVVt0yg59PQ/profile-displayphoto-crop_800_800/B4EZmFG7q_KsAI-/0/1758874811830?e=1775692800&v=beta&t=bCrUXb7JpBG-4IXvPjEHVVZt1he3EQT2Y47i7hJmJig", "url": "https://linkedin.com/in/ACoAAAEo-gcBrO8H3Fyspn_FlHno8RgavlF2j_w", "follower_count": 478}, {"last_name": "S.", "first_name": "Jason", "headline": "Transformational Leader in Service Delivery & Operations | 10+ Years Driving Post-Sale Fulfillment & Business Growth", "entity_urn": "urn:li:fsd_profile:ACoAAAtjCp4BtV-QhbrE6xJBT6OlBOqXlgPgHnk", "public_identifier": "jason-s-792b8b53", "premium": false, "profile_picture": "https://media.licdn.com/dms/image/v2/C4D03AQHtvfdEdyNzJw/profile-displayphoto-shrink_800_800/profile-displayphoto-shrink_800_800/0/1644854006810?e=1775692800&v=beta&t=jJCY6YV_h-9-TmkhHZIaU9-wFYfjq0cic9-jgD5JqcY", "url": "https://linkedin.com/in/ACoAAAtjCp4BtV-QhbrE6xJBT6OlBOqXlgPgHnk", "follower_count": 409}, {"last_name": "Seiler", "first_name": "Brian", "headline": "Senior Software Engineer and Database Developer", "entity_urn": "urn:li:fsd_profile:ACoAAAGXqekBZfkQylQWL71XfmawBcqkjnV1oIA", "public_identifier": "brianseiler", "premium": false, "profile_picture": "https://media.licdn.com/dms/image/v2/D5603AQGDvxqvU3ey2Q/profile-displayphoto-shrink_800_800/profile-displayphoto-shrink_800_800/0/1713362448675?e=1775692800&v=beta&t=naSgVMT4UHumsk7XjYQdyf7CkJ76VylJMIVZW9dxic0", "url": "https://linkedin.com/in/ACoAAAGXqekBZfkQylQWL71XfmawBcqkjnV1oIA", "follower_count": 96}, {"last_name": "Kumar", "first_name": "Arun", "headline": "Technical Lead at Trianz ll Commvault ll Backup Admin", "entity_urn": "urn:li:fsd_profile:ACoAAEbxEvYBaajNH1LZA6i7agkm74eLGXme_18", "public_identifier": "arun-kumar-67271b292", "premium": false, "profile_picture": "", "url": "https://linkedin.com/in/ACoAAEbxEvYBaajNH1LZA6i7agkm74eLGXme_18", "follower_count": 60}, {"last_name": "Hachemeister", "first_name": "Justin", "headline": "C# Enthusiast | Self-motivated, curiosity-driven, perfectionist dedicated to continuous learning, growth, and innovation. Views are own.", "entity_urn": "urn:li:fsd_profile:ACoAAAZG5c8BtmPdHTcHMbUpLh3IX28A5OiGlfU", "public_identifier": "justinhachemeister", "premium": false, "profile_picture": "https://media.licdn.com/dms/image/v2/C4E03AQEmuXBoYdYMuQ/profile-displayphoto-shrink_800_800/profile-displayphoto-shrink_800_800/0/1563207653121?e=1775692800&v=beta&t=h4p8QwmrVDp5yc6JXgJ7jkpcnFkkLc0jnaz8uwc0_lw", "url": "https://linkedin.com/in/ACoAAAZG5c8BtmPdHTcHMbUpLh3IX28A5OiGlfU", "follower_count": 822}, {"last_name": "M.", "first_name": "Susanna", "headline": "Agile Coach | Business Architect | Cybersecurity GRC", "entity_urn": "urn:li:fsd_profile:ACoAAAuaX8YBB8P50ttvBWhS_RAePdcD0y8UJRE", "public_identifier": "susannamcgimpsey", "premium": true, "profile_picture": "", "url": "https://linkedin.com/in/ACoAAAuaX8YBB8P50ttvBWhS_RAePdcD0y8UJRE", "follower_count": 0}, {"last_name": "S.", "first_name": "Nitish", "headline": "Interface Developer @ eMedApps | Database Administration, Database Design", "entity_urn": "urn:li:fsd_profile:ACoAAAn7aC4Bd4dxslF2NSxXkhOxnRy1stX_mjI", "public_identifier": "nitishsaraf89", "premium": false, "profile_picture": "https://media.licdn.com/dms/image/v2/C4E03AQHElMJaZfL-GA/profile-displayphoto-shrink_800_800/profile-displayphoto-shrink_800_800/0/1523587061991?e=1775692800&v=beta&t=FlHtiiqzFfHjis4EWa_xSuYc48PVxqblrN2XH3SEMIs", "url": "https://linkedin.com/in/ACoAAAn7aC4Bd4dxslF2NSxXkhOxnRy1stX_mjI", "follower_count": 1001}, {"last_name": "Singh", "first_name": "Abheejeet", "headline": "Software Development Engineer at Microsoft", "entity_urn": "urn:li:fsd_profile:ACoAAB2Pwc8BqXjZ-SzpK3y9CNIaq4aARpPDe3c", "public_identifier": "abheejeet-singh", "premium": true, "profile_picture": "", "url": "https://linkedin.com/in/ACoAAB2Pwc8BqXjZ-SzpK3y9CNIaq4aARpPDe3c", "follower_count": 124}, {"last_name": "KARTHIK", "first_name": "KAKARLA", "headline": "ANALOG LAYOUT TRAINE  at  SumedhaIT Hyderabad", "entity_urn": "urn:li:fsd_profile:ACoAADsQN6UBhDM0Zkm2WAXeyyI2-fc8JkWHEhU", "public_identifier": "kakarlakarthik", "premium": false, "profile_picture": "https://media.licdn.com/dms/image/v2/D5603AQE4YiXvn4R6mA/profile-displayphoto-shrink_800_800/profile-displayphoto-shrink_800_800/0/1692346947168?e=1775692800&v=beta&t=5eXVHE-D6UL7g39a4JLQzr7tsBWY7h0JMTn7BRhC0os", "url": "https://linkedin.com/in/ACoAADsQN6UBhDM0Zkm2WAXeyyI2-fc8JkWHEhU", "follower_count": 411}]}, "profile_id": "6217bbbb-06c5-4c5d-b3a1-f30fb9a169bd", "audience_room_id": "91cd222b-8cc9-4ee4-bf06-c5e9ed2f6f74", "summary": "Karthik Kakarla is currently at Microsoft, an established enterprise technology company, and shares a mix of industry news and personal reflections. His posts indicate a strong interest in AI applications in healthcare\u2014highlighting advances like forecasting atrial fibrillation and stroke risk\u2014while also conveying an upbeat, motivational voice. He posts concisely and enthusiastically, often curating notable developments (ICYMI-style) and using hashtags to signal topical focus. The tone blends high-level industry commentary and inspirational personal beliefs rather than deep technical exposition. From these posts he projects credibility in enterprise AI and a patient-centered perspective on technology\u2019s impact, combined with an emphasis on ambition, courage, and personal drive. Overall his content differentiates itself by marrying credible tech/health signals with motivational leadership cues, positioning him as a curator and advocate for impactful AI in healthcare.", "highlights": ["Enterprise Tech (Microsoft)", "AI & Machine Learning Advocate", "Healthcare AI Focus", "News Curator / Signal Sharer", "Motivational / People-Focused", "Thought Leadership / Industry Commentary"], "keywords": ["Microsoft", "AI", "ICYMI", "#AI", "atrial fibrillation", "stroke risk", "healthcare", "patients", "predictive analytics", "machine learning", "healthtech", "patient outcomes", "motivation", "ambition", "leadership"], "postCount": 4}