{"name": "Nrupal Jani", "age": null, "current_company": "Microsoft", "current_location": "Hillsboro, Oregon, United States", "total_years_experience": 32.4, "industry": "Software Development", "education": "Master's degree, Computer Science from Utah State University; Bachelor of Engineering (B.E.), Computer Engineering from Dharmsinh Desai University; High School, Science and Mathematics from C. N. Vidhyalaya", "linkedin_profile_url": "https://www.linkedin.com/in/ACwAAACewSoBLzxIrt_x6ZPKgd4gT3OdIc6jxzQ", "jobTitle": "Principal High-Performance Computing Backend Network Engineer", "headline": "Principal High-Performance Computing Backend Network Engineer", "about": "Practical", "linkedin_url": "https://www.linkedin.com/in/ACwAAACewSoBLzxIrt_x6ZPKgd4gT3OdIc6jxzQ", "description": "Practical", "match_status": "matched", "output": {"id": "ACwAAACewSoBLzxIrt_x6ZPKgd4gT3OdIc6jxzQ", "linkedinUrl": "https://www.linkedin.com/in/ACwAAACewSoBLzxIrt_x6ZPKgd4gT3OdIc6jxzQ", "firstName": "Nrupal", "lastName": "Jani", "summary": "Practical", "openProfile": false, "premium": false, "currentPositions": [{"tenureAtPosition": {"numYears": 1, "numMonths": 9}, "companyName": "Microsoft", "title": "Principal High-Performance Computing Backend Network Engineer", "current": true, "tenureAtCompany": {"numYears": 1, "numMonths": 9}, "startedOn": {"month": 7, "year": 2024}, "companyId": "1035", "companyLinkedinUrl": "https://www.linkedin.com/company/1035"}], "pictureUrl": "https://media.licdn.com/dms/image/v2/D5603AQGKn6pkhj_uLQ/profile-displayphoto-shrink_800_800/profile-displayphoto-shrink_800_800/0/1666840920901?e=1775692800&v=beta&t=BYDqPGppJ_hUBhpMcBo6eNZvGFyarXxNTmj1Aa4OQEs", "location": {"linkedinText": "Hillsboro, Oregon, United States"}, "_meta": {"pagination": {"totalElements": 51664, "totalPages": 100, "pageNumber": 2, "previousElements": 25, "pageSize": 25}, "query": {"currentJobTitles": ["Software Engineer"], "currentCompanies": ["https://www.linkedin.com/company/microsoft/"]}}}, "basis": [], "profile_info": {"fullName": "Nrupal Jani", "jobTitle": "Principal High-Performance Computing Backend Network Engineer", "currentCompany": "Microsoft", "companyIndustry": "Software Development", "currentLocation": "Hillsboro, Oregon, United States", "totalYearsExperience": 32.4, "education": [{"institution": "Utah State University", "degree": "Master's degree, Computer Science", "period": {"startedOn": {"year": 1991, "month": 0}, "endedOn": {"year": 1993, "month": 0}}}, {"institution": "Dharmsinh Desai University", "degree": "Bachelor of Engineering (B.E.), Computer Engineering", "period": {"startedOn": {"year": 1986, "month": 0}, "endedOn": {"year": 1991, "month": 0}}}, {"institution": "C. N. Vidhyalaya", "degree": "High School, Science and Mathematics", "period": {"startedOn": {"year": 1982, "month": 0}, "endedOn": {"year": 1986, "month": 0}}}], "about": "Practical", "headline": "Principal High-Performance Computing Backend Network Engineer"}, "apify_enriched": true, "apify_result": {"linkedinUrl": "https://www.linkedin.com/in/ACwAAACewSoBLzxIrt_x6ZPKgd4gT3OdIc6jxzQ", "firstName": "Nrupal", "lastName": "Jani", "fullName": "Nrupal Jani", "headline": "Principal High-Performance Computing Backend Network Engineer", "connections": 1915, "followers": 1899, "email": null, "mobileNumber": "1-503-681-9876", "jobTitle": "Principal High-Performance Computing Backend Network Engineer", "jobStartedOn": "7-2024", "jobLocation": null, "jobStillWorking": true, "companyName": "Microsoft", "companyIndustry": "Software Development", "companyWebsite": "https://news.microsoft.com/", "companyLinkedin": "https://www.linkedin.com/company/microsoft/", "companyFoundedIn": null, "companySize": "10001-0", "currentJobDuration": "1 yr 9 mos", "currentJobDurationInYrs": 1.75, "topSkillsByEndorsements": null, "addressCountryOnly": "United States", "addressWithCountry": "Hillsboro, Oregon, United States", "addressWithoutCountry": "Hillsboro, Oregon", "profilePic": "https://media.licdn.com/dms/image/v2/D5603AQGKn6pkhj_uLQ/profile-displayphoto-shrink_800_800/profile-displayphoto-shrink_800_800/0/1666840920901?e=1775692800&v=beta&t=BYDqPGppJ_hUBhpMcBo6eNZvGFyarXxNTmj1Aa4OQEs", "profilePicHighQuality": "https://media.licdn.com/dms/image/v2/D5603AQGKn6pkhj_uLQ/profile-displayphoto-shrink_800_800/profile-displayphoto-shrink_800_800/0/1666840920901?e=1775692800&v=beta&t=BYDqPGppJ_hUBhpMcBo6eNZvGFyarXxNTmj1Aa4OQEs", "backgroundPic": null, "linkedinId": "10404138", "isPremium": false, "isVerified": true, "isJobSeeker": false, "isRetired": false, "isCreator": false, "isInfluencer": false, "isCurrentlyEmployed": true, "about": "Practical", "publicIdentifier": "ACwAAACewSoBLzxIrt_x6ZPKgd4gT3OdIc6jxzQ", "linkedinPublicUrl": "https://linkedin.com/in/nrupal-jani-ab65983", "openConnection": false, "urn": "ACoAAACewSoBv_Syu3TnVFASX8fLjgcGYcXWPQU", "totalRecommendationsReceived": 0, "totalRecommendationsGiven": 1, "birthday": {"day": "", "month": "", "year": ""}, "associatedHashtag": [], "firstRoleYear": 1993, "totalExperienceYears": 32.4, "experiencesCount": 6, "experiences": [{"companyId": "1035", "companyUrn": "urn:li:fsd_company:1035", "companyLink1": "https://www.linkedin.com/company/microsoft/", "companyName": "Microsoft", "companySize": "10001-0", "companyWebsite": "https://news.microsoft.com/", "companyIndustry": "Software Development", "logo": "https://media.licdn.com/dms/image/v2/D560BAQH32RJQCl3dDQ/company-logo_400_400/B56ZYQ0mrGGoAc-/0/1744038948046/microsoft_logo?e=1775692800&v=beta&t=bpHvEU_rLC_nS5opTP7xem1WrnPgW9tn-bxXltwrpfg", "title": "Principal High-Performance Computing Backend Network Engineer", "jobDescription": null, "jobStartedOn": "7-2024", "jobEndedOn": null, "jobLocation": null, "jobStillWorking": true, "jobLocationCountry": "US", "employmentType": "Full-time"}, {"companyId": "1053", "companyUrn": "urn:li:fsd_company:1053", "companyLink1": "https://www.linkedin.com/company/intel-corporation/", "companyName": "Intel Corporation", "companySize": "10001-0", "companyWebsite": "http://www.intel.com", "companyIndustry": "Semiconductor Manufacturing", "logo": "https://media.licdn.com/dms/image/v2/C560BAQGpvWtEtj9oTQ/company-logo_400_400/company-logo_400_400/0/1630663244736/intel_corporation_logo?e=1775692800&v=beta&t=NSr3lN7m6UbyQEab7CstjNo-x461BdQgn-Gk_4vQUe4", "title": "Principal Engineer, System Software Architect", "jobDescription": "Lead Software Architect of the Intel Ethernet Controllers", "jobStartedOn": "2-2024", "jobEndedOn": null, "jobLocation": "United States", "jobStillWorking": true, "jobLocationCountry": "US", "employmentType": "Full-time"}, {"companyId": "1053", "companyUrn": "urn:li:fsd_company:1053", "companyLink1": "https://www.linkedin.com/company/intel-corporation/", "companyName": "Intel Corporation", "companySize": "10001-0", "companyWebsite": "http://www.intel.com", "companyIndustry": "Semiconductor Manufacturing", "logo": "https://media.licdn.com/dms/image/v2/C560BAQGpvWtEtj9oTQ/company-logo_400_400/company-logo_400_400/0/1630663244736/intel_corporation_logo?e=1775692800&v=beta&t=NSr3lN7m6UbyQEab7CstjNo-x461BdQgn-Gk_4vQUe4", "title": "Software Architect", "jobDescription": null, "jobStartedOn": "8-2016", "jobEndedOn": null, "jobLocation": "Hillsboro Oregon", "jobStillWorking": true, "jobLocationCountry": "US", "employmentType": null}, {"companyId": "1053", "companyUrn": "urn:li:fsd_company:1053", "companyLink1": "https://www.linkedin.com/company/intel-corporation/", "companyName": "Intel Corporation", "companySize": "10001-0", "companyWebsite": "http://www.intel.com", "companyIndustry": "Semiconductor Manufacturing", "logo": "https://media.licdn.com/dms/image/v2/C560BAQGpvWtEtj9oTQ/company-logo_400_400/company-logo_400_400/0/1630663244736/intel_corporation_logo?e=1775692800&v=beta&t=NSr3lN7m6UbyQEab7CstjNo-x461BdQgn-Gk_4vQUe4", "title": "OSV Ecosystem Enabling Strategist", "jobDescription": null, "jobStartedOn": "6-2014", "jobEndedOn": null, "jobLocation": null, "jobStillWorking": true, "jobLocationCountry": "US", "employmentType": null}, {"companyId": "1053", "companyUrn": "urn:li:fsd_company:1053", "companyLink1": "https://www.linkedin.com/company/intel-corporation/", "companyName": "Intel Corporation", "companySize": "10001-0", "companyWebsite": "http://www.intel.com", "companyIndustry": "Semiconductor Manufacturing", "logo": "https://media.licdn.com/dms/image/v2/C560BAQGpvWtEtj9oTQ/company-logo_400_400/company-logo_400_400/0/1630663244736/intel_corporation_logo?e=1775692800&v=beta&t=NSr3lN7m6UbyQEab7CstjNo-x461BdQgn-Gk_4vQUe4", "title": "IO Virtualization Technical Lead", "jobDescription": null, "jobStartedOn": "4-2004", "jobEndedOn": "6-2014", "jobLocation": null, "jobStillWorking": false, "jobLocationCountry": "US", "employmentType": null}, {"companyId": "1053", "companyUrn": "urn:li:fsd_company:1053", "companyLink1": "https://www.linkedin.com/company/intel-corporation/", "companyName": "Intel Corporation", "companySize": "10001-0", "companyWebsite": "http://www.intel.com", "companyIndustry": "Semiconductor Manufacturing", "logo": "https://media.licdn.com/dms/image/v2/C560BAQGpvWtEtj9oTQ/company-logo_400_400/company-logo_400_400/0/1630663244736/intel_corporation_logo?e=1775692800&v=beta&t=NSr3lN7m6UbyQEab7CstjNo-x461BdQgn-Gk_4vQUe4", "title": "Sr. Software Engineer", "jobDescription": null, "jobStartedOn": "10-1993", "jobEndedOn": "4-2004", "jobLocation": "Hillsboro Oregon", "jobStillWorking": false, "jobLocationCountry": "US", "employmentType": null}], "updates": [], "skills": [{"title": "Device Drivers"}, {"title": "Debugging"}, {"title": "Linux Kernel"}, {"title": "Embedded Systems"}, {"title": "Embedded Software"}, {"title": "Kernel"}, {"title": "PCIe"}, {"title": "Ethernet"}, {"title": "Processors"}, {"title": "High Performance Computing"}, {"title": "C"}, {"title": "RTOS"}, {"title": "Software Engineering"}, {"title": "Firmware"}, {"title": "Intel"}, {"title": "Software Design"}, {"title": "Computer Architecture"}, {"title": "SoC"}, {"title": "Virtualization"}, {"title": "Perl"}], "creatorWebsite": [], "profilePicAllDimensions": [], "educations": [{"companyId": "19561", "companyUrn": "urn:li:fsd_company:19561", "companyLink1": "https://www.linkedin.com/school/utah-state-university/", "logo": "https://media.licdn.com/dms/image/v2/C560BAQHeAGY3U3E3MQ/company-logo_200_200/company-logo_200_200/0/1630669263556/utah_state_university_logo?e=1775692800&v=beta&t=N9To-LJd2Ml8zgr2Xkqu_nLtPQLgsXZrC-dUHbWl1Gw", "title": "Utah State University", "subtitle": "Master's degree, Computer Science", "description": null, "grade": null, "period": {"startedOn": {"year": 1991, "month": 0}, "endedOn": {"year": 1993, "month": 0}}}, {"companyId": "13460", "companyUrn": "urn:li:fsd_company:13460", "companyLink1": "https://www.linkedin.com/school/dharmsinh-desai-university/", "logo": "https://media.licdn.com/dms/image/v2/C4E0BAQFOem5sfsvzfg/company-logo_200_200/company-logo_200_200/0/1631333296861?e=1775692800&v=beta&t=6BcnFo1NgOcKWDSSDZwWc28qLTruvBsrDD5czlteMwY", "title": "Dharmsinh Desai University", "subtitle": "Bachelor of Engineering (B.E.), Computer Engineering", "description": null, "grade": null, "period": {"startedOn": {"year": 1986, "month": 0}, "endedOn": {"year": 1991, "month": 0}}}, {"companyId": null, "companyUrn": null, "companyLink1": null, "logo": null, "title": "C. N. Vidhyalaya", "subtitle": "High School, Science and Mathematics", "description": null, "grade": null, "period": {"startedOn": {"year": 1982, "month": 0}, "endedOn": {"year": 1986, "month": 0}}}], "licenseAndCertificates": [], "honorsAndAwards": [], "languages": [{"name": "Gujarati", "proficiency": ""}, {"name": "Hindi", "proficiency": ""}], "volunteerAndAwards": [], "verifications": [], "promos": [], "highlights": [], "projects": [], "publications": [], "patents": [{"title": "Method, system, and device for securely handling virtual function driver communications with a physical function driver", "subtitle": "US 8,756,689 \u00b7 Issued Jun 17, 2014", "description": "In an input/output virtualization-enabled computing environment, a device, method, and system for securely handling virtual function driver communications with a physical function driver of a computing device includes maintaining communication profiles for virtual function drivers and applying the communication profiles to communications from the virtual function drivers to the physical function driver, to determine whether the communications present a security and/or performance condition. The device, method and system may disable a virtual function driver if a security and/or performance condition is detected. ", "url": "http://www.uspto.gov/web/patents/patog/week03/OG/html/1422-3/US09239728-20160119.html"}], "courses": [], "testScores": [], "organizations": [], "volunteerCauses": [], "interests": [], "recommendationsReceived": [], "recommendations": [{"name": "Robert Garrett", "subtitle": "Infrastructure Engineer", "date": "December 23, 2012", "context": "Nrupal was Robert's client", "description": "Robert worked as a contractor in the Intel LAN Access Division, where he was part of the validation team.  Robert has in-depth understanding of the Linux networking stack.  Robert quickly ramped up on the Open Source Hypervisors, Xen, KVM & became the key contributor in the validation team.  Robert worked diligently to test the SR-IOV drivers where he helped engineering to uncover some of the important issues.  I really enjoyed working with Robert!!!", "urn": "urn:li:fsd_profile:ACoAAAN6AIEBrpS6duoHUBBjXEVoHUhmW3xwyPo", "url": "https://www.linkedin.com/in/robert-garrett-19564a17/"}], "peopleAlsoViewed": [{"last_name": "Hess", "first_name": "Zach", "headline": "HPC | DevOps Engineer | LiveSite Champion | Ex-Microsoft", "entity_urn": "urn:li:fsd_profile:ACoAAAsgiSIB5lESrnzFUZ-nE07lJyxuGrBYygs", "public_identifier": "zach-hess-engineering", "premium": false, "profile_picture": "https://media.licdn.com/dms/image/v2/C5103AQEa2xgr2wbHjg/profile-displayphoto-shrink_400_400/profile-displayphoto-shrink_400_400/0/1516607560420?e=1775692800&v=beta&t=3pDYkytDptNZdufo_ev2UM5gpjAP80i3ydOoJtmlkF0", "url": "https://linkedin.com/in/ACoAAAsgiSIB5lESrnzFUZ-nE07lJyxuGrBYygs", "follower_count": 306}, {"last_name": "Jose", "first_name": "Jithin", "headline": "Partner Software Engineering Manager at Microsoft", "entity_urn": "urn:li:fsd_profile:ACoAAAL08UEB8WvRXAoek3SgLcMGuGQTaksms5Q", "public_identifier": "jithinjosepkl", "premium": true, "profile_picture": "https://media.licdn.com/dms/image/v2/C4D03AQF_DFw4pZY7Sw/profile-displayphoto-shrink_400_400/profile-displayphoto-shrink_400_400/0/1516539305651?e=1775692800&v=beta&t=dO-tn_2bQaTb9Jh9WMoIti6CkMNwWmTTJOpOPQv8oXk", "url": "https://linkedin.com/in/ACoAAAL08UEB8WvRXAoek3SgLcMGuGQTaksms5Q", "follower_count": 3092}, {"last_name": "Aggarwal", "first_name": "Mitu", "headline": "Sr. Software Engineer at Intel Corporation", "entity_urn": "urn:li:fsd_profile:ACoAAAKXWSIB5xQJyA3h9hkRJ66GUNCTzBswa3E", "public_identifier": "mitu-aggarwal-11668612", "premium": false, "profile_picture": "", "url": "https://linkedin.com/in/ACoAAAKXWSIB5xQJyA3h9hkRJ66GUNCTzBswa3E", "follower_count": 292}, {"last_name": "Zhang", "first_name": "Mu", "headline": "Engineer at Microsoft. Ex-Juniper", "entity_urn": "urn:li:fsd_profile:ACoAABG7TKcBEYc-QecI5Sn0iF1erKJOashAtrQ", "public_identifier": "mu-zhang-17376583", "premium": false, "profile_picture": "", "url": "https://linkedin.com/in/ACoAABG7TKcBEYc-QecI5Sn0iF1erKJOashAtrQ", "follower_count": 768}, {"last_name": "Bhalerao", "first_name": "Ojasvi", "headline": "Software Engineer II @ Microsoft | Master of Science in Computer Science", "entity_urn": "urn:li:fsd_profile:ACoAAB0Z0sIBnTsJF8inBorSGf-cXKp7xePyIwo", "public_identifier": "ojasvi-bhalerao", "premium": false, "profile_picture": "https://media.licdn.com/dms/image/v2/C4E03AQEVAOJI3IifoA/profile-displayphoto-shrink_800_800/profile-displayphoto-shrink_800_800/0/1650309859006?e=1775692800&v=beta&t=ZtUC4wLJwUJA3PNJq5rbjgLFcqqQBxWWncn4uQhYNeE", "url": "https://linkedin.com/in/ACoAAB0Z0sIBnTsJF8inBorSGf-cXKp7xePyIwo", "follower_count": 507}, {"last_name": "Melton", "first_name": "Luke", "headline": "SDE at Microsoft", "entity_urn": "urn:li:fsd_profile:ACoAAAGhXAMBvOK2LnnfcCq333y7ekh187awnJA", "public_identifier": "luke-melton-8ab1b09", "premium": false, "profile_picture": "", "url": "https://linkedin.com/in/ACoAAAGhXAMBvOK2LnnfcCq333y7ekh187awnJA", "follower_count": 7}, {"last_name": "Sandberg", "first_name": "Brad", "headline": "Technology Marketing Leader", "entity_urn": "urn:li:fsd_profile:ACoAAABmBlcByo7EqhtG8Dr4_KPNp9ZM449Hhp8", "public_identifier": "brad-sandberg-4732a52", "premium": false, "profile_picture": "https://media.licdn.com/dms/image/v2/C5603AQFMEnIG8Cbc3g/profile-displayphoto-shrink_800_800-alternative/profile-displayphoto-shrink_800_800-alternative/0/1529110537766?e=1775692800&v=beta&t=rQgxqriMossaUFRenXKINzMN0FlWmZT6eIP5S1unqHk", "url": "https://linkedin.com/in/ACoAAABmBlcByo7EqhtG8Dr4_KPNp9ZM449Hhp8", "follower_count": 369}, {"last_name": "Salas", "first_name": "Rafael", "headline": "Senior Software Engineer for Azure HPC+AI at Microsoft", "entity_urn": "urn:li:fsd_profile:ACoAABQZ7jQBriskqB3AS8o1FcewcVjjrrLh1wY", "public_identifier": "rafaelsalas1987", "premium": false, "profile_picture": "https://media.licdn.com/dms/image/v2/C4E03AQG0w94IwzcGbA/profile-displayphoto-shrink_200_200/profile-displayphoto-shrink_200_200/0/1516775767037?e=1775692800&v=beta&t=K7qvxSoc_AuPfddTI8uvi3u2p8nUUk7XJSt_HjEO2xU", "url": "https://linkedin.com/in/ACoAABQZ7jQBriskqB3AS8o1FcewcVjjrrLh1wY", "follower_count": 459}, {"last_name": "Kushwaha", "first_name": "Priyalee", "headline": "Sr. Device Driver Engineer", "entity_urn": "urn:li:fsd_profile:ACoAAAGd6LUBQcZZJgo86Wa4ypp1SrVTTyYeS5E", "public_identifier": "priyalee-kushwaha-a711019", "premium": false, "profile_picture": "https://media.licdn.com/dms/image/v2/D5603AQHMPDAAmgno5w/profile-displayphoto-shrink_800_800/profile-displayphoto-shrink_800_800/0/1719468213969?e=1775692800&v=beta&t=88X4EbuOLXPr6jlT0QltVbYdlaGa4oCvIakLxP97lb0", "url": "https://linkedin.com/in/ACoAAAGd6LUBQcZZJgo86Wa4ypp1SrVTTyYeS5E", "follower_count": 184}, {"last_name": "Banala", "first_name": "Preethi", "headline": "Software Engineer @ Google", "entity_urn": "urn:li:fsd_profile:ACoAAAYsJUwBMVG5O_YS8cWEx-ilwNlM401vrP8", "public_identifier": "preethi-banala", "premium": false, "profile_picture": "https://media.licdn.com/dms/image/v2/C5603AQFeXH0xezSN_w/profile-displayphoto-shrink_400_400/profile-displayphoto-shrink_400_400/0/1534095669925?e=1775692800&v=beta&t=GJVGBnYNxbjhAtjMt96eui3R6MgJOiodJBYUUrTP_70", "url": "https://linkedin.com/in/ACoAAAYsJUwBMVG5O_YS8cWEx-ilwNlM401vrP8", "follower_count": 484}, {"last_name": "Lynch", "first_name": "Michael", "headline": "M&A | Technologist | Advisor", "entity_urn": "urn:li:fsd_profile:ACoAAABhUdYBfNE1dQOOuXVA32mbyWc0HpernpI", "public_identifier": "michael-lynch-b321762", "premium": false, "profile_picture": "https://media.licdn.com/dms/image/v2/C4D03AQGmtx6fupm-RA/profile-displayphoto-shrink_800_800/profile-displayphoto-shrink_800_800/0/1640951960365?e=1775692800&v=beta&t=L7Vjl6UEVsRMb7cPFFLGRvfCZklSWmceRMcYsKgpen8", "url": "https://linkedin.com/in/ACoAAABhUdYBfNE1dQOOuXVA32mbyWc0HpernpI", "follower_count": 1351}, {"last_name": "Dave", "first_name": "Tushar", "headline": "Senior Linux System SW Engineer at NVIDIA", "entity_urn": "urn:li:fsd_profile:ACoAAAVquxwB_1q4tmmHSQb2if8hTvi6OgH0vAE", "public_identifier": "tushar-dave-07852926", "premium": false, "profile_picture": "https://media.licdn.com/dms/image/v2/C5603AQElwYRkGC07YQ/profile-displayphoto-shrink_400_400/profile-displayphoto-shrink_400_400/0/1546991150292?e=1775692800&v=beta&t=GcyRm1aEUMxZJO60DBvz9iJ9VTltqCcrymJ_7-Av-w0", "url": "https://linkedin.com/in/ACoAAAVquxwB_1q4tmmHSQb2if8hTvi6OgH0vAE", "follower_count": 863}, {"last_name": "Gaur", "first_name": "Aditi", "headline": "Senior Software Engineer", "entity_urn": "urn:li:fsd_profile:ACoAAA0Zr9wBlDtF5OIf3WfkKQekSXqg6fFsRmM", "public_identifier": "aditigaur4", "premium": false, "profile_picture": "https://media.licdn.com/dms/image/v2/C5603AQEcf66ZZGFBOA/profile-displayphoto-shrink_800_800/profile-displayphoto-shrink_800_800/0/1663126042668?e=1775692800&v=beta&t=bZ8L9QjrufXuso9V4eCy1VeQTTShZU5RwsLgzF8kYfM", "url": "https://linkedin.com/in/ACoAAA0Zr9wBlDtF5OIf3WfkKQekSXqg6fFsRmM", "follower_count": 567}, {"last_name": "Lemarchand", "first_name": "Remi", "headline": "Principal Software Engineer at Microsoft", "entity_urn": "urn:li:fsd_profile:ACoAAAB5tZMBDKYkqjWY78cbotcyrrphIFq0u_w", "public_identifier": "remi-lemarchand-b2b8072", "premium": true, "profile_picture": "https://media.licdn.com/dms/image/v2/C5603AQGleM915l1rPQ/profile-displayphoto-shrink_400_400/profile-displayphoto-shrink_400_400/0/1516284511412?e=1775692800&v=beta&t=uRDZRjoBK5HDGcIRH13OvrXURejSU-mtMtqj9Y1KyuM", "url": "https://linkedin.com/in/ACoAAAB5tZMBDKYkqjWY78cbotcyrrphIFq0u_w", "follower_count": 553}, {"last_name": "Cheng", "first_name": "Peng", "headline": "Partner Research Manager at Microsoft", "entity_urn": "urn:li:fsd_profile:ACoAAARDmvEBpjdqBTgmHubwC4OUqQ_LDD2aBcY", "public_identifier": "peng-cheng-181b601b", "premium": true, "profile_picture": "https://media.licdn.com/dms/image/v2/C4D03AQGQMieLj1xSig/profile-displayphoto-shrink_800_800/profile-displayphoto-shrink_800_800/0/1516883983013?e=1775692800&v=beta&t=uLGvQk1n79h8bdrjPfqRt7FNiLf_R_B-IbkXK7VJCWA", "url": "https://linkedin.com/in/ACoAAARDmvEBpjdqBTgmHubwC4OUqQ_LDD2aBcY", "follower_count": 930}, {"last_name": "Jos", "first_name": "Kellie", "headline": "Senior Software Engineer | Cloud Solutions | Full-Stack Development | Security & Reliability Advocate | Mentor", "entity_urn": "urn:li:fsd_profile:ACoAAAR9DsUBR7d2U1BFVPs8SS_F7i0nrCyEBxo", "public_identifier": "kellie-jos", "premium": false, "profile_picture": "https://media.licdn.com/dms/image/v2/D4E03AQH6hEYwoQSqeg/profile-displayphoto-shrink_800_800/profile-displayphoto-shrink_800_800/0/1684442904276?e=1775692800&v=beta&t=bXoB_VzoF96m094wHVQxbxM7Ak-TyZu4B9jUCvX4weg", "url": "https://linkedin.com/in/ACoAAAR9DsUBR7d2U1BFVPs8SS_F7i0nrCyEBxo", "follower_count": 499}, {"last_name": "S.", "first_name": "Dilip", "headline": "Product Management", "entity_urn": "urn:li:fsd_profile:ACoAAACiBOIBy1hV124-SkSBnlvdM3BkaVwHHCs", "public_identifier": "dilip-bio", "premium": true, "profile_picture": "", "url": "https://linkedin.com/in/ACoAAACiBOIBy1hV124-SkSBnlvdM3BkaVwHHCs", "follower_count": 2496}, {"last_name": "Detroja", "first_name": "Smit", "headline": "Senior Software Development Engineer at Amazon | DA-IICT", "entity_urn": "urn:li:fsd_profile:ACoAACvAgt4B5v8E1UjLry2ewV6hEFLvSzKmhiM", "public_identifier": "smit-detroja-9129b1185", "premium": false, "profile_picture": "https://media.licdn.com/dms/image/v2/C4D03AQGk93ncdd2BvQ/profile-displayphoto-shrink_800_800/profile-displayphoto-shrink_800_800/0/1595054293776?e=1775692800&v=beta&t=7ZRUqERDSDUnCHo43vycrRY-AMAZ810L25oWc_E6UO4", "url": "https://linkedin.com/in/ACoAACvAgt4B5v8E1UjLry2ewV6hEFLvSzKmhiM", "follower_count": 1642}, {"last_name": "R.", "first_name": "Prabhat", "headline": "Partner AI/HPC Architect", "entity_urn": "urn:li:fsd_profile:ACoAAAA25lAB7WLkD6kYEFtuhRFwXqO8VK3t4Lk", "public_identifier": "prabhat2020", "premium": true, "profile_picture": "https://media.licdn.com/dms/image/v2/D5603AQG0kf1oE2cx7A/profile-displayphoto-shrink_400_400/profile-displayphoto-shrink_400_400/0/1664052448207?e=1775692800&v=beta&t=ni8jDOXlmANX0yK76MBlcrPnYYvanat52vtuNss75Jc", "url": "https://linkedin.com/in/ACoAAAA25lAB7WLkD6kYEFtuhRFwXqO8VK3t4Lk", "follower_count": 7814}, {"last_name": "savani", "first_name": "Deep", "headline": "Senior SWE at Google | ICPC World Finalist 2020 | Ex- Flipkart | Ex - Sprinklr | DA-IICT", "entity_urn": "urn:li:fsd_profile:ACoAACZPqPEBPMJqjTsAXlvR7_jHjuW_C2mhHTU", "public_identifier": "deep-savani-70131015b", "premium": false, "profile_picture": "https://media.licdn.com/dms/image/v2/C4E03AQHmWBJ25Er4lg/profile-displayphoto-shrink_800_800/profile-displayphoto-shrink_800_800/0/1585202375874?e=1775692800&v=beta&t=5ldH4j4KQZyPxUvcgbSaUMm5e7IKpo-NyZZXCPCnodQ", "url": "https://linkedin.com/in/ACoAACZPqPEBPMJqjTsAXlvR7_jHjuW_C2mhHTU", "follower_count": 2662}, {"last_name": "Garg", "first_name": "Mohit", "headline": "VP of Engineering, AI Infrastructure | Microsoft | IIT Delhi", "entity_urn": "urn:li:fsd_profile:ACoAAC-4OAYB5o-aKLr1ZiTDVKyrmF_ohSIlXNM", "public_identifier": "mohit-garg-4b21531a4", "premium": true, "profile_picture": "https://media.licdn.com/dms/image/v2/D4E03AQEHSNpvl_Wuxg/profile-displayphoto-shrink_800_800/profile-displayphoto-shrink_800_800/0/1726762339734?e=1775692800&v=beta&t=qDKjLgyESKdaU-tTTuUvnWshB9SelKOiBBTg8lpyJ6Q", "url": "https://linkedin.com/in/ACoAAC-4OAYB5o-aKLr1ZiTDVKyrmF_ohSIlXNM", "follower_count": 2152}, {"last_name": "Patel", "first_name": "Yatin", "headline": "Senior Software Engineer at Docusign | Ex SDE2 @Amazon", "entity_urn": "urn:li:fsd_profile:ACoAAB9KnXwBHGllIN4-63ccNumhPtBDS4_26kE", "public_identifier": "yatin2410", "premium": false, "profile_picture": "https://media.licdn.com/dms/image/v2/D5603AQHfQ_kyTtSjXQ/profile-displayphoto-shrink_800_800/profile-displayphoto-shrink_800_800/0/1704446868589?e=1775692800&v=beta&t=WunAC4JPxELdpUZjuQPthda9iD3rTa_CjxtCDL_Ute8", "url": "https://linkedin.com/in/ACoAAB9KnXwBHGllIN4-63ccNumhPtBDS4_26kE", "follower_count": 4581}, {"last_name": "Panara", "first_name": "Brijesh", "headline": "Senior Software Engineer At Google | Gemini Enterprise | Ex-Sprinklr", "entity_urn": "urn:li:fsd_profile:ACoAABxwM44BCJdCxGzXHWRDHnKFoRWrbhFnWlU", "public_identifier": "brijesh-panara", "premium": false, "profile_picture": "https://media.licdn.com/dms/image/v2/C5103AQE6eHfFBttCYw/profile-displayphoto-shrink_800_800/profile-displayphoto-shrink_800_800/0/1569875551293?e=1775692800&v=beta&t=6YgVaCGDXhkGfFCZR6U4x9fNSl2uvnDpQJCWe_7r7To", "url": "https://linkedin.com/in/ACoAABxwM44BCJdCxGzXHWRDHnKFoRWrbhFnWlU", "follower_count": 5458}, {"last_name": "Koladiya", "first_name": "Drashti", "headline": "SWE @Google  \u2022 Former SWE intern @Instabase'23 & @Google'22 \u2022 DAIICT'23 \u2022 Competitive programmer", "entity_urn": "urn:li:fsd_profile:ACoAAC_u4P8BbSlcvGn9MRyKMWpm2P4-2KaV5-Q", "public_identifier": "drashtikoladiya", "premium": false, "profile_picture": "https://media.licdn.com/dms/image/v2/D4D03AQF-h0o4HIXtBg/profile-displayphoto-shrink_800_800/profile-displayphoto-shrink_800_800/0/1663084312877?e=1775692800&v=beta&t=szPLSvCaup0iTNTQAvao5O95Q8EDJscL2dX4u_1xPys", "url": "https://linkedin.com/in/ACoAAC_u4P8BbSlcvGn9MRyKMWpm2P4-2KaV5-Q", "follower_count": 8432}, {"last_name": "Thomas", "first_name": "Sharon", "headline": "Photographer", "entity_urn": "urn:li:fsd_profile:ACoAAAJJQBQBPiCAQm69yAXvyjFPRoksp4fJ73s", "public_identifier": "sharon-thomas-1b0a1810", "premium": false, "profile_picture": "https://media.licdn.com/dms/image/v2/D5603AQE8UDZxyHrNIA/profile-displayphoto-shrink_800_800/profile-displayphoto-shrink_800_800/0/1723856869013?e=1775692800&v=beta&t=TUQM5PDs9fKe2kKMVT_e_EWdKNv2UPKdCRBJq94F7o8", "url": "https://linkedin.com/in/ACoAAAJJQBQBPiCAQm69yAXvyjFPRoksp4fJ73s", "follower_count": 582}, {"last_name": "Bliesner", "first_name": "David", "headline": "Data Architect at Nike", "entity_urn": "urn:li:fsd_profile:ACoAAAxp31ABjn30Em3kwD8nQvrkP9xgAh9w2vM", "public_identifier": "david-bliesner-9008b759", "premium": false, "profile_picture": "", "url": "https://linkedin.com/in/ACoAAAxp31ABjn30Em3kwD8nQvrkP9xgAh9w2vM", "follower_count": 5}]}, "profile_id": "86d688ad-1e09-4343-a4cc-ce318bf1b00d", "audience_room_id": "91cd222b-8cc9-4ee4-bf06-c5e9ed2f6f74", "summary": "Nrupal Jani is currently a Principal High-Performance Computing Backend Network Engineer at Microsoft (and has previously held senior principal engineering roles at Intel), operating within a large enterprise cloud and hardware engineering context. His posts focus heavily on supercomputing and AI infrastructure \u2014 announcing production-scale systems (e.g., the GB300 NVL72 with NVIDIA Blackwell Ultra GPUs), discussing low-latency interconnects like InfiniBand/Quantum-X800, and advocating for RDMA- and RoCE-based networking protocols for AI/ML workloads. He blends deep technical content about networking, SmartNICs, Linux datapath, virtualization, and hardware offloads with practical hiring and recruiting outreach, often sharing multiple job links, hiring events, and role descriptions. His tone is technical and pragmatic but also community-oriented and promotional: he both explains cutting-edge systems and actively solicits candidates or collaboration. Patterns in his content show consistent emphasis on performance, scalability, and security for cloud hardware and AI/HPC systems, along with cross-company collaboration and industry announcements. The unique value of his posts is the combination of hands-on technical expertise in high-performance interconnects and visible leadership in building teams and programs around supercomputing, hardware security, and Azure networking.", "highlights": ["Principal HPC Networking Engineer", "Technical Expert - RDMA / InfiniBand / RoCE", "Cloud + AI Infrastructure (Azure)", "Hiring & Talent Builder", "Hardware Security & Assurance", "Cross-Industry Experience (Intel & Microsoft)"], "keywords": ["Azure", "Microsoft", "NVIDIA", "GB300 NVL72", "Blackwell Ultra GPUs", "NVIDIA Quantum-X800 InfiniBand", "RDMA", "RoCE", "Supercomputing", "AI/ML workloads", "High-Performance Computing (HPC)", "SmartNICs", "Linux datapath / virtualization", "Hardware security", "Data Center / hiring events"], "postCount": 14}